{
	"label": "PF2E Эффекты аур",
	"entries": {
		"100ft Aura": {
			"name": "100-футовая аура"
		},
		"10ft Aura": {
			"name": "10-футовая аура"
		},
		"120ft Aura": {
			"name": "120-футовая аура"
		},
		"20ft Aura": {
			"name": "20-футовая аура"
		},
		"30ft Aura": {
			"name": "30-футовая аура"
		},
		"40ft Aura": {
			"name": "40-футовая аура"
		},
		"60ft Aura": {
			"name": "60-футовая аура"
		},
		"80ft Aura": {
			"name": "80-футовая аура"
		},
		"Flexible Aura": {
			"name": "Гибкая аура"
		}
	}
}