{
	"label": "LO: Mwangi Expanse",
	"mapping": {
		"name": {
			"path": "name",
			"converter": "actorNameConverter"
		},
		"items": {
			"path": "items",
			"converter": "actorItemCollectionConverter"
		},
		"description": "system.details.publicNotes",
		"descriptionGM": "system.details.privateNotes",
		"language": "system.traits.languages.custom",
		"senses": "system.perception.details",
		"disable": "system.details.disable",
		"reset": "system.details.reset",
		"routine": "system.details.routine",
		"hp": "system.attributes.hp.details",
		"di": "system.traits.di.custom",
		"stealth": "system.attributes.stealth.details",
		"ac": "system.attributes.ac.details",
		"allSaves": "system.attributes.allSaves.value",
		"speed": "system.attributes.speed.details"
	},
	"entries": {
		"Aigamuxa": {
			"name": "Aigamuxa",
			"description": "<p>Aigamuxas are towering humanoids that stalk arid deserts in search of prey. Carnivorous and voracious, they hunt anything that moves but especially relish eating sentient creatures. Many Mwangi people incorrectly refer to aigamuxas as demons, while others more accurately describe them as having descended from giants. Aigamuxas resemble large humans with smooth hollows where their eyes should be, but their eyes are actually embedded in the soles of their feet. They sport long, sharp claws and teeth that they use to tear their prey apart once they catch them. A moving aigamuxa's odd gait resembles dancing more than a typical walk or run, but its speed is alarming, if difficult to correctly estimate at a distance.</p>\n<p>An aigamuxa's unique physiology makes catching prey difficult, and most aigamuxas are constantly hungry. When pursuing prey, an aigamuxa must occasionally stop to lift its feet in order to regain their bearings. Most stand on their hands while looking around, which allows them to immediately backflip back into a run. An aigamuxa's eyes are generally resistant to the sands of their native desert habitats, but irritants such as chilies or caltrops can seriously impair their hunting ability, and desert travelers often carry a bag of these in case they need to deal with an aigamuxa.</p>\n<p>Clever aigamuxas know that attacking wandering prey can be very dangerous, instead using their powerful hands to dig deep into sand dunes or dirt and wait to ambush passersby. Aigamuxas are particularly good at hiding in their home environments, and unfortunate travelers often don't notice the barely visible eyes of an aigamuxa until it's too late.</p>",
			"items": [{
				"id": "qCRYzxalKMvt2eOZ",
				"name": "Коготь"
			},{
				"id": "kPGbuie2boUJmwwM",
				"name": "Челюсти"
			},{
				"id": "SwU7bw7xCeBBV1Qf",
				"name": "Нюх (неточное) 30 футов"
			},{
				"id": "AAqmK3Yvg7ChGpRl",
				"name": "Limited Vision",
				"description": "<p>An aigamuxa's eyes are located on the bottom of their feet, making it difficult for them to see. An aigamuxa is typically @UUID[Compendium.pf2e.conditionitems.Item.XgEqL1kFApUbl5Z2]. If they @UUID[Compendium.pf2e.actionspf2e.Item.BlAOM2X92SI6HMtJ], they can see normally until the end of their turn.</p>"
			},{
				"id": "5ptRIaj3SWZbrDDO",
				"name": "Weak Feet",
				"description": "<p>If an aigamuxa takes damage from Striding or Stepping into hazardous terrain or a square with similar grounded hazards (such as caltrops), they can't Seek until the end of their next turn.</p>"
			},{
				"id": "mBWCH69hMveboorN",
				"name": "Burrowed Ambush",
				"description": "<p><strong>Requirements</strong> The aigamuxa is @UUID[Compendium.pf2e.actionspf2e.Item.XMcnh4cSI32tljXa] in dirt, sand, or another soft surface</p>\n<hr />\n<p><strong>Effect</strong> The aigamuxa makes a claw Strike against a creature within reach. On a hit, the aigamuxa automatically Grabs the creature. Whether or not they hit, the aigamuxa then Strides. If they have a creature grabbed, the creature moves with the aigamuxa.</p>"
			},{
				"id": "FH4V8Xw43HQPNctv",
				"name": "Burrowing Concealment",
				"description": "<p><strong>Requirements</strong> The aigamuxa is standing on dirt, sand, or another soft surface</p>\n<hr />\n<p><strong>Effect</strong> The aigamuxa quickly digs into the surface and @UUID[Compendium.pf2e.actionspf2e.Item.XMcnh4cSI32tljXa]. They leave their feet partially exposed, allowing them to see out from the surface. The aigamuxa can hold their breath for up to 10 minutes while hiding in this way.</p>"
			},{
				"id": "2rc7rftQQ1MLECXG",
				"name": "Проглотить целиком",
				"description": "<p>Маленький, @Damage[(2d12+4)[bludgeoning]], Разрыв 22</p>\n<hr />\n<p>@Localize[PF2E.NPC.Abilities.Glossary.SwallowWhole]</p>"
			},{
				"id": "NWWUgiN78Gu0F9Wh",
				"name": "Захват"
			}]
		},
		"Anadi Elder": {
			"name": "Anadi Elder",
			"description": "<p>Anadi elders must make the difficult decision of whether to continue negotiations or to escalate a disagreement to outright conflict.</p>\n<hr />\n<p>Anadis are peaceful, reclusive humanoids who live deep within woodlands, jungles, and other untamed areas of wilderness. Their natural forms resemble humanoid spiders covered in beautiful and distinctive markings of varying colors. These patterns are as unique as other humanoids' facial features, birthmarks, and other identifying aspects.</p>\n<p>Anadis possess an innate talent for illusion and transmutation. They learned long ago how off-putting their natural forms can be to other humanoids, so they frequently use their innate talents to assume human forms. When they do so, only a strange, lovely sheen to their dark eyes and the deliberative, jerky movements of their gestures might indicate that an anadi is not entirely what they appear. As they are well aware of and accommodating toward other humanoids' delicate sensibilities about arachnids, many anadis consider it rude to show their natural forms to a stranger. Instead, most display their spider-like forms only as an intimidation tactic when threatened, or in privacy to those they trust.</p>\n<p>Most anadi tend to be shy and seek to live quiet lives harvesting mushrooms and weaving beautiful, patterned silk cloth. When forced into combat-an eventuality most anadis despise-they shift into their hybrid forms as soon as possible, allowing them to inflict their devastating natural venom on their foes.</p>"
		},
		"Anadi Hunter": {
			"name": "Anadi Hunter",
			"description": "<p>Anadi hunters act as the eyes and ears of their clans, scouting the surrounding area for potential invaders.</p>\n<hr />\n<p>Anadis are peaceful, reclusive humanoids who live deep within woodlands, jungles, and other untamed areas of wilderness. Their natural forms resemble humanoid spiders covered in beautiful and distinctive markings of varying colors. These patterns are as unique as other humanoids' facial features, birthmarks, and other identifying aspects.</p>\n<p>Anadis possess an innate talent for illusion and transmutation. They learned long ago how off-putting their natural forms can be to other humanoids, so they frequently use their innate talents to assume human forms. When they do so, only a strange, lovely sheen to their dark eyes and the deliberative, jerky movements of their gestures might indicate that an anadi is not entirely what they appear. As they are well aware of and accommodating toward other humanoids' delicate sensibilities about arachnids, many anadis consider it rude to show their natural forms to a stranger. Instead, most display their spider-like forms only as an intimidation tactic when threatened, or in privacy to those they trust.</p>\n<p>Most anadi tend to be shy and seek to live quiet lives harvesting mushrooms and weaving beautiful, patterned silk cloth. When forced into combat-an eventuality most anadis despise-they shift into their hybrid forms as soon as possible, allowing them to inflict their devastating natural venom on their foes.</p>"
		},
		"Anadi Sage": {
			"name": "Anadi Sage",
			"description": "<p>Anadi sages commune with nature and hone their magic through practice.</p>\n<hr />\n<p>Anadis are peaceful, reclusive humanoids who live deep within woodlands, jungles, and other untamed areas of wilderness. Their natural forms resemble humanoid spiders covered in beautiful and distinctive markings of varying colors. These patterns are as unique as other humanoids' facial features, birthmarks, and other identifying aspects.</p>\n<p>Anadis possess an innate talent for illusion and transmutation. They learned long ago how off-putting their natural forms can be to other humanoids, so they frequently use their innate talents to assume human forms. When they do so, only a strange, lovely sheen to their dark eyes and the deliberative, jerky movements of their gestures might indicate that an anadi is not entirely what they appear. As they are well aware of and accommodating toward other humanoids' delicate sensibilities about arachnids, many anadis consider it rude to show their natural forms to a stranger. Instead, most display their spider-like forms only as an intimidation tactic when threatened, or in privacy to those they trust.</p>\n<p>Most anadi tend to be shy and seek to live quiet lives harvesting mushrooms and weaving beautiful, patterned silk cloth. When forced into combat-an eventuality most anadis despise-they shift into their hybrid forms as soon as possible, allowing them to inflict their devastating natural venom on their foes.</p>"
		},
		"Asanbosam": {
			"name": "Asanbosam",
			"description": "<p>Asanbosams are monstrous, hairy humanoids with cold iron fangs and muscular limbs that end in powerful, hooked claws. They hang in treetops from their hooked feet, waiting patiently for a creature to pass by below. Asanbosams grab their prey from above, latching onto their unfortunate victims' necks to drain their blood. They react to perceived intrusions with belligerence, stalking visitors from high branches. Locals tell horror stories of these \"bloodsucking tree-folk,\" and experienced explorers keep a close watch on the treetops in asanbosam territory. Visitors to the Expanse often compare asanbosams to vampires, but these horrors aren't undead and bear no relation.</p>\n<p>An asanbosam's diet calls for a large amount of iron (typically in the form of blood) to maintain the integrity of its oversized cold iron teeth. When not hunting or mating, an asanbosam spends its waking hours chewing on certain types of rocks to sharpen its teeth.</p>\n<p>Some folk tales claim that asanbosams are as old as time and the original source of cold iron, and that veins of the metal found in the ground are truly the graveyards of ancient asanbosams. Brave (or foolish) poachers often infiltrate asanbosam territory to hunt these monsters in the hope of collecting sacks of their valuable teeth.</p>"
		},
		"Biloko Veteran": {
			"name": "Biloko Veteran",
			"description": "<p>A biloko who has led a sufficient number of successful hunts garners the respect (and fear) of their companions.</p>\n<hr />\n<p>Bilokos are crocodile-snouted fey who stalk the Mwangi Jungle and feast upon the flesh of humanoids. As cunning as they are vicious, bilokos employ deadly traps and guerrilla hunting tactics to capture prey-typically hapless explorers or, occasionally, wayward villagers, many of whom believe bilokos to be cruel ancestral spirits. The most powerful of these creatures, known as elokos, wield potent transformative magic.</p>\n<p>Bilokos have a fondness for bells, and the sound of ringing bells often indicates their presence. In addition to carrying and ringing them while out hunting, bilokos sometimes enchant bells with potent magic, or hang them on strings to serve as alarms for their encampments.</p>\n<p>Bilokos look like slender but wiry humanoids with crocodile-like heads, rust-colored skin, and blood-red eyes. They eat only the meat of humanoids, though they can survive for extended periods of time on a single meal thanks to their snakelike ability to consume a Medium humanoid creature whole. They do this by unhinging their jaws and slowly swallowing the victim from head to foot. Thanks to their acidic saliva and sharp teeth, a biloko can masticate their food into an easy-to-digest pulp, grinding flesh and bone into a compact mush, even while swallowing; thus, they do not flinch while devouring meals two or three times their own size.</p>\n<p>A recently-fed biloko can be easily recognized by their sagging, distended belly. However, despite their slow appearance, the fey is no less dangerous then, as they delight in killing and might have hungry comrades hiding nearby, waiting to feed.</p>"
		},
		"Biloko Warrior": {
			"name": "Biloko Warrior",
			"description": "<p>Bilokos prefer to move in small, stealthy packs through dark, isolated sections of the forest. When a band of bilokos finds a suitable hunting ground, they claim the area exclusively, digging pit traps, crafting snares from vines, and building blinds high in trees where they can lie in ambush.</p>\n<hr />\n<p>Bilokos are crocodile-snouted fey who stalk the Mwangi Jungle and feast upon the flesh of humanoids. As cunning as they are vicious, bilokos employ deadly traps and guerrilla hunting tactics to capture prey-typically hapless explorers or, occasionally, wayward villagers, many of whom believe bilokos to be cruel ancestral spirits. The most powerful of these creatures, known as elokos, wield potent transformative magic.</p>\n<p>Bilokos have a fondness for bells, and the sound of ringing bells often indicates their presence. In addition to carrying and ringing them while out hunting, bilokos sometimes enchant bells with potent magic, or hang them on strings to serve as alarms for their encampments.</p>\n<p>Bilokos look like slender but wiry humanoids with crocodile-like heads, rust-colored skin, and blood-red eyes. They eat only the meat of humanoids, though they can survive for extended periods of time on a single meal thanks to their snakelike ability to consume a Medium humanoid creature whole. They do this by unhinging their jaws and slowly swallowing the victim from head to foot. Thanks to their acidic saliva and sharp teeth, a biloko can masticate their food into an easy-to-digest pulp, grinding flesh and bone into a compact mush, even while swallowing; thus, they do not flinch while devouring meals two or three times their own size.</p>\n<p>A recently-fed biloko can be easily recognized by their sagging, distended belly. However, despite their slow appearance, the fey is no less dangerous then, as they delight in killing and might have hungry comrades hiding nearby, waiting to feed.</p>",
			"ac": "(18 with shield raised)"
		},
		"Charau-ka Acolyte of Angazhan": {
			"name": "Charau-ka Acolyte of Angazhan",
			"description": "<p>Even with the Gorilla King's fall, many charau-ka still worship the terrible might of the god Angazhan. The strongest of these acolytes guard the steps of the High Throne in Usaro, ensuring that no one without Angazhan's favor or suitable physical prowess can approach the top of the massive stone step pyramid.</p>\n<hr />\n<p>Legend tells that charau-ka share ancestry with the demon lord Angazhan, who transformed the dead bodies of humans who waged war against his cult, causing them to rise as the first of the mandrill-like humanoids. Though long unproven, rumors persist that charau-ka priests have perfected a hideous ritual that forces the slain to reincarnate as new charau-ka in honor of this ancient tale. Other stories say that powerful altars devoted to Angazhan contain this power, and that conducting ritual sacrifices before these magical artifacts causes the spirits of the dead to return to life as violent devotees of Angazhan, the master of those who revel in savagery and destruction.</p>\n<p>The largest charau-ka stronghold in the Mwangi Expanse is the city of Usaro, located on the shores of Lake Ocota. Though the death of their Gorilla King has led to political turmoil, the charau-ka will happily unite to kidnap or murder any outsiders in the area.</p>"
		},
		"Charau-ka Butcher": {
			"name": "Charau-ka Butcher",
			"description": "<p>While charau-ka are infamous for their brutality, some even frighten their own kind in their obsession with violence. These deadly butchers are well-versed in the art of inflicting vicious, bloody wounds on their enemies, and they consider anyone not charau-ka an enemy. A single taste of a foe's blood can grant one terrifying strength, as if the charau-ka butcher literally gains power from their victims' pain.</p>\n<hr />\n<p>Legend tells that charau-ka share ancestry with the demon lord Angazhan, who transformed the dead bodies of humans who waged war against his cult, causing them to rise as the first of the mandrill-like humanoids. Though long unproven, rumors persist that charau-ka priests have perfected a hideous ritual that forces the slain to reincarnate as new charau-ka in honor of this ancient tale. Other stories say that powerful altars devoted to Angazhan contain this power, and that conducting ritual sacrifices before these magical artifacts causes the spirits of the dead to return to life as violent devotees of Angazhan, the master of those who revel in savagery and destruction.</p>\n<p>The largest charau-ka stronghold in the Mwangi Expanse is the city of Usaro, located on the shores of Lake Ocota. Though the death of their Gorilla King has led to political turmoil, the charau-ka will happily unite to kidnap or murder any outsiders in the area.</p>"
		},
		"Charau-ka Warrior": {
			"name": "Charau-ka Warrior",
			"description": "<p>A charau-ka warrior carries hatchets, daggers, and similar weaponry on their person. They usually don't worry about running out of thrown weapons, as rocks plucked from the ground are just as deadly in their hands.</p>\n<hr />\n<p>Legend tells that charau-ka share ancestry with the demon lord Angazhan, who transformed the dead bodies of humans who waged war against his cult, causing them to rise as the first of the mandrill-like humanoids. Though long unproven, rumors persist that charau-ka priests have perfected a hideous ritual that forces the slain to reincarnate as new charau-ka in honor of this ancient tale. Other stories say that powerful altars devoted to Angazhan contain this power, and that conducting ritual sacrifices before these magical artifacts causes the spirits of the dead to return to life as violent devotees of Angazhan, the master of those who revel in savagery and destruction.</p>\n<p>The largest charau-ka stronghold in the Mwangi Expanse is the city of Usaro, located on the shores of Lake Ocota. Though the death of their Gorilla King has led to political turmoil, the charau-ka will happily unite to kidnap or murder any outsiders in the area.</p>"
		},
		"Eloko": {
			"name": "Eloko",
			"description": "<p>If a biloko is lucky enough to consume several spellcasters or other creatures with innate magical abilities, they undergo a subtle transformation over the course of 1 week. Such a fey is known as an eloko, and in addition to their incredible appetite (even by biloko standards), they have the supernatural ability to grow to immense size.</p>\n<hr />\n<p>Bilokos are crocodile-snouted fey who stalk the Mwangi Jungle and feast upon the flesh of humanoids. As cunning as they are vicious, bilokos employ deadly traps and guerrilla hunting tactics to capture prey-typically hapless explorers or, occasionally, wayward villagers, many of whom believe bilokos to be cruel ancestral spirits. The most powerful of these creatures, known as elokos, wield potent transformative magic.</p>\n<p>Bilokos have a fondness for bells, and the sound of ringing bells often indicates their presence. In addition to carrying and ringing them while out hunting, bilokos sometimes enchant bells with potent magic, or hang them on strings to serve as alarms for their encampments.</p>\n<p>Bilokos look like slender but wiry humanoids with crocodile-like heads, rust-colored skin, and blood-red eyes. They eat only the meat of humanoids, though they can survive for extended periods of time on a single meal thanks to their snakelike ability to consume a Medium humanoid creature whole. They do this by unhinging their jaws and slowly swallowing the victim from head to foot. Thanks to their acidic saliva and sharp teeth, a biloko can masticate their food into an easy-to-digest pulp, grinding flesh and bone into a compact mush, even while swallowing; thus, they do not flinch while devouring meals two or three times their own size.</p>\n<p>A recently-fed biloko can be easily recognized by their sagging, distended belly. However, despite their slow appearance, the fey is no less dangerous then, as they delight in killing and might have hungry comrades hiding nearby, waiting to feed.</p>"
		},
		"Grootslang": {
			"name": "Grootslang",
			"description": "<p>While it's easy to mistake a grootslang for an elephant upon first glance, once the rest of its body becomes visible, the creature resembles a grotesque puppet manipulated like a marionette from the inside by a snake large enough to swallow a building. A grootslang stands 20 feet tall, with skin like plated armor and a pair of massive forearms. It sports six deadly tusks capable of piercing flesh and bone with ease. The rest of its body extends up to 60 feet long. A grootslang's face resembles that of an elephant, but much like its serpentine cousins, it can unhinge its lower jaw to swallow its prey.</p>\n<p>A person encountering a grootslang has a slight chance of reasoning with or bribing the beast, possibly escaping a deadly fate. A hoard of gems is no guarantee of safety, however, and a particularly cruel grootslang will just as likely go back on their word upon receiving the offering.</p>"
		},
		"K'nonna": {
			"name": "K'nonna",
			"description": "<p>K'nonna are half human-and only half, in the most literal sense. They most often resemble the right half of a human, and less frequently the left half, split perfectly down the middle starting at the crown of their head. They accordingly have one eye, one ear, one arm, one leg, half of a nose, and half of a mouth full of razor-sharp teeth. A faint shimmer in the air, like the waves over a hot stone, hints at where their other half would be.</p>\n<p>Despite the bizarre appearance of the k'nonna, they have no trouble balancing or performing everyday tasks that might be impeded by missing half of their bodies. They are extremely dexterous, able to perform complex tasks with only a single hand. The nature of their missing half has so far defied explanation; it is not invisible, nor does it exist on another plane, yet it seems to exert enough force for a k'nonna to walk like a human being.</p>\n<p>No one is certain of the k'nonna's origins, except that they are not of this world and not descended from any known mortal creature. Banishment magic has no effect on them, implying they do not come from another plane. They are intelligent but difficult to communicate with-they speak only in half words and hear only half of what anyone says. K'nonna are also much less interested in talking than eating, and humanoids happen to be their favorite meal. The remains of a k'nonna's victim are unmistakable, as they only consume half the body.</p>\n<p>Stories tell of the half-people's love for gifts, especially jewelry. Offerings of rings and necklaces easily distract a k'nonna long enough for prey to escape. Particularly bold victims might try to trick a k'nonna into wearing a bracelet that binds their one visible wrist or ankle to immobilize them, though the tactic is not foolproof, as a k'nonna displeased with their gifts will hunt the person who displeased them for the rest of their days.</p>",
			"language": "see Half-Speaker"
		},
		"Kaava Stalker": {
			"name": "Kaava Stalker",
			"description": "<p>Kaava hunting parties can number in the dozens, although they blend easily into the forest and cover all traces of their passage. While community elders assign various tasks to hunting parties, such as recovering food or deterring intruders, the parties are expected to accomplish these tasks as they see fit.</p>\n<hr />\n<p>Kaava are stealthy, jungle-dwelling humanoids with short down feathers that can easily be mistaken for fur from a distance. Kaava have tough scales beneath these feathers. Both the scales and feathers have mutable pigmentation that allows a kaava to blend into surrounding foliage like a chameleon.</p>"
		},
		"Karina": {
			"name": "Karina",
			"description": "<p>Karinas-also known as plague birds-are large owl-like creatures with dark red feathers, powerful talons, and unsettling eyes. Their broad wings conceal a pair of wiry humanoid arms that end in clawed fingers, which they use to dig through burial sites in search of corpses. The fell purpose of this is still a mystery, though most believe that karinas make off with these dead bodies to consume them in the safety of their lairs. The difficulty of tracking the beasts, as well as the danger, makes it difficult to know for sure.</p>\n<p>A karina's terrifying appearance suggests that they're not natural creatures. Many legends claim that karinas first flew out of Abaddon to the Material Plane to consume the corpses of the first mortals, while others state that the first karina was born from the soul of the first mortal who partook in cannibalism. The power of good repulses karinas, suggesting an evil or fiendish origin.</p>\n<p>Karinas are plague carriers and intentionally attack creatures to spread their own personal pestilence. The supernatural disease they carry, known as grave blight, causes fever, disorientation, and (at later stages) an innate desire to attack others and spread the disease. Karinas revel in the slow collapse of villages, lurking in the surrounding jungle to observe every miserable moment. As the locals bury their dead, the karinas swoop in to steal the corpses.</p>\n<p>In addition to carrying a terrible disease, karinas also have the ability to mimic voices. They typically repeat phrases they've heard, but twist the voice into a fiendish corruption of the original. Intelligent enough to recognize the friends and family of a possible target, a karina will use the mocking voice of a loved one to frighten them. When terrorizing a village, they generally work together in groups of two or three.</p>",
			"language": "(Can't Speak Any Language)"
		},
		"Maliadi": {
			"name": "Maliadi",
			"description": "<p>A maliadi resembles a massive hippopotamus surrounded by a collar of flame. Maliadis are arrogant and tyrannical, and demand tribute from everyone they encounter-whether lone travelers or entire villages-to avert destruction. Many pay them off, for maliadis can hurl parts of their flaming collars to form geysers of flame or fiery walls, and they're also powerful shapeshifters.</p>"
		},
		"Mamlambo": {
			"name": "Mamlambo",
			"description": "<p>Mamlambos are river predators with hypnotic, bioluminescent skin. They appear similar to crocodiles, but the narrow head at the end of their long necks resembles a horse's skull, and their four legs are stubby and inefficient for land movement. Their skin's green glow is only barely visible in daylight or when underwater, though the glow is difficult to resist. As a result, they're frequently trailed by fish, birds, or other river creatures ensnared by the alluring radiance.</p>\n<p>Humanoids are mamlambos' favorite prey, particularly humans, although they strangely prefer to only eat their victims' faces and brains. Mamlambos are dim-witted but sly, and sometimes hide their victims under submerged rocks or logs to make their discovery less likely. A mamlambo might be active in a region for days or even weeks before its presence is discovered.</p>"
		},
		"Pygmy Kaava": {
			"name": "Pygmy Kaava",
			"description": "<p>An unusually large number of kaava living in the Kaava Lands are relatively small, standing about 3 feet tall and weighing about 30 pounds. Pygmy kaava openly show their disdain for larger kaava, and the two groups rarely get along. Pygmy kaava often hunt alongside trained bush vipers or black mamba snakes.</p>\n<hr />\n<p>Kaava are stealthy, jungle-dwelling humanoids with short down feathers that can easily be mistaken for fur from a distance. Kaava have tough scales beneath these feathers. Both the scales and feathers have mutable pigmentation that allows a kaava to blend into surrounding foliage like a chameleon.</p>"
		},
		"Rompo": {
			"name": "Rompo",
			"description": "<p>Rompos are unusual creatures that feed on corpses. They have thin, almost-skeletal bodies with strong rear legs that resemble a bear's, front legs like a badger's, and a head like a hare's with humanoid ears. A rompo tends to be timid on its own; it avoids other creatures and typically flees in the presence of larger animals. Though no more intelligent than any other beast, it usually acts with extreme paranoia, dodging traps or ambushes with an uncanny acumen. When danger is present, a rompo utters a loud cry to afford itself space to run and hides by using its body's natural color-shifting fur as camouflage.</p>\n<p>Although rompos sport the perfect physical features to act as predators, they tend to live their lives as solitary scavengers of leftover corpses. Rompos prefer to avoid hunting for themselves since they risk sustaining injuries in the process. It's not uncommon for rompos to follow other predators for hours, waiting for an opportunity to feast on the leftover remains of a hunt.</p>\n<p>Once a rompo gains access to a meal, it takes several minutes circling the corpse to make sure the area is clear. As it begins to feast, it lets out a whimpering cry that fascinates and compels other creatures to keep away so that the rompo can feed in peace. Due to its constant feeding on decaying flesh, a rompo's mouth is filled with rot, parasites, and deadly pathogens. Its bite can impart these combined infections as a dangerous disease known as rompo chills. The disease causes its victim to tremble uncontrollably, lightly at first but eventually developing into a violent shaking that ends with the victim's death. Despite their cautious nature, rompos always seem to linger close to creatures they infect with rompo chills; though they remain unseen while the victim lives, they emerge when that victim finally succumbs, in order to feed on the corpse.</p>"
		},
		"Sié Goluo": {
			"name": "Sié Goluo",
			"description": "<p>Sié Goluo, sometimes referred to simply as Grandfather, is an ancient spirit that has kept watch over the peoples of the Mwangi Expanse for generations. Most believe he first appeared during the Age of Darkness to protect the Mwangi people from the worst dangers of the everlasting night. Bekyar storytellers claim he is older still, from a time before the first people walked Golarion. This immortal spirit has incarnated into multiple forms over millennia. In the oldest surviving tales, they say Sié Goluo looked like an ordinary-if oversized-ox, save for his nearly human-looking eyes. Most recently, people say he has the appearance of several different animals, but accounts vary on which animals make up his form.</p>\n<p>When a traveling farmer is assailed by a deadly beast, or a small village faces the wrath of an advancing army, Sié Goluo manifests in whatever form will allow him to best defend them. There seem to be no geographical limitations on where he can manifest, as there are tales of him saving Mwangi adventurers as far spread as Tian Xia and Arcadia.</p>",
			"language": "(Can't Speak Any Language)",
			"hp": "rejuvenation"
		},
		"Solar Ibis": {
			"name": "Solar Ibis",
			"description": "<p>Solar ibis are beings of light sometimes called sun birds, or \"winged luminaries\" by the more scholarly inclined. They're tasked with guarding sacred places or items, although they sometimes also protect the living from places of incredible danger. Their appearance is always preceded by numerous small purple-winged birds with a splash of yellow on their crowns; these are avatars of the ibis that nest and congregate in areas it protects. The presence of these avatars is often the only way to track these reclusive and solitary creatures. Should the solar ibis choose to appear, these little birds scatter like wild fowl. The sun bird then manifests and bathes the area in a brilliant shower of light that can blind and startle unwary and unprepared creatures in its presence.</p>\n<p>The solar ibis appears as a magnificent, large bird surrounded by a halo of brilliant light. Its black feathers shimmer with all the colors of the spectrum, casting glossy rainbows across its plumage. It has a keen sense of insight, which it uses to pass judgment as a whole on whether those before it are worthy to access what it guards. It punishes those it finds unworthy with its cleansing might.</p>\n<p>Though considered sacred by most within the Mwangi Expanse, there are still some who hunt these glorious creatures; some seek the treasures that the ibis keep, while others seek the ibis themselves, dead or alive. Some believe that the feathers of a solar ibis, when burned, create an incense that can grant holy power to those that inhale it. Others believe that its bones and feet can be ground into a powder that can destroy demons and purify the undead.</p>",
			"language": "(Can't Speak Any Language)"
		},
		"Zinba": {
			"name": "Zinba",
			"description": "<p>Commonly known as ghost serpents, zinbas are rare, amphibious snakes with healing abilities. They're of similar size to other large snakes, such as pythons, but have a distinct bright blue coloring with red-and-black patterned stripes along their backs. This distinct coloration is easy to spot, but zinbas can swim through the wet mud and soft earth of their homes to avoid being tracked by all but the most skilled pursuers. This elusiveness inspires their \"ghost serpent\" moniker.</p>\n<p>A zinba can metabolize a unique additive for its venom that converts it from a deadly poison to a healing agent, which makes zinbas particularly valuable in the eyes of healers and poachers. There is a high demand for zinbas in many markets; live serpents fetch a hefty sum, but zinba eggs are especially valuable, as zinbas reared in captivity are less willful and more likely to eat in confinement. Their elusiveness, however, leads many to search for their dens instead, which are large pools of water among remote wetlands or underground hollows near bodies of water. The water of a zinba's pool also has minor but valuable healing qualities, but removing water from a den causes it to lose its healing properties after a few hours, so most who find a den attempt to immediately make use of it.</p>\n<p>Even finding dens is a difficult prospect, since zinbas are particularly intelligent for animals and can recognize signs of travelers near their favored hiding places. When there are signs of danger, a zinba collapses its lair and flees to create another den elsewhere.</p>",
			"language": "(Can't Speak Any Language)"
		}
	}
}