{
    "ROLL-TRACKER": {
        "button-title": "Проверить броски",
        "form-label": {
            "mean": "Среднее",
            "median": "Медиана",
            "mode": "Мода",
            "nat1s": "Натуральные 1",
            "nat20s": "Натуральные 20",
            "lastRoll": "Последний бросок",
            "count": "Количество",
            "instance": "экземпляр",
            "instances": "экземпляры",
            "each": "каждый"
        },
        "form-button": {
            "clear": "Очистить данные",
            "download": "Загрузить",
            "print": "Печать в чат"
        },
        "comparison-card": {
            "title": "Сравнительная карта",
            "headers": {
                "mean": "Среднее",
                "median": "Медиана",
                "mode": "Мода",
                "nat1s": "Натуральные 1",
                "nat20s": "Натуральные 20"
            },
            "descriptors": {
                "highest": "Высшее",
                "lowest": "Низшее",
                "most": "Самый частый",
                "fewest": "Самый редкий",
                "raw": "В цифрах",
                "percentage": "В процентах"
            },
            "misc" : {
                "and": "и",
                "with": "с"
            },
            "mode": {
                "most-frequent": "имел наиболее частый режим с",
                "instances-of": "случаи",
                "of-their-rolls": "из их бросков"
            }
        },
        "settings": {
            "gm_see_players": {
                "Name" : "Видеть значки бросков игроков?",
                "Hint" : "Если включено, Мастер будет видеть значки рядом с именами игроков, которые он может использовать для доступа к статистике бросков этого игрока."
            },
            "roll_storage": {
                "Name" : "Максимальное количество хранимых бросков",
                "Hint" : "Сколько бросков должна хранить система, прежде чем старые броски начнут перезаписываться?"
            },
            "players_see_players": {
                "Name" : "Могут ли игроки получить доступ к отслеживаемым броскам?",
                "Hint" : "Если отключено, игроки не смогут получить доступ к своей статистике бросков."
            },
            "count_hidden": {
                "Name" : "Считать слепые броски?",
                "Hint" : "Если отключены, слепые броски игроков не будут учитываться в количестве."
            },
            "streak_behaviour": {
                "Name" : "Поведение страйков",
                "Hint" : "Выберите, отключить ли сообщения о страйках, отправлять их Мастеру или показывать их публично. Примечание: страйки включающие слепой бросок всегда передаются Мастеру шепотом.",
                "disable": "Отключить сообщения о страйках",
                "hidden": "Шептать о страйках Мастеру",
                "shown": "Публично показывать страйки"
            },
            "streak_threshold": {
                "Name" : "Предверие страйков",
                "Hint" : "Количество последовательных бросков в пределах 1 очка друг от друга, которые должны быть засчитаны как страйк."
            },
            "dnd5e": {
                "restrict_counted_rolls": {
                    "Name": "Не показывать не связанные броски",
                    "Hint": "Если включено, трекер не будет подсчитывать броски, не связанные с участником. Например: ввод /r 1d20 не будет засчитан, но атака или спасбросок будут засчитаны."
                }
            },
            "pf2e": {
                "restrict_counted_rolls": {
                    "Name": "Не показывать не связанные броски",
                    "Hint": "Если включено, трекер не будет подсчитывать броски, не связанные с участником. Например: ввод /r 1d20 не будет засчитан, но атака или спасбросок будут засчитаны."
                }
            }
        },
        "confirms": {
            "clear_rolls": {
                "title": "Очистить броски?",
                "content": "Вы уверены, что хотите очистить свои броски? Это нельзя отменить."
            }
        }
    }
}