{
    "wayfinder": {
        "clearMovementHistory": "Очистить историю движения",
        "controls": {
            "pathfinding": "Навигатор"
        },
        "settings": {
            "enableActionIcons": {
                "name": "Иконки действий",
                "hint": "Когда включено, будут отображены иконки, показывающие количество действий, необходимое чтобы передвинуть токен."
            },
            "enableDifficultTerrain": {
                "name": "Сложная местность",
                "hint": "Когда включено, будет показана дополнительная стоимость для движения через сложную местность."
            },
            "enableMovementHistory": {
                "name": "История движения",
                "hint": "Когда включено, будет отслеживать движение токена в бою и сбрасываться в начале хода токена."
            },
            "fogExploration": {
                "name": "Ограничивать исследованной областью",
                "hint": "Когда включено, навигация будет производиться только в той части сцены, которая была исследована."
            }
        }
    }
}