{
	"label": "PSY: Чары экстрасенса",
	"mapping": {
		"description": "system.description.value",
		"range": "system.range.value",
		"target": "system.target.value",
		"duration": "system.duration.value",
		"cost": "system.cost.value",
		"time": "system.time.value",
		"primarycheck": "system.primarycheck.value",
		"secondarycasters": "system.secondarycasters.value",
		"secondarycheck": "system.secondarycheck.value",
		"materials": "system.materials.value",
		"xtarget(2)": "system.heightening.levels.2.target.value",
		"xtarget(3)": "system.heightening.levels.3.target.value",
		"xtarget(4)": "system.heightening.levels.4.target.value",
		"xtarget(5)": "system.heightening.levels.5.target.value",
		"xtarget(6)": "system.heightening.levels.6.target.value",
		"xtarget(7)": "system.heightening.levels.7.target.value",
		"xtarget(8)": "system.heightening.levels.8.target.value",
		"xtarget(9)": "system.heightening.levels.9.target.value",
		"xtarget(10)": "system.heightening.levels.10.target.value",
		"xrange(3)": "system.heightening.levels.3.range.value",
		"xrange(4)": "system.heightening.levels.4.range.value",
		"xrange(5)": "system.heightening.levels.5.range.value",
		"xrange(6)": "system.heightening.levels.6.range.value",
		"xrange(7)": "system.heightening.levels.7.range.value",
		"xrange(8)": "system.heightening.levels.8.range.value",
		"xrange(9)": "system.heightening.levels.9.range.value",
		"xrange(10)": "system.heightening.levels.10.range.value"
	},
	"entries": {
		"Astral Rain (Amped)": {
			"name": "Астральный дождь (Расширенный)",
			"description": "<p>Вы закидываете в воздух массу яростных мыслей, где они распространяются в многочисленные лезвия или другие формы, падающие дождем. Любое существо, находящееся в этой области или попавшее в нее до начала вашего следующего хода, получает на ваш выбор дробящий или колющий урон, равный 2d4 + ваш модификатор характеристики колдовства, с простым спасброском Рефлекса.</p>\n<hr />\n<p><strong>Усиление (+1):</strong> Урон увеличивается на 1d4.</p>\n<hr />\n<p><strong>Расширение:</strong> Область изменяется на @Template[burst|distance:5] и вы можете @UUID[Compendium.pf2e.actionspf2e.Item.3f5DMFu8fPiqHpRg]{Поддерживать} это заклинание вплоть до 1 минуты. Когда вы \"Поддерживаете\" это заклинание первый раз в раунд, вы можете передвинуть взрыв на расстояние вплоть до 20 футов.</p>",
			"range": "60 футов",
			"duration": "1 минута",
			"time": "2"
		},
		"Vector Screen (Amped)": {
			"name": "Векторный экран (Расширенный)",
			"description": "<p>Один 5-футовый квадрат.</p>\n<hr />\n<p>Вы создаете прозрачный, пульсирующий экран телекинетической энергии, который захватывает маленькие, быстро движущиеся снаряды. Существа могут проходить сквозь данный экран, но амуниция от физических дистанционных атак, такая как стрелы, болты, пули из пращи и другие объекты подобного размера, автоматически ловятся в экране и со стуком падают на землю после завершения заклинания. Атаки более крупным дистанционным оружием, например @UUID[Compendium.pf2e.equipment-srd.Item.JNt7GmLCCVz5BiEI]{Метательными копьями}, получают штраф обстоятельства -2 к броскам атак, если их траектории проходят через экран. Массивное дистанционное оружие и эффекты заклинаний не создающие физических объектов, проходят через экран без штрафа.</p>\n<hr />\n<p><strong>Усиление (5-й):</strong> Экран шириной 10 футов.</p>\n<p><strong>Усиленный (6-й):</strong> Экран шириной 10 футов и даже может мешать атакам не обладающим массой, таким как магические взрывы и струи пламени. Экран дает штраф обстоятельства -2 на броски атак эффектов заклинаний даже, если они не создают физических объектов. Еще оно защищает от эффектов проходящих через экран, давая стандартное укрытие существам на противоположной стороне экрана относительно центра или исходной точки области.</p>\n<hr />\n<p><strong>Расширение:</strong> Ваш экран держится дольше и вы можете детонировать его взрывной контратакой. Продолжительность заклинания увеличивается до 1 минуты. Вы можете @UUID[Compendium.pf2e.actionspf2e.Item.AjLSHZSWQ90exdLo]{Развеять} это заклинание. Если в экране пойманы какие-либо снаряды, то вы можете частью \"Развеивания\" этого заклинания сотворить @UUID[Compendium.pf2e.spells-srd.Item.60sgbuMWN0268dB7]{Телекинетический бросок}, чтобы выстрелить этими снарядами в 1 существо. Измеряйте дистанцию данного <em>телекинетического броска</em> от расположения <em>векторного экрана</em>, а не своего.</p>",
			"range": "60 футов",
			"duration": "до начала вашего следующего хода",
			"time": "2"
		},
		"Imaginary Weapon (Amped)": {
			"name": "Воображаемое оружие (Расширенный)",
			"description": "<p>Вы создаете простое оружие из силы. Совершите бросок атаки заклинанием в ближнем бою против КБ своей цели. При попадании, вы наносите на свой выбор дробящий или рубящий урон, равный 1d8 + модификатор характеристики колдовства. При критическом попадании, вы наносите двойной урон и можете выбрать взорвать свое оружие, чтобы оттолкнуть цель от себя на 10 футов.</p>\n<hr />\n<p><strong>Усиление (+1):</strong> Урон увеличивается на 1d8.</p>\n<hr />\n<p><strong>Расширение:</strong> Вы формируете несколько оружий из силы, чтобы напасть на несколько противников. Вы наносите 2 \"Удара\" <em>воображаемым оружием</em>, каждый по отдельной цели. Ваш штраф множественной атаки не увеличивается пока вы не завершите оба \"Удара\".</p>\n<p><strong>Расширенное усиление (+1):</strong> Урон увеличивается на 2d8, вместо 1d8.</p>",
			"range": "касание",
			"target": "1 существо",
			"time": "2"
		},
		"Omnidirectional Scan (Amped)": {
			"name": "Всенаправленное сканирование (Расширенный)",
			"description": "<p>@Template[emanation|distance:30]</p>\n<hr />\n<p>Вы быстро рассматриваете свое окружение под разными углами; ваши чувства создают общую ментальную картину. Вы можете @UUID[Compendium.pf2e.actionspf2e.Item.BlAOM2X92SI6HMtJ]{Поискать} во всей эманации заклинания.</p>\n<p>Независимо от того, будете ли вы совершать \"Поиск\", выберите в области 1 союзника и 1 врага; если цель @UUID[Compendium.pf2e.conditionitems.Item.DmAIPqOBomZ7H95W]{Скрыта} или @UUID[Compendium.pf2e.conditionitems.Item.iU0fEDdBp3rXpTMC]{Спрятана} от вас, вы автоматически получаете успех чистой проверки, чтобы целиться в неё этим заклинанием. Вы готовитесь @UUID[Compendium.pf2e.actionspf2e.Item.HCl3pzVefiv9ZKQW]{Помогать} целевому союзнику с броском атаки против целевого врага. Если вы используете эту реакцию (<span class=\"pf2-icon\">r</span>) \"Помощи\", то при проверке \"Помощи\" используете свой модификатор атаки заклинания и уровень мастерства. Если вы критически проваливаете бросок \"Помощи\", то вместо этого получаете просто провал.</p>\n<hr />\n<p><strong>Расширение:</strong> Ваши сканирования настолько точные, что вы можете спрогнозировать сильные и слабые стороны противника. Вы узнаете, какой из спасбросков целевого врага самый высокий, а какой самый низкий, и вы со всеми союзниками в пределах 30 футов получаете бонус обстоятельства +1 к атакам и урону по этому существу.</p>\n<p>Если вы используете подготовленную вами реакцию \"Помощи\" и совершаете успешный бросок, то для атаки которой вы \"Помогаете\" эти бонусы увеличиваются до +2. При критическом успехе они увеличиваются до +3, или до +4, если вы обладаете легендарным мастерством бросков атак заклинаниями.</p>",
			"target": "1 союзник и 1 враг",
			"duration": "до начала вашего следующего хода",
			"time": "1"
		},
		"Forbidden Thought (Amped)": {
			"name": "Запретная мысль (Расширенный)",
			"description": "<p>Вы помещаете в разум противника психическую блокировку, которая воздерживает его от совершения определенного действия. Выберите @UUID[Compendium.pf2e.actionspf2e.Item.VjxZFuUXrCU94MWR], @UUID[Compendium.pf2e.actionspf2e.Item.Bcxarzksqt9ezrs6], @UUID[Compendium.pf2e.actionspf2e.Item.aBQ8ajvEBByv45yz] или конкретное действие, о котором вы знаете, что оно есть у существа (например, \"Атака дыханием\" против дракона). Если существо предпринимает это действие в свой следующий ход, то для его выполнения, оно должно преодолеть вашу блокировку, из-за чего оно получает ментальный урон равный 1d6 ментального урона + ваш модификатор характеристики колдовства (с простым спасброском Воли). Затем цель временно иммунна на 1 минуту.</p>\n<hr />\n<p><strong>Усиление (+1):</strong> Урон увеличивается на 1d6.</p>\n<hr />\n<p><strong>Расширение:</strong> Ваш телепатический толчок особенно шокирующий для тех, кто ему сопротивляется. Если цель проваливает свой спасбросок, то она еще @UUID[Compendium.pf2e.conditionitems.Item.dfCMdR4wnpbYNTix]{Ошеломлена 1}.</p>",
			"range": "30 футов",
			"target": "1 существо",
			"time": "2"
		},
		"Contagious Idea (Amped)": {
			"name": "Заразная идея (Расширенный)",
			"description": "<p>Ничто так не заразительно, как мысль. Вы закладываете в сознание существа либо приятную, либо ужасающую мысль. Затем вы можете посеять ту же мысль в разум второго существа. Вы не можете выбрать существо, которое уже было целью этого сотворения заразной идеи, равно как и себя самого. Вторая цель может находиться за пределами дистанции заклинания, но она должна быть в пределах 30 футов от первой цели.</p>\n<ul>\n<li><strong>Приятная мысль:</strong> Цель успокоена, получая 5 временных ОЗ, которые длятся 1 минуту. @UUID[Compendium.pf2e-psychic-amps.psychic-amped-effects.qANQ0LV7DDY2hkVX]{Эффект заклинания: Заразная идея (Приятная мысль)}</li>\n<li><strong>Ужасающая мысль:</strong> Цель должна совершить спасбросок Воли.\n<ul>\n<li><strong>Критический успех:</strong> Цель невредима и временно иммунна на 1 минуту.</li>\n<li><strong>Успех:</strong> Цель @UUID[Compendium.pf2e.conditionitems.TBSHQspnbcqxsmjL]{Напугана 1} и временно иммунна на 1 минуту.</li>\n<li><strong>Провал:</strong> Цель @UUID[Compendium.pf2e.conditionitems.TBSHQspnbcqxsmjL]{Напугана 2}.</li>\n<li><strong>Критический провал:</strong> Цель @UUID[Compendium.pf2e.conditionitems.TBSHQspnbcqxsmjL]{Напугана 3}.</li>\n</ul>\n</li>\n</ul>\n<hr />\n<p><strong>Усиление (+1):</strong> Временные ОЗ от приятной мысли увеличиваются на 1.</p>\n<hr />\n<p><strong>Расширение:</strong> Вы можете выбрать распространение мысли от второй цели на третью, таким же образом, как и от первой цели ко второй. Приятная мысль дает в 2 раза больше временных ОЗ (10 + дополнительные 2 за каждый уровень усиления).</p>",
			"range": "30 футов (см. описание)",
			"target": "1 или 2 существа кроме вас (см. описание)",
			"time": "2"
		},
		"Distortion Lens (Amped)": {
			"name": "Искажающая линза (Расширенный)",
			"description": "<p>Вы создаете магическую линзу, которая искажает пространство так, как будет лучше для вас. Вы создаете линзу в пространстве, в пределах дистанции, даже висящую в воздухе. Если дистанционная атака от вас или союзника проходит через линзу, то атака получает дополнительные 10 футов расстояния; если вражеская дистанционная атака будет проходить через линзу, то ей требуются дополнительные 10 футов расстояния, чтобы пройти через нее, однако, враг знает перед использованием своего умения, выводит ли данная помеха цель за пределы дистанции. Союзник, чье пространство перекрывает линзу, может увеличить дальность своих дистанционных атак, но враг, чье пространство перекрывает линзу, не уменьшает дистанцию своих дистанционных атак.</p>\n<p>Когда вы первый раз в раунд @UUID[Compendium.pf2e.actionspf2e.Item.3f5DMFu8fPiqHpRg]{Поддерживаете} это заклинание, вы можете переместить линзу в другой квадрат в пределах дистанции. Линза исчезает, если вы снова сотворяете <em>искажающую линзу</em>.</p>\n<hr />\n<p><strong>Усиление (+3):</strong> Линза увеличивает или уменьшает дистанцию умений на дополнительные 5 футов.</p>\n<hr />\n<p><strong>Расширение:</strong> Линза может мешать не только атакам, но и существам. Один раз, во время действия <a href=https://clck.ru/jjR6e><em>`движения`</em></a> союзника Среднего или меньшего размера, данный союзник может переместиться в квадрат линзы и из него, и этот квадрат не считается в общее расстояние перемещения. И наоборот, линза является <a href=https://clck.ru/akms9>сложной местностью</a> для ваших врагов.</p>",
			"range": "30 футов",
			"duration": "поддерживаемое вплоть до 1 минуты",
			"time": "1"
		},
		"Hologram Cage (Amped)": {
			"name": "Клетка-голограмма (Расширенный)",
			"description": "<p><strong>Область:</strong> 1 куб со стороной 20 футов</p>\n<hr />\n<p>Вы сплетаете свет в куб с яркими и фантастическими узорами. Стены отбрасывают яркий свет на 10 футов (и тусклый свет на следующие 20 футов) и полностью блокируют линию обзора; существа внутри клетки не могут быть увидены существами вне ее, однако они могут видеть друг друга, а существа вне клетки не могут видеть происходящее внутри. Вы можете @UUID[Compendium.pf2e.actionspf2e.Item.AjLSHZSWQ90exdLo]{Развеять} это заклинание, и если вы снова @UUID[Compendium.pf2e.actionspf2e.Item.aBQ8ajvEBByv45yz]{Сотворяете} это заклинание, то ваша предыдущая клетка-голограмма заканчивается.</p>\n<hr />\n<p><strong>Усиление (7-й):</strong> Дистанция заклинания увеличивается до 80 футов и вы можете расширить куб до 25 футового по каждой стороне.</p>\n<hr />\n<p><strong>Расширение:</strong> Стены силы делают барьеры клетки столь же физическими, сколь и визуальными. Каждый сегмент стены клетки 10 на 10 футов обладает 10 КБ, Твердостью равной удвоенному уровню заклинания и ОЗ равными учетверенному (×4) уровню заклинания. Заклинание прерывается, если в момент его сотворения какая-либо из стенок будет проходить через существо.</p>",
			"range": "60 футов",
			"duration": "1 минута",
			"time": "3",
			"xrange(7)": "80 футов"
		},
		"Mage Hand (Amped)": {
			"name": "Магическая рука (Расширенный)",
			"description": "<p>Вы создаете одну магическую руку, невидимую или призрачную, которая хватает целевой объект и медленно перемещает его на расстояние вплоть до 20 футов. Поскольку объект левитирует, вы можете перемещать его в любом направлении. Когда вы используете @UUID[Compendium.pf2e.actionspf2e.Item.3f5DMFu8fPiqHpRg]{Поддержание заклинания}, то можете переместить объект на дополнительные 20 футов. Если объект находится в воздухе, когда заклинание заканчивается, то он падает.</p>\n<p>Вы создаете множество телекинетических рук, которые вцепляются в существо и перемещают его. Выберите целью расширенного заклинания не объект, а существо Среднего размера или менее. Вы пытаетесь @Compendium[pf2e.actionspf2e.7blmbDrQFNfdT731]{Толкнуть} цель в направлении по своему выбору, вместо проверки Атлетики, кидая бросок атаки заклинанием против его КС Стойкости. До окончания заклинания существо получает штраф обстоятельства -10 футов к своим Скоростям. Начиная с раунда после @UUID[Compendium.pf2e.actionspf2e.Item.aBQ8ajvEBByv45yz]{Сотворения} вами этого заклинания, когда вы первый раз в раунд @UUID[Compendium.pf2e.actionspf2e.Item.3f5DMFu8fPiqHpRg]{Поддерживаете} это заклинание, вы можете снова совершить \"Толчок\" существа.</p>\n<hr />\n<p><strong>Усиление (3-й):</strong> Вы можете выбирать целью ничейный объект Массой 2 или менее.</p>\n<p><strong>Расширенное усиление (4-й):</strong> Вы можете попытаться @Compendium[pf2e.actionspf2e.Dt6B1slsBy8ipJu9]{Разоружить} существо вместо его \"Толчка\". Если вы таким способом выбиваете предмет из хватки существа, то <em>магическая рука</em> хватает его автоматически. Любой эффект <em>магической руки</em> на существе заканчивается и теперь заклинание переносит этот предмет, как если бы вы подобрали его нерасширенной <em>магической рукой</em>.</p>\n<p><strong>Усиление (5-й):</strong> Дистанция увеличивается до 60 футов, и вы можете выбирать целью ничейный объект Массой 2 или менее.</p>\n<p><strong>Усиление (7-й):</strong> Дистанция увеличивается до 60 футов, и вы можете выбирать целью ничейный объект Массой 3 или менее.</p>",
			"range": "30 футов",
			"target": "1 ничейный объект Массой 1 или менее",
			"duration": "поддерживаемое",
			"time": "2",
			"xtarget(3)": "1 ничейный объект Массой 2 или менее",
			"xtarget(7)": "1 ничейный объект Массой 3 или менее",
			"xrange(5)": "60 футов"
		},
		"Mage Hand (Psychic)": {
			"name": "Магическая рука (Экстрасенс)",
			"description": "<p>Вы создаете одну магическую руку, невидимую или призрачную, которая хватает целевой объект и медленно перемещает его на расстояние вплоть до 20 футов. Поскольку объект левитирует, вы можете перемещать его в любом направлении. Когда вы используете @UUID[Compendium.pf2e.actionspf2e.Item.3f5DMFu8fPiqHpRg]{Поддержание заклинания}, то можете переместить объект на дополнительные 20 футов. Если объект находится в воздухе, когда заклинание заканчивается, то он падает.</p>\n<hr />\n<p><strong>Усиление (3-й):</strong> Вы можете выбирать целью ничейный объект Массой 2 или менее.</p>\n<p><strong>Усиление (5-й):</strong> Дистанция увеличивается до 60 футов, и вы можете выбирать целью ничейный объект Массой 2 или менее.</p>\n<p><strong>Усиление (7-й):</strong> Дистанция увеличивается до 60 футов, и вы можете выбирать целью ничейный объект Массой 3 или менее.</p>",
			"range": "30 футов",
			"target": "1 ничейный объект Массой 1 или менее",
			"duration": "поддерживаемое",
			"time": "2",
			"xtarget(3)": "1 ничейный объект Массой 2 или менее",
			"xtarget(7)": "1 ничейный объект Массой 3 или менее",
			"xrange(5)": "60 футов"
		},
		"Ray of Frost (Amped)": {
			"name": "Морозный луч (Расширенный)",
			"description": "<p>Вы выдуваете морозный луч. Совершите атаку заклинанием. Луч наносит урон холодом, равный 1d10.</p>\n<p>Вы получаете временные ОЗ, равные половине урона полученного целью (после применения сопротивлений и т.п.). Вы теряете любые оставшиеся временные ОЗ через 1 минуту.</p>\n<hr />\n<p><strong>Критический успех:</strong> Цель получает двойной урон и штраф состояния -10 футов к Скоростям на 1 раунд<br />@UUID[Compendium.pf2e.spell-effects.Item.I4PsUAaYSUJ8pwKC]{Эффект заклинания: Морозный луч}</p>\n<p><strong>Успех:</strong> Цель получает обычный урон</p>\n<hr />\n<p><strong>Расширенное усиление (+1):</strong> Начальный урон увеличивается на 1d10.</p>",
			"range": "180 футов",
			"target": "1 существо",
			"time": "2"
		},
		"Ray of Frost (Psychic)": {
			"name": "Морозный луч (Экстрасенс)",
			"description": "<p>Вы выдуваете морозный луч. Совершите атаку заклинанием. Луч наносит урон холодом, равный 1d4 + ваш модификатор характеристики колдовства.</p>\n<hr />\n<p><strong>Критический успех:</strong> Цель получает двойной урон и штраф состояния -10 футов к Скоростям на 1 раунд<br />@UUID[Compendium.pf2e.spell-effects.Item.I4PsUAaYSUJ8pwKC]{Эффект заклинания: Морозный луч}</p>\n<p><strong>Успех:</strong> Цель получает обычный урон</p>\n<hr />\n<p><strong>Усиление (+1):</strong> Урон увеличивается на 1d4.</p>",
			"range": "180 футов",
			"target": "1 существо",
			"time": "2"
		},
		"Guidance (Amped)": {
			"name": "Наставление (Расширенный)",
			"description": "<p>Вы просите божественного наставления, давая цели бонус состояния +1 к одному броску атаки, проверке Восприятия, спасброску или проверке навыка, которые предпринимает цель до окончания продолжительности. Цель выбирает для какого броска использовать бонус, но до совершения броска. Если цель использует бонус, то заклинание заканчивается. В любом случае, после этого цель временно иммунна на 1 час.</p>\n<hr />\n<p><strong>Расширение:</strong> Вы можете в нужный момент проецировать на своего союзника вспышку озарения, чтобы спасти его от провала. Расширенное <em>наставление</em> не дает существу временный иммунитет к <em>наставлению</em>, и существо может стать целью расширенного <em>наставления</em>, даже если оно временно иммунно к нему. Вы можете применить расширенное <em>наставление</em> реакцией (<span class=\"pf2-icon\">r</span>), с триггером когда ваш союзник проваливает или крит.проваливает бросок атаки, проверку Восприятия, спасбросок или проверку навыка, и бонус от наставления изменит провал на успех или крит.провал на обычный провал. Бонус от наставления применяется к их проверке ретроактивно (постфактум).</p>\n<p><strong>Расширенное усиление (6-й):</strong> Бонус от заклинания увеличивается до +2.</p>\n<p>@Compendium[pf2e.spell-effects.3qHKBDF7lrHw8jFK]{Эффект заклинания: Наставление}</p>\n<p>@Compendium[pf2e.spell-effects.3LyOkV25p7wA181H]{Эффект: Иммунитет наставления}</p>",
			"range": "120 футов",
			"target": "1 существо",
			"duration": "до начала вашего следующего хода",
			"time": "1"
		},
		"Guidance (Psychic)": {
			"name": "Наставление (Экстрасенс)",
			"description": "<p>Вы просите божественного наставления, давая цели бонус состояния +1 к одному броску атаки, проверке Восприятия, спасброску или проверке навыка, которые предпринимает цель до окончания продолжительности. Цель выбирает для какого броска использовать бонус, но до совершения броска. Если цель использует бонус, то заклинание заканчивается. В любом случае, после этого цель временно иммунна на 1 час.</p>\n<p>@Compendium[pf2e.spell-effects.3qHKBDF7lrHw8jFK]{Эффект заклинания: Наставление}</p>\n<p>@Compendium[pf2e.spell-effects.3LyOkV25p7wA181H]{Эффект: Иммунитет наставления}</p>",
			"range": "120 футов",
			"target": "1 существо",
			"duration": "до начала вашего следующего хода",
			"time": "1"
		},
		"Detect Magic (Amped)": {
			"name": "Обнаружение магии (Расширенный)",
			"description": "<p>Вы посылаете импульс, который обнаруживает присутствие магии. Вы не получаете никакой информации, кроме наличия или отсутствия магии. Вы можете игнорировать магию, о которой вы полностью осведомлены, например, магические предметы и заклинания действующие на вас и ваших союзников.</p>\n<p>Вы обнаруживаете магию иллюзии, только если эффект этой магии имеет уровень ниже (строго) уровня вашего заклинания обнаружение магии. Однако предметы имеющие иллюзорную ауру, но не обманчивые по внешнему виду (как например @UUID[Compendium.pf2e.equipment-srd.Item.bikFUFRLwfdvX2x2]), обычно обнаруживаются нормально.</p>\n<p>Вы обладаете таким тонким контролем, о котором другие заклинатели могут только мечтать. Когда вы творите Обнаружение магии (Detect Magic) / Чары 1, то осведомлены о любом существе в эманации под воздействием заклинания или несущем магический предмет, и определяете в эманации основное местоположение магии в любой магической опасности (с обычными ограничениями на обнаружение иллюзий). Обычно это проявляется как изменение вашего зрения, например, вы видите мягкую ауру вокруг существа или опасности. Чувствуя эти явления, вы не можете понять, какое заклинание наложено на существо или какие из его предметов являются магическими. Еще ваше обнаружение магии также получает следующее расширение.</p>\n<p>Ваш импульс обнаруживающей магии помогает вам получить ощущение сильных или слабых сторон магии поблизости. Когда вы обнаруживаете присутствие магии на враге или опасности, то на 3 раунда получаете бонус состояния +1 к спасброскам против магии, исходящей от этого врага или опасности. Если вы находите магию от нескольких источников с помощью одиночного сотворения обнаружения магии, то получаете бонус от них всех.</p>\n<hr />\n<p><strong>Усиление (3-й):</strong> Вы узнаете ранг или уровень самого могущественного магического эффекта, обнаруженного заклинанием, по решению Мастера.</p>\n<p><strong>Усиление (4-й):</strong> Как 3-го уровня, но вы еще точнее определяете источник магии самого высокого уровня. Вы все еще не определяете абсолютно точное местоположение, как если бы использовали неточное чувство, но можете локализовать источник до 5-футового куба (или ближайшего, если источник большего размера).</p>\n<p><strong>Расширенное усиление (7-й):</strong> Бонус состояния к спасброскам от магии увеличивается до +2.</p>",
			"time": "2"
		},
		"Detect Magic (Psychic)": {
			"name": "Обнаружение магии (Экстрасенс)",
			"description": "<p>Вы посылаете импульс, который обнаруживает присутствие магии. Вы не получаете никакой информации, кроме наличия или отсутствия магии. Вы можете игнорировать магию, о которой вы полностью осведомлены, например, магические предметы и заклинания действующие на вас и ваших союзников.</p>\n<p>Вы обнаруживаете магию иллюзии, только если эффект этой магии имеет уровень ниже (строго) уровня вашего заклинания обнаружение магии. Однако предметы имеющие иллюзорную ауру, но не обманчивые по внешнему виду (как например @UUID[Compendium.pf2e.equipment-srd.Item.bikFUFRLwfdvX2x2]), обычно обнаруживаются нормально.</p>\n<p>Вы обладаете таким тонким контролем, о котором другие заклинатели могут только мечтать. Когда вы творите Обнаружение магии (Detect Magic) / Чары 1, то осведомлены о любом существе в эманации под воздействием заклинания или несущем магический предмет, и определяете в эманации основное местоположение магии в любой магической опасности (с обычными ограничениями на обнаружение иллюзий). Обычно это проявляется как изменение вашего зрения, например, вы видите мягкую ауру вокруг существа или опасности. Чувствуя эти явления, вы не можете понять, какое заклинание наложено на существо или какие из его предметов являются магическими.</p>\n<hr />\n<p><strong>Усиление (3-й):</strong> Вы узнаете ранг или уровень самого могущественного магического эффекта, обнаруженного заклинанием, по решению Мастера.</p>\n<p><strong>Усиление (4-й):</strong> Как 3-го уровня, но вы еще точнее определяете источник магии самого высокого уровня. Вы все еще не определяете абсолютно точное местоположение, как если бы использовали неточное чувство, но можете локализовать источник до 5-футового куба (или ближайшего, если источник большего размера).</p>",
			"time": "2"
		},
		"Redistribute Potential (Amped)": {
			"name": "Перераспределение потенциала (Расширенный)",
			"description": "<p><strong>Область:</strong> 2 находящихся рядом 5-футовых квадрата</p>\n<hr />\n<p>Энергия стремится к балансу, но своей магией вы можете перенаправлять всю энергию из одной области в другую. Существа в любой из областей получают 4d4 урона с простым спасброском Стойкости. Выберите один из квадратов для поглощения тепла, наносящий урон холодом, а другой для концентрации поглощенного тепла, наносящий урон огнем. Существо, провалившее свой спасбросок, также становится @UUID[Compendium.pf2e.conditionitems.Item.i3OJZU2nk64Df3xm]{Неуклюжим 1} от оцепенения, если оно находится в области поглощения тепла, или @UUID[Compendium.pf2e.conditionitems.Item.MIRkyAjyBeXivMa7]{Ослаблено 1} от теплового удара, если оно находится в области концентрированного тепла; эти состояния длятся до начала вашего следующего хода. Если существо достаточно большое, чтобы находиться в обоих квадратах, то вы выбираете только 1 из областей, против которой оно будет совершать спасбросок; другая область не оказывает на него эффекта.</p>\n<hr />\n<p><strong>Усиление (+1):</strong> Урон увеличивает на 1d4.</p>\n<hr />\n<p><strong>Расширение:</strong> Вы можете влиять на поток энергии в гораздо более широком масштабе. Вместо 2 (двух) 5-футовых квадратов вы создаете 2 (два) @Template[burst|distance:10]{10-футовых взрыва}. Они по-прежнему должны находиться рядом друг с другом и могут пересекаться. Существо, находящееся в обеих областях, все еще может быть подвергнуться только одной из них на ваш выбор. Урон заклинания увеличивается до [[/r 6d6]]{6d6 урона}. Накладываемые состояния длятся 1 минуту.</p>\n<p><strong>Расширенное усиление (+1):</strong> Урон увеличивается на 2d6, вместо 1d4.</p>",
			"range": "60 футов",
			"time": "2"
		},
		"Dancing Lights (Amped)": {
			"name": "Пляшущие огоньки (Расширенный)",
			"description": "<p>Вы создаете вплоть до 4 парящих огней, так, что ни один из которых не находится более чем в 10 футах друг от друга. Каждый из них светится, как факел. Когда вы делаете @UUID[Compendium.pf2e.actionspf2e.Item.3f5DMFu8fPiqHpRg]{Поддержание заклинания}, то можете перемещать любое количество огней на расстояние вплоть до 60 футов. После создания огоньков, они могут перемещаться на расстояние более 10 футов от остальных огоньков и более чем на 120 футов от вас.</p>\n<p><strong>Расширение:</strong> Ваши огоньки кружатся вместе, слепя и гипнотизируя. Когда расширяете это заклинание, вы создаете мигающее зрелище, состоящее из всех 4 огоньков в незанятом 5-футовом квадрате. Если вы перемещаете огоньки во время @UUID[Compendium.pf2e.actionspf2e.Item.3f5DMFu8fPiqHpRg]{Поддержания} этого заклинание, то они должны оставаться вместе. Заклинание получает <a href=https://clck.ru/sUauM><em>`визуальный`</em></a> признак. В момент @UUID[Compendium.pf2e.actionspf2e.Item.aBQ8ajvEBByv45yz]{Сотворения} этого заклинания, каждое существо в 5-футовой эманации вокруг огоньков, должно совершить спасбросок Стойкости.</p>\n<hr />\n<p><strong>Успех:</strong> Существо @Compendium[pf2e.conditionitems.TkIyaNPgTZFBCCuh] до начала вашего следующего хода и затем становится временно иммунно на 1 минуту.</p>\n<p><strong>Провал:</strong> Существо @Compendium[pf2e.conditionitems.TkIyaNPgTZFBCCuh] до начала вашего следующего хода и должно совершать новый спасбросок против этого заклинания каждый раз когда начинает свой ход рядом с огоньками.</p>\n<p><strong>Критический провал:</strong> Как провал, но существо еще @Compendium[pf2e.conditionitems.AdPVz7rbaVSRxHFg] огоньками до начала вашего следующего хода.</p>",
			"range": "120 футов",
			"duration": "поддерживаемое",
			"time": "2"
		},
		"Dancing Lights (Psychic)": {
			"name": "Пляшущие огоньки (Экстрасенс)",
			"description": "<p>Вы создаете вплоть до 4 парящих огней, так, что ни один из которых не находится более чем в 10 футах друг от друга. Каждый из них светится, как факел. Когда вы делаете @UUID[Compendium.pf2e.actionspf2e.Item.3f5DMFu8fPiqHpRg]{Поддержание заклинания}, то можете перемещать любое количество огней на расстояние вплоть до 60 футов. После создания огоньков, они могут перемещаться на расстояние более 10 футов от остальных огоньков и более чем на 120 футов от вас.</p>",
			"range": "120 футов",
			"duration": "поддерживаемое",
			"time": "2"
		},
		"Foresee the Path (Amped)": {
			"name": "Предвидеть путь (Расширенный)",
			"description": "<p>Вы видите на долю секунды в будущее и улавливаете, как будет двигаться враг, облегчая своим союзникам нанесение удара посреди действия. Сделайте проверку @Check[perception]{Восприятия} против КС Воли или КС Обмана врага, в зависимости от того, что выше. Мастер может решить, что какой-то другой КС будет более подходящим если он больше; например, использовать КС Знаний военного дела боевого капитана. После этого цель временно иммунна на 1 минуту.</p>\n<hr />\n<p><strong>Критический успех:</strong> Целевой союзник получает реакцию (<span class=\"pf2-icon\">r</span>), позволяющую нанести @UUID[Compendium.pf2e.actionspf2e.Item.VjxZFuUXrCU94MWR] ближнего боя по целевому врагу, с триггером если этот враг покидает квадрат в пределах досягаемости данного союзника. Если союзник уже обладает умением позволяющим ему нанести \"Удар\" ближнего боя реакцией, такой как @UUID[Compendium.pf2e.classfeatures.hmShTfPOcTaKgbf4], то данный союзник может не получать временную реакцию, а получить бонус состояния +2 к \"Ударам\" ближнего боя совершаемым реакциями.</p>\n<p><strong>Успех:</strong> Как крит.успех, но бонус состояния +1.</p>\n<p><strong>Провал:</strong> Заклинание не дает эффекта.</p>\n<hr />\n<p><strong>Расширение:</strong> При провале заклинание имеет такой же эффект как и при успехе (но все еще без эффекта при крит.провале). Каждый раз, когда @UUID[Compendium.pf2e.actionspf2e.Item.3f5DMFu8fPiqHpRg]{Поддерживаете} это заклинание, вы можете выбрать целью дополнительного союзника, давая ему такое же преимущество, что и для изначального союзника.</p>",
			"range": "60 футов",
			"target": "1 союзник и 1 враг",
			"duration": "поддерживаемое вплоть до 1 минуты",
			"time": "1"
		},
		"Ghostly Shift (Amped)": {
			"name": "Призрачное смещение (Расширенный)",
			"description": "<p>Ваше тело становится нематериальным, когда вы частично выходите из фазы. Вы получаете сопротивление 2 всему урону (кроме урона силы)</p>\n<p>@UUID[Compendium.pf2e.spell-effects.vUjRvriyuHDZrsgc]{Эффект заклинания: Призрачное смещение}</p>\n<hr />\n<p><strong>Усиление (+2):</strong> Сопротивление увеличивается на 1.</p>\n<hr />\n<p><strong>Расширение:</strong> Ваша нематериальность настолько существенна, что вы можете проходить сквозь других существ, вызывая при этом болезненные эффекты интерференций. Раз в раунд, когда @UUID[Compendium.pf2e.actionspf2e.Item.Bcxarzksqt9ezrs6], @UUID[Compendium.pf2e.actionspf2e.Item.H6v1VgowHaKHnVlG], @UUID[Compendium.pf2e.actionspf2e.Item.c8TGiZ48ygoSPofx] или @UUID[Compendium.pf2e.actionspf2e.Item.cS9nfDRGD83bNU1p], вы во время этого действия можете пройти сквозь пространство 1 существа, без необходимости совершать проверку @UUID[Compendium.pf2e.actionspf2e.Item.21WIfSu7Xd7uKqV8] однако вы не можете закончить свой ход в его пространстве. Когда таким образом проходите через пространство существа, вы наносите ему [[/r 2d6[force]]] с простым спасброском Стойкости.</p>\n<p><strong>Расширенное усиление (+2):</strong> Урон наносимый фазирование через существо увеличивается на 1d6.</p>",
			"range": "30 футов",
			"target": "1 существо",
			"duration": "поддерживаемое вплоть до 1 минуты",
			"time": "1"
		},
		"Glimpse Weakness (Amped)": {
			"name": "Проблеск слабости (Расширенный)",
			"description": "<p>Вы замечаете неплотную чешуйку, шов в доспехах противника или подобную слабость, помогая своим союзникам нанести точный удар. Первый союзник, попавший в цель успешным @UUID[Compendium.pf2e.actionspf2e.Item.VjxZFuUXrCU94MWR], наносит дополнительный точный урон, равный 1 + уровень этого заклинания, после чего заклинание заканчивается.</p>\n<p>@UUID[Compendium.pf2e-psychic-amps.psychic-amped-effects.cenTObLl3uQSV42S]{Эффект заклинания: Проблеск слабости (Расширение)}</p>\n<hr />\n<p><strong>Расширение:</strong> Дополнительный точный урон равен 1d4+1.</p>\n<p><strong>Расширенное усиление (+2):</strong> Дополнительный точный урон увеличивается на 1d4+1.</p>",
			"range": "60 футов",
			"target": "1 существо",
			"duration": "1 минута",
			"time": "1"
		},
		"Shatter Mind (Amped)": {
			"name": "Раскол разума (Расширенный)",
			"description": "<p>@Template[cone|distance:15]</p>\n<hr />\n<p>Вы телепатически атакуете разумы своих противников. Вы наносите всем врагам в области ментальный урон, равный 2d4 + ваш модификатор характеристики колдовства, с простым спасброском Воли.</p>\n<hr />\n<p><strong>Усиление (+1):</strong> Урон увеличивается на 1d4.</p>\n<hr />\n<p><strong>Расширение:</strong> Вы увеличиваете область этого заклинания, на свой выбор, до @Template[cone|distance:30]{30-футового конуса} или @Template[cone|distance:60]{60-футового конуса}, и кости урона заклинания меняются на d10. Провалившие существа еще @UUID[Compendium.pf2e.conditionitems.Item.e1XGnhKNSQIm5IXg]{Одурманены 1} до начала вашего следующего хода (или @UUID[Compendium.pf2e.conditionitems.Item.e1XGnhKNSQIm5IXg]{Одурманены 2} при крит.провале).</p>",
			"time": "2"
		},
		"Message (Amped)": {
			"name": "Сообщение (Расширенный)",
			"description": "<p>Вы тихо произносите слова, но вместо того, чтобы исходить из вашего рта, они передаются прямо в уши цели. В то время как другие не могут слышать ваши слова так, как если бы вы произносили их обычным способом, цель может слышать их, как если бы она стояла рядом с вами. Если цель пожелает, то она может дать краткий ответ реакцией (<span class=\"pf2-icon\">r</span>), или в свой следующий ход свободным действием (<span class=\"pf2-icon\">f</span>), но для этого, она должна видеть вас и находиться в пределах дистанции заклинания. Если цель отвечает, то ее ответ достигает напрямую вашего уха, как и оригинальное сообщение.</p>\n<p>Ваше <em>сообщение</em> не так-то легко ограничить препятствиями. Заклинание может преодолеть вплоть до 120 футов, чтобы достичь цели, огибая стены и препятствия; это означает, что вам не нужна прямая линия эффекта или прямая линия обзора для сотворения сообщения, пока вы знаете место цели и есть незаблокированный путь длиной 120 футов или меньше, который может достичь ее.</p>\n<p>Ваше телекинетическое сообщение позволяет координировать свои действия, пока вы передаете информацию. Цель сообщения может мгновенно потратить реакцию на @UUID[Compendium.pf2e.actionspf2e.Item.Bcxarzksqt9ezrs6] или @UUID[Compendium.pf2e.actionspf2e.Item.UHpkTuCtyaPqiCAB].</p>\n<hr />\n<p><strong>Усиление (3-й):</strong> Дистанция заклинания увеличивается до 500 футов.</p>\n<p><strong>Расширенное усиление (4-й):</strong> Цель сообщения может на свой выбор реакцией совершить @UUID[Compendium.pf2e.actionspf2e.Item.7blmbDrQFNfdT731], @UUID[Compendium.pf2e.actionspf2e.Item.VjxZFuUXrCU94MWR] или @UUID[Compendium.pf2e.actionspf2e.Item.ge56Lu1xXVFYUnLP].</p>",
			"range": "120 футов",
			"target": "1 существо",
			"duration": "см. в тексте",
			"time": "1",
			"xrange(3)": "500 футов"
		},
		"Message (Psychic)": {
			"name": "Сообщение (Экстрасенс)",
			"description": "<p>Вы тихо произносите слова, но вместо того, чтобы исходить из вашего рта, они передаются прямо в уши цели. В то время как другие не могут слышать ваши слова так, как если бы вы произносили их обычным способом, цель может слышать их, как если бы она стояла рядом с вами. Если цель пожелает, то она может дать краткий ответ реакцией (<span class=\"pf2-icon\">r</span>), или в свой следующий ход свободным действием (<span class=\"pf2-icon\">f</span>), но для этого, она должна видеть вас и находиться в пределах дистанции заклинания. Если цель отвечает, то ее ответ достигает напрямую вашего уха, как и оригинальное сообщение.</p>\n<p>Ваше <em>сообщение</em> не так-то легко ограничить препятствиями. Заклинание может преодолеть вплоть до 120 футов, чтобы достичь цели, огибая стены и препятствия; это означает, что вам не нужна прямая линия эффекта или прямая линия обзора для сотворения сообщения, пока вы знаете место цели и есть незаблокированный путь длиной 120 футов или меньше, который может достичь ее.</p>\n<hr />\n<p><strong>Усиление (3-й):</strong> Дистанция заклинания увеличивается до 500 футов.</p>",
			"range": "120 футов",
			"target": "1 существо",
			"duration": "см. в тексте",
			"time": "1",
			"xrange(3)": "500 футов"
		},
		"Produce Flame (Amped)": {
			"name": "Сотворение пламени (Расширенный)",
			"description": "<p>На вашей ладони появляется небольшой шар огня и вы бросаете его на расстоянии, либо атакуете в ближнем бою. Совершите атаку заклинанием против КС цели. Обычно это дистанционная атака, но вы также можете совершить атаку ближнего боя по существу находящемуся в вашей безоружной досягаемости. При успехе вы наносите огненный урон, равный 1d10 + 1 урона огненными брызгами. При критическом успехе, цель получает двойной урон и [[/r 1d4[persistent,fire]]].</p>\n<p>При использовании расширенного сотворения пламени в виде атаки ближнего боя, увеличьте кости начального урона с d10 на d12. Вы не получаете урона брызгами от расширенного сотворения пламени.</p>\n<hr />\n<p><strong>Расширенное усиление (+1):</strong> Начальный урон увеличивается на 1d10 (1d12 для ближнего боя) а урон брызгами увеличивается на 1. Продолжительный урон огнем при критическом попадании увеличивается на 1d4.</p>",
			"range": "30 футов",
			"target": "1 существо",
			"time": "2"
		},
		"Produce Flame (Psychic)": {
			"name": "Сотворение пламени (Экстрасенс)",
			"description": "<p>На вашей ладони появляется небольшой шар огня и вы бросаете его на расстоянии, либо атакуете в ближнем бою. Совершите атаку заклинанием против КС цели. Обычно это дистанционная атака, но вы также можете совершить атаку ближнего боя по существу находящемуся в вашей безоружной досягаемости. При успехе вы наносите огненный урон, равный 1d4 + ваш модификатор характеристики колдовства. При критическом успехе, цель получает двойной урон и [[/r 1d4[persistent,fire]]].</p>\n<p>При использовании расширенного сотворения пламени в виде атаки ближнего боя, увеличьте кости начального урона с d4 на d6.</p>\n<hr />\n<p><strong>Усиление (+1):</strong> Увеличиваете урон на 1d4 и продолжительный урон при критическом попадании на 1d4.</p>",
			"range": "30 футов",
			"target": "1 существо",
			"time": "2"
		},
		"Daze (Amped)": {
			"name": "Ступор (Расширенный)",
			"description": "<p>Вы затуманиваете разум цели и ошеломляете его ментальным толчком. Этот толчок наносит 1d10 ментального урона; цель должна совершить простой спасбросок Воли. Если цель критически проваливает спасбросок, она еще @UUID[Compendium.pf2e.conditionitems.Item.dfCMdR4wnpbYNTix]{Ошеломлена 1}.</p>\n<p>Если цель проваливает спасбросок Воли, то до конца своего следующего хода получает слабость 1 к ментальному урону и получает штраф состояния -1 к спасброскам Воли. При критическом провале слабость равна 3 (в дополнение к тому, что цель <em>`ошеломлена 1`</em>). Эта слабость применяется до того, как ступор наносит урон.</p>\n<hr />\n<p><strong>Расширенное усиление (+2):</strong> Урон заклинания увеличивается на 2d10, а слабость при провале или крит.провале увеличивается на 1.</p>",
			"range": "120 футов",
			"target": "1 существо",
			"duration": "1 раунд",
			"time": "2"
		},
		"Daze (Psychic)": {
			"name": "Ступор (Экстрасенс)",
			"description": "<p>Вы затуманиваете разум цели и ошеломляете его ментальным толчком. Этот толчок наносит ментальный урон, равный вашему модификатору характеристики колдовства; цель должна совершить простой спасбросок Воли. Если цель критически проваливает спасбросок, она еще @UUID[Compendium.pf2e.conditionitems.Item.dfCMdR4wnpbYNTix]{Ошеломлена 1}.</p>\n<hr />\n<p><strong>Усиление (+2):</strong> Урон увеличивается на 1d6.</p>",
			"range": "120 футов",
			"target": "1 существо",
			"duration": "1 раунд",
			"time": "2"
		},
		"Dancing Blade (Amped)": {
			"name": "Танцующий клинок (Расширенный)",
			"description": "<p>Вы телекинетически оживляете оружие, являющееся ничейным или находящееся в вашем распоряжении. Оно размахивает собой перед выбранным вами противником, как будто им владеет невидимый дуэлянт. Когда вы в начале @UUID[Compendium.pf2e.actionspf2e.Item.aBQ8ajvEBByv45yz]{Сотворяете} это заклинание, оружие автоматически летит к цели и наносит @UUID[Compendium.pf2e.actionspf2e.Item.VjxZFuUXrCU94MWR]{Удар}. Оно двигается вместе с целью, всегда оставаясь в пределах досягаемости. Каждый раз, когда вы @UUID[Compendium.pf2e.actionspf2e.Item.3f5DMFu8fPiqHpRg]{Поддерживаете} это заклинание, оружие либо \"Меняет партнера\", либо наносит \"Удар\". Атаки оружия используют и увеличивают ваш штраф множественной атаки.</p>\n<ul>\n<li><strong>Смена партнера:</strong> Смените цель оружия на другое существо в пределах 30 футов. Оружие летит к своей новой цели.</li>\n<li><strong>Удар (<a href=https://clck.ru/k2ihC><em>`атака`</em></a>)</strong> Оружие атакует свою цель используя ваш бросок атаки заклинанием. При попадании, оружие наносит урон равный 2d6 + ваш модификатор характеристики колдовства, с типом урона в зависимости от оружия (если оружие имеет признак <a href=https://clck.ru/jCuAY><em>`универсальное`</em></a> или может как-либо еще наносить несколько типов урона, то вы выбираете его для каждой атаки).</li>\n</ul>\n<hr />\n<p><strong>Усиление (+2):</strong> Урон увеличивается на 1d6.</p>\n<hr />\n<p><strong>Расширение:</strong> Атаки оружия увеличиваются по силе и вы управляете им достаточно хорошо для продвинутых приемов. Кости урона от \"Ударов\" оружия меняются с d6 на d10. Когда вы \"Сотворяете\" или \"Поддерживаете\" это заклинание, то в дополнение с стандартным вариантам можете выбрать из следующих:</p>\n<ul>\n<li><strong>Защита:</strong> Вместо атак, оружие дает бонус обстоятельства +2 КБ против атак ближнего боя от существа за которым оно следует. Бонус длится до начала вашего следующего хода или до \"Смены партнера\", в зависимости от того, что произойдет раньше.</li>\n<li><strong>Толчок (<a href=https://clck.ru/k2ihC><em>`атака`</em></a>)</strong> Оружие пытается @UUID[Compendium.pf2e.bestiary-ability-glossary-srd.Item.t6cx9FOODmeZQNYl]{Толкнуть} свою цель, вместо проверки Атлетики используя ваш бросок атаки заклинанием.</li>\n</ul>",
			"range": "30 футов",
			"target": "1 существо",
			"duration": "поддерживаемое вплоть до 1 минуты",
			"time": "2"
		},
		"Telekinetic Projectile (Amped)": {
			"name": "Телекинетический бросок (Расширенный)",
			"description": "<p>Вы бросаете в цель незакрепленный, ничейный объект, находящийся в пределах дистанции и имеющий Массу 1 или меньше. Совершите атаку заклинанием по цели. Если вы попадаете, то наносите дробящий, колющий или рубящий урон, соответственно брошенному объекту, равный 1d6 + ваш модификатор характеристики колдовства. Никакие особые признаки или магические свойства брошенного предмета, не применяются к атаке или урону.</p>\n<p>Вы запускаете объекты с еще большей силой, отбрасывая противников назад под градом объектов. При успехе, вы отталкиваете цель на 5 футов от себя, а при критическом успехе, в дополнение к двойному урону, вы отталкиваете цель на 10 футов от себя.</p>\n<hr />\n<p><strong>Критический успех:</strong> Вы наносите двойной урон</p>\n<p><strong>Успех:</strong> Вы наносите полный урон</p>\n<hr />\n<p><strong>Расширенное усиление (+1):</strong> Урон увеличивается на 2d6.</p>",
			"range": "60 футов",
			"target": "1 существо",
			"time": "2"
		},
		"Telekinetic Projectile (Psychic)": {
			"name": "Телекинетический бросок (Экстрасенс)",
			"description": "<p>Вы бросаете в цель незакрепленный, ничейный объект, находящийся в пределах дистанции и имеющий Массу 1 или меньше. Совершите атаку заклинанием по цели. Если вы попадаете, то наносите дробящий, колющий или рубящий урон, соответственно брошенному объекту, равный 1d6 + ваш модификатор характеристики колдовства. Никакие особые признаки или магические свойства брошенного предмета, не применяются к атаке или урону.</p>\n<hr />\n<p><strong>Критический успех:</strong> Вы наносите двойной урон</p>\n<p><strong>Успех:</strong> Вы наносите полный урон</p>\n<hr />\n<p><strong>Усиление (+1):</strong> Урон увеличивается на 1d6.</p>",
			"range": "60 футов",
			"target": "1 существо",
			"time": "2"
		},
		"Telekinetic Rend (Amped)": {
			"name": "Телекинетический разрыв (Расширенный)",
			"description": "<p>2 непересекающихся @Template[burst|distance:5]{5-футовых взрыва}</p>\n<hr />\n<p>Ваш разум создает в близком пространстве сильные оси движения. Вы наносите всем существам в области на свой выбор [[/r 1d6[bludgeoning]]]{1d6 дробящего} или [[/r 1d6[slashing]]]{1d6 рубящего} с простым спасброском Стойкости. Существо достаточно большое, чтобы находиться в более чем одном из этих взрывов, получает урон только 1 раз.</p>\n<hr />\n<p><strong>Усиление (+2):</strong> Урон увеличивается на 1d6.</p>\n<hr />\n<p><strong>Расширение:</strong> Ваши мысли расширяются по масштабу и силе. Вместо обычного урона, взрывы наносят [[/r 1d6[bludgeoning], 1d6[slashing]]]. Существо критически провалившее свой спасбросок еще @UUID[Compendium.pf2e.conditionitems.Item.dfCMdR4wnpbYNTix]{Ошеломлено 1}.</p>\n<p><strong>Расширенное усиление (+2)</strong> Оба типа урона увеличиваются на 1d6, а не только один из них. Добавьте к области 3-й @Template[burst|distance:5].</p>",
			"range": "60 футов",
			"target": "2 непересекающихся 5-футовых взрыва",
			"time": "2"
		},
		"Thermal Stasis (Amped)": {
			"name": "Тепловой стазис (Расширенный)",
			"description": "<p>Те же возможности, что позволяют вам повышать или понижать тепловую энергию, еще позволяют вам держать ее на безопасной середине. Цель получает сопротивление 2 от урона огнем и сопротивление 2 от урона холодом.</p>\n<p>@UUID[Compendium.pf2e-psychic-amps.psychic-amped-effects.zkJ7LRXXEMLUwwle]{Эффект заклинания: Тепловой стазис (Расширение)}</p>\n<hr />\n<p><strong>Усиление (+1):</strong> Каждое сопротивление увеличивается на 2.</p>\n<hr />\n<p><strong>Расширение:</strong> Продолжительность заклинания становится 1 минута.</p>",
			"range": "60 футов",
			"target": "1 существо",
			"duration": "до начала вашего следующего хода",
			"time": "1"
		},
		"Tesseract Tunnel (Amped)": {
			"name": "Тессерактовый туннель (Расширенный)",
			"description": "<p>Вы мчитесь от точки к точке, прорывая туннель в пространстве. Вы создаете портал в своем текущем пространстве, а затем @UUID[Compendium.pf2e.actionspf2e.Item.Bcxarzksqt9ezrs6]{Перемещаетесь}, создавая другой портал в пространстве где заканчиваете свое \"Перемещение\". До начала вашего следующего хода, любое существо, вошедшее в первый портал, может частью своего действия <a href=https://clck.ru/jjR6e><em>`движения`</em></a> мгновенно перенестись в выходной портал, что добавляет к его движению признак <a href=https://clck.ru/jyLUj><em>`телепортации`</em></a>.</p>\n<p>Одновременно у вас может быть открыт только 1 <em>тессерактовый туннель</em>; создание еще одного приводит к немедленному закрытию первого. Вы можете использовать <em>тессерактовый туннель</em> во время @UUID[Compendium.pf2e.actionspf2e.Item.H6v1VgowHaKHnVlG]{Рытья}, @UUID[Compendium.pf2e.actionspf2e.Item.pprgrYQ1QnIDGZiy]{Карабканья}, @UUID[Compendium.pf2e.actionspf2e.Item.cS9nfDRGD83bNU1p]{Полета} или @UUID[Compendium.pf2e.actionspf2e.Item.c8TGiZ48ygoSPofx]{Плывете} вместо \"Перемещения\", если у вас есть соответствующий вид движения.</p>\n<hr />\n<p><strong>Расширение:</strong> Для соединения двух точек в пространстве больше не требуется физическое передвижение. Когда вы сотворяете <em>тессерактовый туннель</em>, то просто создаете туннель заканчивающийся в квадрате в пределах дистанции, равной вашей Скорости; вы можете по своему выбору немедленно телепортироваться в пространство на дальнем конце туннеля. Кроме того, туннель можно пройти в обоих направлениях, а не только от входа к выходу. Наконец, продолжительность заклинания изменяется на 1 минуту. Вы можете @UUID[Compendium.pf2e.actionspf2e.Item.AjLSHZSWQ90exdLo]{Развеять} это заклинание.</p>",
			"duration": "поддерживаемое вплоть до 1 минуты",
			"time": "2"
		},
		"Phase Bolt (Amped)": {
			"name": "Фазовый болт (Расширенный)",
			"description": "<p>Вы указываете пальцем и проецируете болт магической энергии, который колеблется по фазе, пока не достигнет цели. Совершите дистанционный бросок атаки заклинанием против КБ своей цели; если цель имеет какие-либо бонусы обстоятельства к КБ (например, от щита или укрытия), то для этой атаки уменьшите данный бонус на 2. При успехе, вы наносите колющий урон, равный 1d4 + ваш модификатор характеристики колдовства. При критическом успехе, цель получает двойной урон.</p>\n<p>Ваш <em>фазовый болт</em> временно выводит из фазы укрытие цели. При успехе, до начала вашего следующего хода, уменьшите бонус обстоятельства цели к КБ на 1 (если он есть).</p>\n<p>Ваш болт полностью выходит из фазы, становясь невидимым и неосязаемым, пока не войдет в цель, создавая впечатление, будто он просто телепортировался на место. Цель @Compendium[pf2e.conditionitems.AJh5ex99aV6VTggg] для этой атаки. Кроме того, этот болт игнорирует величину Твердости или сопротивления к колющему урону, равную половине уровня данного заклинания. При критическом успехе, на цель не могут воздействовать эффекты <a href=https://clck.ru/jyLUj><em>`телепортации`</em></a> до начала вашего следующего хода.</p>\n<hr />\n<p><strong>Расширенное усиление (+1):</strong> Урон болта увеличивается на 2d4, вместо 1d4.</p>",
			"range": "30 футов",
			"target": "1 существо",
			"time": "2"
		},
		"Phase Bolt (Psychic)": {
			"name": "Фазовый болт (Экстрасенс)",
			"description": "<p>Вы указываете пальцем и проецируете болт магической энергии, который колеблется по фазе, пока не достигнет цели. Совершите дистанционный бросок атаки заклинанием против КБ своей цели; если цель имеет какие-либо бонусы обстоятельства к КБ (например, от щита или укрытия), то для этой атаки уменьшите данный бонус на 2. При успехе, вы наносите колющий урон, равный 1d4 + ваш модификатор характеристики колдовства. При критическом успехе, цель получает двойной урон.</p>\n<p>Ваш <em>фазовый болт</em> временно выводит из фазы укрытие цели. При успехе, до начала вашего следующего хода, уменьшите бонус обстоятельства цели к КБ на 1 (если он есть).</p>\n<hr />\n<p><strong>Усиление (+1):</strong> Урон болта увеличивается на 1d4.</p>",
			"range": "30 футов",
			"target": "1 существо",
			"time": "2"
		},
		"Warp Step (Amped)": {
			"name": "Шаг искривления (Расширенный)",
			"description": "<p>Когда вы идете, земля искривляется под вашими ногами - ваши шаги удлиняются, расстояние сокращается и все становится чуть ближе. Вы до конца своего хода получаете бонус состояния +10 футов к Скорости. Затем вы дважды @UUID[Compendium.pf2e.actionspf2e.Item.Bcxarzksqt9ezrs6]{Перемещаетесь}. Вместо \"Перемещения\" вы можете использовать <em>шаг искривления</em>, чтобы @UUID[Compendium.pf2e.actionspf2e.Item.H6v1VgowHaKHnVlG]{Рыть}, @UUID[Compendium.pf2e.actionspf2e.Item.pprgrYQ1QnIDGZiy]{Карабкаться}, @UUID[Compendium.pf2e.actionspf2e.Item.cS9nfDRGD83bNU1p]{Лететь} или @UUID[Compendium.pf2e.actionspf2e.Item.c8TGiZ48ygoSPofx]{Плыть}, если у вас есть соответствующий тип движения.</p>\n<hr />\n<p><strong>Расширенное усиление (4-й):</strong> Вы настолько искажаете пространство, что вам не нужно преодолевать промежуточное расстояние. Вы можете просто телепортироваться в пространство в пределах своей линии обзора и линии эффекта, с дистанцией равной вашей двойной Скорости (после применения бонуса состояния от <em>шага искривления</em>). Это дает заклинанию признак <a href=https://clck.ru/jyLUj><em>`телепортация`</em></a>.</p>",
			"time": "1"
		},
		"Warp Step (Psychic)": {
			"name": "Шаг искривления (Экстрасенс)",
			"description": "<p>Когда вы идете, земля искривляется под вашими ногами - ваши шаги удлиняются, расстояние сокращается и все становится чуть ближе. Вы до конца своего хода получаете бонус состояния +10 футов к Скорости. Затем вы дважды @UUID[Compendium.pf2e.actionspf2e.Item.Bcxarzksqt9ezrs6]{Перемещаетесь}. Вместо \"Перемещения\" вы можете использовать <em>шаг искривления</em>, чтобы @UUID[Compendium.pf2e.actionspf2e.Item.H6v1VgowHaKHnVlG]{Рыть}, @UUID[Compendium.pf2e.actionspf2e.Item.pprgrYQ1QnIDGZiy]{Карабкаться}, @UUID[Compendium.pf2e.actionspf2e.Item.cS9nfDRGD83bNU1p]{Лететь} или @UUID[Compendium.pf2e.actionspf2e.Item.c8TGiZ48ygoSPofx]{Плыть}, если у вас есть соответствующий тип движения.</p>",
			"time": "2"
		},
		"Shield (Amped)": {
			"name": "Щит (Расширенный)",
			"description": "<p>Вы создаете многослойный барьер из 3 <em>щитов</em>. Это считается как использование действия @UUID[Compendium.pf2e.actionspf2e.Item.xjGwis0uaC2305pm]{Поднять щит}, но не требует использования руки, давая вам до начала вашего следующего хода бонус обстоятельства +1 КБ.</p>\n<p>Пока заклинание действует, вы можете использовать реакцию @UUID[Compendium.pf2e.feats-srd.Item.jM72TjJ965jocBV8]{Блок щитом} с вашим магическим щитом (смотрите сноску). Щит имеет Твердость 5. После того, как вы используете <em>\"Блок щитом\"</em>, заклинание заканчивается и вы не можете сотворять его в течение 10 минут - @UUID[Compendium.pf2e.spell-effects.Item.QF6RDlCoTvkVHRo4]{Эффект заклинаний: Иммунитет щита}. В отличие от обычного <em>\"Блока щитом\"</em>, вы можете использовать реакцию этого заклинания против заклинания @UUID[Compendium.pf2e.spells-srd.Item.gKKqvLohtrSJj3BM]{Магический снаряд}.</p>\n<p>Усиление заклинания увеличивает Твердость щита.</p>\n<p>Ваше заклинание <em>щит</em> может быть применено в пользу других. Когда сотворяете щит, вы можете выбрать целью союзника в пределах 30 футов, который получит преимущества заклинания вместо вас. Возможность совершить \"Блок щитом\" этим заклинанием зависит от вас и использует вашу реакцию, а не реакцию цели. Еще ваш щит получает следующее расширение.</p>\n<p>Продолжительность увеличивается до поддерживаемой вплоть до 1 минуты. Щит по-прежнему опускается в начале каждого вашего хода, но вы можете поднять его снова, когда @UUID[Compendium.pf2e.actionspf2e.Item.3f5DMFu8fPiqHpRg]{Поддерживаете} это заклинание.</p>\n<p>Когда вы \"Блокируете щитом\" при помощи этого заклинания, 1 из 3 слоев разрушается, и вы перестаете получать бонус к КБ, но заклинание не заканчивается. Вы можете продолжать использовать это заклинание, пока не разрушится последний слой; как только это произойдет, заклинание заканчивается, и вы не сможете снова сотворять щит или расширенный щит в течение 10 минут. При \"Блоке щитом\" этим заклинанием вы можете разрушить дополнительные слои, чтобы улучшить свою защиту. Если вы разрушаете 2 слоя вместо 1, увеличьте Твердость до 1.5 × обычное значение, с округлением до меньшего целого (7 на 1-м уровне, 15 на 3-м уровне, 22 на 5-м уровне, 30 на 7-м уровне и 37 на 9-м уровне). Если вы разрушаете все 3 слоя, то Твердость увеличивается в 2 раза от обычной.</p>\n<p>@Compendium[pf2e.spell-effects.Jemq5UknGdMO7b73]{Эффект заклинаний: Щит}</p>\n<hr />\n<p><strong>Усиление (3-й):</strong> Щит имеет Твердость 10.</p>\n<p><strong>Усиление (5-й):</strong> Щит имеет Твердость 15.</p>\n<p><strong>Усиление (7-й):</strong> Щит имеет Твердость 20.</p>\n<p><strong>Усиление (9-й):</strong> Щит имеет Твердость 25.</p>",
			"duration": "поддерживаемое вплоть до 1 минуты",
			"time": "1"
		},
		"Shield (Psychic)": {
			"name": "Щит (Экстрасенс)",
			"description": "<p>Вы поднимаете магический силовой щит. Это считается как использование действия @UUID[Compendium.pf2e.actionspf2e.Item.xjGwis0uaC2305pm]{Поднять щит}, но не требует использования руки, давая вам до начала вашего следующего хода бонус обстоятельства +1 КБ.</p>\n<p>Пока заклинание действует, вы можете использовать реакцию @UUID[Compendium.pf2e.feats-srd.Item.jM72TjJ965jocBV8]{Блок щитом} с вашим магическим щитом (смотрите сноску). Щит имеет Твердость 5. После того, как вы используете <em>\"Блок щитом\"</em>, заклинание заканчивается и вы не можете сотворять его в течение 10 минут - @UUID[Compendium.pf2e.spell-effects.Item.QF6RDlCoTvkVHRo4]{Эффект заклинаний: Иммунитет щита}. В отличие от обычного <em>\"Блока щитом\"</em>, вы можете использовать реакцию этого заклинания против заклинания @UUID[Compendium.pf2e.spells-srd.Item.gKKqvLohtrSJj3BM]{Магический снаряд}.</p>\n<p>Усиление заклинания увеличивает Твердость щита.</p>\n<p>Ваше заклинание <em>щит</em> может быть применено в пользу других. Когда сотворяете щит, вы можете выбрать целью союзника в пределах 30 футов, который получит преимущества заклинания вместо вас. Возможность совершить \"Блок щитом\" этим заклинанием зависит от вас и использует вашу реакцию, а не реакцию цели. Еще ваш щит получает следующее расширение.</p>\n<p>@Compendium[pf2e.spell-effects.Jemq5UknGdMO7b73]{Эффект заклинания: Щит}</p>\n<hr />\n<p><strong>Усиление (3-й):</strong> Щит имеет Твердость 10.</p>\n<p><strong>Усиление (5-й):</strong> Щит имеет Твердость 15.</p>\n<p><strong>Усиление (7-й):</strong> Щит имеет Твердость 20.</p>\n<p><strong>Усиление (9-й):</strong> Щит имеет Твердость 25.</p>",
			"duration": "до начала вашего следующего хода",
			"time": "1"
		},
		"Entropic Wheel (Amped)": {
			"name": "Энтропийное колесо (Расширенный)",
			"description": "<p><strong>Триггер:</strong> Вы наносите врагу урон холодом или огнем</p>\n<hr />\n<p>Вы накапливаете тепловую энергию в магической конструкции, напоминающей колесо, которая позволяет вам обжигать противников холодом или замораживать их тела теплом. Когда вы @UUID[Compendium.pf2e.actionspf2e.Item.aBQ8ajvEBByv45yz]{Сотворяете} это заклинание, колесо имеет 1 частичку тепловой энергии, и когда вы используете эффект <a href=https://clck.ru/jotXM><em>`холода`</em></a> или <a href=https://clck.ru/jompy><em>`огня`</em></a>, либо наносите урон холодом или огнем, колесо вращается, отбирая немного энергии и получая еще 1 частичку. Колесо не может получать частички больше 1 раза в ход, и максимальное количество частичек равно уровню <em>энтропийного колеса</em>.</p>\n<p>Когда вы @UUID[Compendium.pf2e.actionspf2e.Item.aBQ8ajvEBByv45yz]{Сотворяете} заклинание, наносящее урон огнем, цель еще получает урон холодом, равный количеству частичек в энтропийном колесе. Когда вы \"Сотворяете\" заклинание, наносящее урон холодом, цель еще получает урон огнем, равный количеству частичек в энтропийном колесе. Это применяется только к начальному урону заклинания, но не к продолжительному урону или продолжающимся эффектам.</p>\n<hr />\n<p><strong>Расширение:</strong> Вы получаете 2 частички вместо 1, когда Сотворяете заклинание и каждый раз, когда колесо получает другую частичку.</p>",
			"duration": "1 минута",
			"time": "reaction"
		},
		"Figment (Amped)": {
			"name": "Вымысел (Расширенный)",
			"description": "<p>Вы создаете простой иллюзорный звук или видение. Звук добавляет к заклинанию признак <a href=https://clck.ru/sXZwX><em>`слуховой`</em></a>, и звук не может включать в себя понятные слова или сложную музыку. Видение добавляет признак <a href=https://clck.ru/sUauM><em>`визуальный`</em></a>, может быть не больше 5-футового куба, и явно грубое и недетализированное, если смотреть с расстояния 15 футов. Когда вы @UUID[Compendium.pf2e.actionspf2e.Item.aBQ8ajvEBByv45yz] или @UUID[Compendium.pf2e.actionspf2e.Item.3f5DMFu8fPiqHpRg], вы можете совершить проверку @UUID[Compendium.pf2e.actionspf2e.Item.GkmbTGfg8KcgynOA] иллюзией, получая бонус обстоятельства +2 к вашей проверке Обмана. Если попытка против существа проваливается, это существо не верит в <em>вымысел</em>.</p>\n<p>Когда вы \"Поддерживаете\" заклинание, вы можете переместить звук или видение на 15 футов. Затем вы можете попытаться @UUID[Compendium.pf2e.actionspf2e.Item.GkmbTGfg8KcgynOA] как обычно. Существа не верящие в иллюзию, не затронуты этим отвлечением.</p>\n<p><strong>Расширение:</strong> Когда вы расширяете это заклинание, вы можете создать особенно отвлекающую иллюзию, как часть его обычных эффектов. Выберите свободный квадрат в пределах дистанции заклинания. Иллюзия в этом квадрате обеспечивает фланкирование для одной атаки ближнего боя, совершенной до начала вашего следующего хода. Если вы Поддерживаете заклинание, детали иллюзии меняются, чтобы держать ваших врагов в замешательстве; срок фланкирующей иллюзии продлевается до начала вашего следующего хода и вы можете переместить иллюзию в любую свободную клетку в пределах дистанции заклинания. Фланкирующая иллюзия не дает преимущество фланкирования против любого существа, не верящему в <em>вымысел</em>.</p>",
			"range": "60 футов",
			"duration": "поддерживаемое",
			"time": "2"
		},
		"Figment (Psychic)": {
			"name": "Вымысел (Экстрасенс)",
			"description": "<p>Вы создаете простой иллюзорный звук или видение. Звук добавляет к заклинанию признак <a href=https://clck.ru/sXZwX><em>`слуховой`</em></a>, и звук не может включать в себя понятные слова или сложную музыку. Видение добавляет признак <a href=https://clck.ru/sUauM><em>`визуальный`</em></a>, может быть не больше 5-футового куба, и явно грубое и недетализированное, если смотреть с расстояния 15 футов. Когда вы @UUID[Compendium.pf2e.actionspf2e.Item.aBQ8ajvEBByv45yz] или @UUID[Compendium.pf2e.actionspf2e.Item.3f5DMFu8fPiqHpRg], вы можете совершить проверку @UUID[Compendium.pf2e.actionspf2e.Item.GkmbTGfg8KcgynOA] иллюзией, получая бонус обстоятельства +2 к вашей проверке Обмана. Если попытка против существа проваливается, это существо не верит в <em>вымысел</em>.</p>\n<p>Когда вы \"Поддерживаете\" заклинание, вы можете переместить звук или видение на 15 футов. Затем вы можете попытаться @UUID[Compendium.pf2e.actionspf2e.Item.GkmbTGfg8KcgynOA] как обычно. Существа не верящие в иллюзию, не затронуты этим отвлечением.</p>",
			"range": "60 футов",
			"duration": "поддерживаемое",
			"time": "2"
		},
		"Frostbite (Amped)": {
			"name": "Обморожение (Расширенный)",
			"description": "<p>Сфера жгучего холода сгущается вокруг цели, замораживая ее тело. Цель получает 2d4 урона холодом с простым спасброском Стойкости. При критическом провале, цель также получает слабость 1 к дробящему урону, до начала вашего следующего хода.</p>\n<p>@UUID[Compendium.pf2e.spell-effects.Item.DdqWMj7cuf4S1bgr]</p>\n<p><strong>Расширение:</strong> Вы выкачиваете тепловую энергию на расстоянии, используя добытое для пополнения своих резервов. Сфера наносит 3d4 урона холодом. Вы получаете временные ОЗ, равные половине полученного целью урона (после применения сопротивлений и т.д.). Вы теряете оставшиеся ВОЗ спустя 1 минуту.</p>\n<hr />\n<p><strong>Расширенное усиление (+1):</strong> Начальный урон увеличивается на 2d4 вместо 1d4. Слабость при критическом провале увеличивается на 1.</p>",
			"range": "120 футов",
			"target": "1 существо",
			"time": "2"
		},
		"Frostbite (Psychic)": {
			"name": "Обморожение (Экстрасенс)",
			"description": "<p>Сфера жгучего холода сгущается вокруг цели, замораживая ее тело. Цель получает 2d4 урона холодом с простым спасброском Стойкости. При критическом провале, цель также получает слабость 1 к дробящему урону, до начала вашего следующего хода.</p>\n<p>@UUID[Compendium.pf2e.spell-effects.Item.DdqWMj7cuf4S1bgr]</p>\n<hr />\n<p><strong>Усиление (+1):</strong> Начальный урон увеличивается на 1d4 и слабость при критическом провале увеличивается на 1.</p>",
			"range": "120 футов",
			"target": "1 существо",
			"time": "2"
		},
		"Ignition (Amped)": {
			"name": "Воспламенение (Расширенный)",
			"description": "<p>Вы щелкаете пальцами и указываете на цель, которая начинает тлеть. Совершите бросок атаки заклинанием против КБ цели, при попадании нанося 1d10 урона огнем и 1 урона огненными брызгами. Если цель находится в вашей досягаемости ближнего боя, то вместо дистанционной атаки заклинанием, вы можете совершить бросок атаки заклинания ближнего боя, что увеличивает кости урона до d12. При использовании воспламенения, как атаки ближнего боя, ваша досягаемость увеличивается на 5 футов. Вы не получаете урона брызгами от расширенного воспламенения.</p>\n<hr />\n<p><strong>Критический успех:</strong> Цель получает двойной урон и 1d4 продолжительного урона огнем: @Damage[(@item.level)d4[persistent,fire]].</p>\n<p><strong>Успех:</strong> Цель получает полный урон.</p>\n<hr />\n<p><strong>Расширенное усиление (+1):</strong> Начальный урон увеличивается на 1d10 (1d12 для ближнего боя), а урон брызгами на 1. Продолжительный урон огнем при критическом успехе увеличивается на 1d4.</p>",
			"range": "60 футов",
			"target": "1 существо",
			"time": "2"
		},
		"Ignition (Psychic)": {
			"name": "Воспламенение (Экстрасенс)",
			"description": "<p>Вы щелкаете пальцами и указываете на цель, которая начинает тлеть. Совершите бросок атаки заклинанием против КБ цели, при попадании нанося 2d4 урона огнем. Если цель находится в вашей досягаемости ближнего боя, то вместо дистанционной атаки заклинанием, вы можете совершить бросок атаки заклинания ближнего боя, что увеличивает кости урона до d6. При использовании воспламенения, как атаки ближнего боя, ваша досягаемость увеличивается на 5 футов.</p>\n<hr />\n<p><strong>Критический успех:</strong> Цель получает двойной урон и 1d4 продолжительного урона огнем: @Damage[(@item.level)d4[persistent,fire]].</p>\n<p><strong>Успех:</strong> Цель получает полный урон.</p>\n<hr />\n<p><strong>Усиление (+1):</strong> Начальный урон увеличивается на 1d4 (1d6 для ближнего боя) и продолжительный урон огнем при критическом успехе увеличивается на 1d4.</p>",
			"range": "60 футов",
			"target": "1 существо",
			"time": "2"
		}
	}
}