{
	"label": "Конструкт-компаньоны",
	"mapping": {
		"name": {
			"path": "name",
			"converter": "itemNameConverter"
		},
		"description": "system.description.value",
		"rules": {
			"path": "system.rules",
			"converter": "carefulMerge"
		}
	},
	"entries": {
		"Megaton Strike (CC)": {
			"name": "Мегатонный удар (CC)",
			"description": "<p>Вы активируете шестерни, взрывчатку и другие потайные механизмы в своей инновации, чтобы совершить мощную атаку. Вы совершаете \"Удар\", нанося дополнительную кость урона оружия. Если вы 10-го уровня или выше, то увеличиваете их до 2 дополнительных костей, а если 18-го уровня или выше, то до 3 дополнительных костей. Тип \"Удара\", который вы можете нанести, зависит от вашей инновации.</p>\n<ul>\n<li><strong>Доспех:</strong> Вы \"Ударяете\" в ближнем бою безоружной атакой или оружием. Чтобы использовать для этого оружие ближнего боя, вы должны заранее подготовить его с помощью специальных приспособлений во время ежедневных приготовлений.</li>\n<li><strong>Конструкт:</strong> Ваш инновационный миньон наносит \"Удар\".</li>\n<li><strong>Оружие:</strong> Вы наносите \"Удар\" своим инновационным оружием.</li>\n</ul>\n<p><strong>Нестабильная функция:</strong> Вы вкладываете в \"Удар\" ещё больше силы, но рискуете стрессовыми переломами своей инновации. Добавьте к <em>\"Мегатонному удару\"</em> признак @Trait[Unstable]{нестабильный}. \"Удар\" наносит также 1 дополнительную кость урона, итого 2 дополнительные кости на 4-м уровне, 3 — на 10-м уровне и 4 — на 18-м уровне.</p>\n<p><strong>Особенность:</strong> Если ваша инновация является @Trait[Minion]{миньоном}, то он может совершить это действие вместо вас.</p>"
		},
		"Advanced Construct (CC)": {
			"name": "Продвинутый конструкт (СС)",
			"description": "<p>Чтобы усовершенствовать прототип конструкта-компаньона до продвинутого (обычно это происходит в результате одной из ваших классовых способностей), сделайте следующие корректировки.</p>\n<ul>\n<li>Увеличьте его модификаторы Силы, Ловкости, Телосложения и Мудрости на 1.</li>\n<li>Увеличьте урон его безоружной атаки с одной кости до двух (например, с 1d8 до 2d8).</li>\n<li>Увеличьте его уровень мастерства Восприятия и всех спасбросков до эксперта.</li>\n<li>Увеличьте его уровни мастерства Запугивания, Скрытности и Выживания до обученного. Если конструкт является вашей инновацией и уже обучен этим навыкам из-за модификации, то увеличьте уровни мастерства этих навыков до эксперта.</li>\n<li>Если хотите, то можете изменить Размер своего компаньона на маленький, средний либо большой.</li>\n</ul>"
		},
		"Incredible Construct (CC)": {
			"name": "Невероятный конструкт (СС)",
			"description": "<p>Чтобы усовершенствовать продвинутого конструкта-компаньона до невероятного, сделайте следующие корректировки.</p>\n<ul>\n<li>Увеличьте его модификаторы Силы, Ловкости, Телосложения и Мудрости на 2.</li>\n<li>Он наносит своими безоружными атаками 2 дополнительного урона. Его атаки становятся магическими, что позволяет ему обходить сопротивления немагических атак.</li>\n<li>Увеличьте его мастерство Атлетики и Акробатики до эксперта.</li>\n</ul>",
			"rules": {
				"4": {
					"label": "Невероятный конструкт"
				}
			}
		},
		"Paragon Construct (CC)": {
			"name": "Образцовый конструкт (CC)",
			"description": "<p>Чтобы усовершенствовать невероятного конструкта-компаньона до образцового, сделайте следующие корректировки.</p>\n<ul>\n<li>Увеличьте его модификаторы Силы, Ловкости, Телосложения и Мудрости на 1.</li>\n<li>Увеличьте его мастерство безоружных атак и защиты без доспеха до эксперта.</li>\n<li>Увеличьте его мастерство Атлетики, Акробатики, спасбросков и Восприятия до мастера.</li>\n<li>Увеличьте урон его безоружных атак с двух костей до трёх, а дополнительный урон безоружных атак с 2 до 4.</li>\n</ul>"
		},
		"Prototype Construct": {
			"name": "Прототип конструкта"
		},
		"Unarmed Strike 1": {
			"name": "Безоружная атака 1",
			"description": "<p>Переименуйте это действие, чтобы переименовать созданный им \"Удар\", изображение этого действия также можно настроить на изображение, которое вы хотите для \"Удара\".</p>"
		},
		"Unarmed Strike 2": {
			"name": "Безоружная атака 2",
			"description": "<p>Переименуйте это действие, чтобы переименовать созданный им \"Удар\", изображение этого действия также можно настроить на изображение, которое вы хотите для \"Удара\".</p>"
		}
	}
}