{
	"label": "Эйдолоны",
	"mapping": {
		"name": {
			"path": "name",
			"converter": "itemNameConverter"
		},
		"description": "system.description.value"
	},
	"entries": {
		"Angel Eidolon": {
			"name": "Ангел",
			"description": "<p>Ваш эйдолон — небесный посланник, один из представителей сонма ангелов, имеющий с вами уникальную связь, позволяющую ему вместе с вами нести особое послание в мир смертных. Большинство эйдолонов ангелов имеют едва гуманоидную форму с пернатыми крыльями, светящимися глазами, нимбами или подобными ангельскими чертами. Однако, вместо этого некоторые из них принимают форму более мелких ангельских служителей, таких как крылатый шлем @UUID[Compendium.pf2e.pathfinder-monster-core.Actor.9qERA2jk7Yv74Hqq]. Вам двоим суждено сыграть важную роль в замыслах небесных царств. Хотя ваш эйдолон и является истинным ангелом, его связь с вами как со смертным не позволяет ему проводить ритуал @UUID[Compendium.pf2e.spells-srd.Item.joEruBVz31Uxczzq], даже если он каким-то образом научится ему.</p>\n<p><strong>Обычай:</strong> сакральный</p>\n<p><strong>Признаки:</strong> @Trait[Angel]{ангел}, @Trait[Celestial]{небожитель}, @Trait[Eidolon]{эйдолон}</p>\n<p><strong>Мировоззрение:</strong> должно быть добрым, обычно нейтрально доброе</p>\n<p><strong>Домашний план:</strong> <a href=https://clck.ru/remaA>Нирвана</a> (если НД), <a href=https://clck.ru/remZg>Элизиум</a> (если ХД) или <a href=https://clck.ru/remZp>Небеса</a> (если ПД)</p>\n<p><strong>Размер:</strong> Средний или Маленький</p>\n<p><strong>Предложенные атаки:</strong> кулак (дробящий), крыло (дробящий), безоружные атаки в форме оружия</p>\n<p><strong>Ангельский мститель:</strong> Сил 18, Лвк 14, Тел 16, Инт 8, Мдр 12, Хар 10; +2 КБ (+3 макс.мод.Лвк)</p>\n<p><strong>Ангельский эмиссар:</strong> Сил 12, Лвк 18, Тел 12, Инт 10, Мдр 12, Хар 14; +1 КБ (+4 макс.мод.Лвк)</p>\n<p><strong>Навыки:</strong> Дипломатия, Религия</p>\n<p><strong>Чувства:</strong> ночное зрение</p>\n<p><strong>Язык:</strong> Небесный</p>\n<p><strong>Скорость:</strong> 25 футов</p>\n<p><strong>Умения эйдолона:</strong> Начальное: @UUID[Compendium.pf2e-animal-companions.AC-Features.Item.WyN2qQ2AP4cOMNxF]; Симбиоз: @UUID[Compendium.pf2e-animal-companions.AC-Features.Item.6uCSkTAltByUK2Pb]; Трансцендентность: @UUID[Compendium.pf2e-animal-companions.AC-Features.Item.QDtXuIshSTUBcxff]</p>"
		},
		"Anger Phantom Eidolon": {
			"name": "Фантом гнева",
			"description": "<p>Ваш эйдолон — заблудшая душа, связанная вечным гневом или горькой обидой с миром смертных. Большинство фантомных эйдолонов — гуманоиды с призрачным или эктоплазменным обликом, хотя некоторые принимают куда более странные формы. Ваша связь с эйдолоном не позволяет ему поддаться испорченности и нежизни. Вам вместе придется решить, сотрудничать ли со своим эйдолоном, чтобы контролировать его злость, или направлять его гнев в силу.</p>\n<p><strong>Обычай:</strong> оккультный</p>\n<p><strong>Признаки:</strong> @Trait[Phantom]{фантом}, @Trait[Eidolon]{эйдолон}, @Trait[Ethereal]{эфирный}</p>\n<p><strong>Домашний план:</strong> <a href=https://clck.ru/pyJTT>Эфирный план</a></p>\n<p><strong>Размер:</strong> Средний или Маленький</p>\n<p><strong>Предложенные атаки:</strong> кулак (дробящий), завиток (дробящий), безоружные атаки в форме оружия</p>\n<p><strong>Гневный берсерк:</strong> Сил 18, Лвк 14, Тел 16, Инт 8, Мдр 10, Хар 12; +2 КБ (+3 макс.мод.Лвк)</p>\n<p><strong>Разъярённый убийца:</strong> Сил 14, Лвк 18, Тел 16, Инт 10, Мдр 8, Хар 12; +1 КБ (+4 макс.мод.Лвк)</p>\n<p><strong>Навыки:</strong> Запугивание, Оккультизм</p>\n<p><strong>Чувства:</strong> ночное зрение</p>\n<p><strong>Язык:</strong> 1 распространенный язык смертных, на котором эйдолон разговаривал при жизни</p>\n<p><strong>Скорость:</strong> 25 футов</p>\n<p><strong>Умения эйдолона:</strong> Начальное: @UUID[Compendium.pf2e-animal-companions.AC-Features.Item.CBJrHjIETQsh3OG6]; Симбиоз: @UUID[Compendium.pf2e-animal-companions.AC-Features.Item.MzqIc3XmAUQVdSFO]; Трансцендентность: @UUID[Compendium.pf2e-animal-companions.AC-Features.Item.MET0PzSNfpxi0D3E]</p>"
		},
		"Beast Eidolon": {
			"name": "Чудовище",
			"description": "<p>Ваш эйдолон это проявление жизненной силы природы в виде могущественного магического зверя, который часто имеет черты животного, возможно, даже нескольких разных видов. Возможно, вы научились способу связываться с жизненной силой мира благодаря определенной философии или практикам, например, верованиям призывателей богов Саркориса, или самостоятельно образовали эту связь. В любом случае, ваша связь с эйдолоном позволяет вам обоим расти в силе и влиянии, чтобы защитить свой дом от тех, кто хотел бы его разграбить.</p>\n<p><strong>Обычай:</strong> природный</p>\n<p><strong>Признаки:</strong> @Trait[Beast]{чудовище}, @Trait[Eidolon]{эйдолон}</p>\n<p><strong>Домашний план:</strong> <a href=https://clck.ru/pxYdf>Материальный план</a></p>\n<p><strong>Размер:</strong> Средний</p>\n<p><strong>Предложенные атаки:</strong> когти (рубящий), челюсти (колющий), клыки (колющий), копыто (дробящий), рога (колющий)</p>\n<p><strong>Брутальное чудовище:</strong> Сил 18, Лвк 14, Тел 16, Инт 8, Мдр 12, Хар 10; +2 КБ (+3 макс.мод.Лвк)</p>\n<p><strong>Быстрое чудовище:</strong> Сил 14, Лвк 18, Тел 16, Инт 8, Мдр 12, Хар 10; +1 КБ (+4 макс.мод.Лвк)</p>\n<p><strong>Навыки:</strong> Запугивание, Природа</p>\n<p><strong>Чувства:</strong> сумеречное зрение</p>\n<p><strong>Язык:</strong> Сильван</p>\n<p><strong>Скорость:</strong> 25 футов</p>\n<p><strong>Умения эйдолона:</strong> Начальное: @UUID[Compendium.pf2e-animal-companions.AC-Features.Item.lonj7zEZdJD2pbai]; Симбиоз: @UUID[Compendium.pf2e-animal-companions.AC-Features.Item.Gn750G9nNM3GiI5k]; Трансцендентность: @UUID[Compendium.pf2e-animal-companions.AC-Features.Item.coBen1GA1czeBTOs]</p>"
		},
		"Construct Eidolon": {
			"name": "Конструкт",
			"description": "<p>Ваш эйдолон — ментальный конструкт, основанный на астральной мыслеформе и наделенный физическим присутствием и жизнью благодаря связи с вами, его форма ограничена только вашим воображением. Его внешний вид и физическая форма зависят от вашего общего видения его конструкции: от заводных механизмов до набивных кукол и всего остального, и нередко этот внешний вид сильно меняется по мере получения эволюций. Поскольку ваш конструкт возникает из астральной сущности, он не бездумный слуга, а полностью мыслящее существо со своими собственными идеями, целями и даже эмоциями. Эти сущности чрезвычайно разнообразны; в то время как многие эйдолоны конструкты возникают из мощной симбиотической связи с обитателями астрала, столь же многие возникают из забытых воспоминаний о древних империях и ремесленных мастерских, дрейфующих по Серебряному Морю Астрального Плана.</p>\n<p><strong>Обычай:</strong> арканный</p>\n<p><strong>Признаки:</strong> @Trait[Astral]{астральный}, @Trait[Construct]{конструкт}, @Trait[Eidolon]{эйдолон}</p>\n<p><strong>Домашний план:</strong> <a href=https://clck.ru/qNMWT>Астральный план</a></p>\n<p><strong>Размер:</strong> Средний</p>\n<p><strong>Предложенные атаки:</strong> кулак (дробящий)</p>\n<p><strong>Конструкт воин:</strong> Сил 18, Лвк 14, Тел 16, Инт 12, Мдр 10, Хар 8; +2 КБ (+3 макс.мод.Лвк)</p>\n<p><strong>Конструкт разведчик:</strong> Сил 14, Лвк 18, Тел 16, Инт 12, Мдр 10, Хар 8; +1 КБ (+4 макс.мод.Лвк)</p>\n<p><strong>Навыки:</strong> Аркана, Ремесло</p>\n<p><strong>Чувства:</strong> ночное зрение</p>\n<p><strong>Язык:</strong> 1 распространённый язык смертных</p>\n<p><strong>Скорость:</strong> 25 футов</p>\n<p><strong>Умения эйдолона:</strong> Начальное: @UUID[Compendium.pf2e-animal-companions.AC-Features.Item.tBhCZN3SwlxQirL1]; Симбиоз: @UUID[Compendium.pf2e-animal-companions.AC-Features.Item.AaVyAec0r17ocz42]; Трансцендентность: @UUID[Compendium.pf2e-animal-companions.AC-Features.Item.f5t6k3hwRSXqGto1]</p>"
		},
		"Demon Eidolon": {
			"name": "Демон",
			"description": "<p>Ваш эйдолон — демон, рождённый смертным грехом, скопившимся среди хаоса и зла Бездны и использующий свою связь с вами, чтобы сеять с вами хаос. Выберите для своего демона связанный с ним грех. Эйдолоны демоны обладают столь же разнообразными обликами, как и бесконечная Бездна. Хотя по своей природе демоны не заслуживают доверия, ваш демон эйдолон достиг с вами соглашения и, как правило, соблюдает его, хотя это не значит, что ваш эйдолон не трудится над тем, чтобы погрузить вашу жизнь в связанный с ним грех. Хотя эйдолон и является истинным демоном, его связь с вами как со смертным не позволяет ему проводить ритуал @UUID[Compendium.pf2e.spells-srd.Item.tsKnoBuBbKMXkiz5], даже если он каким-то образом научится ему.</p>\n<p><strong>Обычай:</strong> сакральный</p>\n<p><strong>Признаки:</strong> @Trait[Fiend]{бес}, @Trait[Demon]{демон}, @Trait[Eidolon]{эйдолон}</p>\n<p><strong>Мировоззрение:</strong> должен быть хаотично злым</p>\n<p><strong>Домашний план:</strong> <a href=https://clck.ru/rfEnY>Бездна</a></p>\n<p><strong>Размер:</strong> Средний или Маленький</p>\n<p><strong>Предложенные атаки:</strong> когти (рубящий), челюсти (колющий), рога (колющий), хвост (дробящий), щупальце (дробящий), крыло (дробящий)</p>\n<p><strong>Демон крушитель:</strong> Сил 18, Лвк 14, Тел 16, Инт 10, Мдр 8, Хар 12; +2 КБ (+3 макс.мод.Лвк)</p>\n<p><strong>Демон искуситель:</strong> Сил 12, Лвк 18, Тел 12, Инт 10, Мдр 10, Хар 16; +1 КБ (+4 макс.мод.Лвк)</p>\n<p><strong>Навыки:</strong> Запугивание, Религия</p>\n<p><strong>Чувства:</strong> ночное зрение</p>\n<p><strong>Язык:</strong> Язык бездны</p>\n<p><strong>Скорость:</strong> 25 футов</p>\n<p><strong>Умения эйдолона:</strong> Начальное: @UUID[Compendium.pf2e-animal-companions.AC-Features.Item.o3P8heIfNr1z53Ay]; Симбиоз: @UUID[Compendium.pf2e-animal-companions.AC-Features.Item.cnYMvDxCRY4NvUmJ]; Трансцендентность: @UUID[Compendium.pf2e-animal-companions.AC-Features.Item.C0zzz9wVwfmGtfIQ]</p>"
		},
		"Devotion Phantom Eidolon": {
			"name": "Фантом преданности",
			"description": "<p>Ваш эйдолон — потерянная душа, неспособная покинуть мир смертных из-за сильного чувства долга, нерушимой преданности или необходимости завершить важное задание. Большинство фантомных эйдолонов — гуманоиды с призрачным или эктоплазменным обликом, хотя некоторые принимают куда более странные формы. Ваша связь с эйдолоном не позволяет ему поддаться испорченности и нежизни, и вместе вы будете расти в силе и следовать мотиву вашего фантома.</p>\n<p><strong>Обычай:</strong> оккультный</p>\n<p><strong>Признаки:</strong> @Trait[Phantom]{фантом}, @Trait[Eidolon]{эйдолон}, @Trait[Ethereal]{эфирный}</p>\n<p><strong>Домашний план:</strong> <a href=https://clck.ru/pyJTT>Эфирный план</a></p>\n<p><strong>Размер:</strong> Средний или Маленький</p>\n<p><strong>Предложенные атаки:</strong> кулак (дробящий), завиток (дробящий), безоружные атаки в форме оружия</p>\n<p><strong>Непоколебимый страж:</strong> Сил 18, Лвк 14, Тел 16, Инт 10, Мдр 10, Хар 10; +2 КБ (+3 макс.мод.Лвк)</p>\n<p><strong>Быстрый защитник:</strong> Сил 14, Лвк 18, Тел 16, Инт 10, Мдр 10, Хар 10; +1 КБ (+4 макс.мод.Лвк)</p>\n<p><strong>Навыки:</strong> Медицина, Оккультизм</p>\n<p><strong>Чувства:</strong> ночное зрение</p>\n<p><strong>Язык:</strong> 1 распространенный язык смертных, на котором эйдолон разговаривал при жизни</p>\n<p><strong>Скорость:</strong> 25 футов</p>\n<p><strong>Умения эйдолона:</strong> Начальное: @UUID[Compendium.pf2e-animal-companions.AC-Features.Item.V5bcYgKbJTHdOBHI]; Симбиоз: @UUID[Compendium.pf2e-animal-companions.AC-Features.Item.N47g9LDkOdZZdgup]; Трансцендентность: @UUID[Compendium.pf2e-animal-companions.AC-Features.Item.oOBWRXPtYIXWp5Sm]</p>"
		},
		"Dragon Eidolon": {
			"name": "Дракон",
			"description": "<p>Поскольку драконы обладают сильной связью с магией, их разумы часто могут оставлять эхо, парящее в Астральном Плане. Такая сущность чрезвычайно сильна, но не способна самостоятельно взаимодействовать с внешним миром. Эйдолоны драконы проявляются в мощных, чешуйчатых формах, которые они имели при жизни; большинство из них принимают форму истинных драконов (хоть и поменьше), но некоторые проявляются как дрейки или другие драконические существа. Вы установили связь с таким эйдолоном драконом и вместе стремитесь стать такими же могущественными, как древний вирм.</p>\n<p><strong>Обычай:</strong> арканный</p>\n<p><strong>Признаки:</strong> @Trait[Astral]{астральный}, @Trait[Dragon]{дракон}, @Trait[Eidolon]{эйдолон}, и ещё один (см. <em>\"Атаку дыханием\"</em> ниже)</p>\n<p><strong>Домашний план:</strong> <a href=https://clck.ru/qNMWT>Астральный план</a></p>\n<p><strong>Размер:</strong> Средний</p>\n<p><strong>Предложенные атаки:</strong> когти (рубящий), челюсти (колющий), рога (колющий), хвост (дробящий), крыло (дробящий)</p>\n<p><strong>Дракон-мародёр:</strong> Сил 18, Лвк 14, Тел 16, Инт 10, Мдр 10, Хар 10; +2 КБ (+3 макс.мод.Лвк)</p>\n<p><strong>Хитрый дракон:</strong> Сил 12, Лвк 18, Тел 12, Инт 14, Мдр 10, Хар 12; +1 КБ (+4 макс.мод.Лвк)</p>\n<p><strong>Навыки:</strong> Аркана, Запугивание</p>\n<p><strong>Чувства:</strong> ночное зрение</p>\n<p><strong>Язык:</strong> Драконий</p>\n<p><strong>Скорость:</strong> 25 футов</p>\n<p><strong>Умения эйдолона:</strong> Начальное: @UUID[Compendium.pf2e-animal-companions.AC-Features.Item.I8fG26JJS29ZYwfZ]; Симбиоз: @UUID[Compendium.pf2e-animal-companions.AC-Features.Item.oSjJ726kv8wvk1Rb]; Трансцендентность: @UUID[Compendium.pf2e-animal-companions.AC-Features.Item.P7qw5V2ylPwCWMPB]</p>"
		},
		"Fey Eidolon": {
			"name": "Фея",
			"description": "<p>Ваш эйдолон — фея, капризное существо загадочного Первого Мира. Многие феи выглядят похожими на смертных гуманоидов с такими необычными чертами, как заостренные уши, крылья или тела, состоящие из природных элементов, но полное разнообразие фей бесконечно, и многие другие выглядят совершенно нечеловечески. Феи из Первого Мира никогда не умирают по-настоящему, вместо этого они образуют новое существо. Обычно эйдолоны феи появляются как раз, когда призыватель помогает стабилизировать сложное преобразование. Это означает, что, скорее всего, ваш эйдолон фея жил другой жизнью незадолго до встречи с вами и может помнить фрагменты своих старых воспоминаний. Возможно, вместе вам придется разгадать воспоминания из прошлой жизни вашего эйдолона среди фей.</p>\n<p><strong>Обычай:</strong> природный (но см. <em>\"Заклинания дара фей\"</em> ниже)</p>\n<p><strong>Признаки:</strong> @Trait[Fey]{фея}, @Trait[Eidolon]{эйдолон}</p>\n<p><strong>Домашний план:</strong> <a href=https://clck.ru/pxYiq>Первый мир</a></p>\n<p><strong>Размер:</strong> Маленький или Средний</p>\n<p><strong>Предложенные атаки:</strong> кулак (дробящий), крыло (дробящий), атаки в форме оружия</p>\n<p><strong>Фея ловкач:</strong> Сил 14, Лвк 18, Тел 14, Инт 10, Мдр 10, Хар 12; +1 КБ (+4 макс.мод.Лвк)</p>\n<p><strong>Фея трикстер:</strong> Сил 12, Лвк 18, Тел 12, Инт 12, Мдр 8, Хар 16; +1 КБ (+4 макс.мод.Лвк)</p>\n<p><strong>Навыки:</strong> Обман, Природа</p>\n<p><strong>Чувства:</strong> сумеречное зрение</p>\n<p><strong>Язык:</strong> Сильван</p>\n<p><strong>Скорость:</strong> 25 футов</p>\n<p><strong>Умения эйдолона:</strong> Начальное: @UUID[Compendium.pf2e-animal-companions.AC-Features.Item.uqwHH20BKk3WcjbW]; Симбиоз: @UUID[Compendium.pf2e-animal-companions.AC-Features.Item.pn0rELSmLV6G5FUu]; Трансцендентность: @UUID[Compendium.pf2e-animal-companions.AC-Features.Item.VZQ3CcjOZFG57R0O]</p>"
		},
		"Plant Eidolon": {
			"name": "Растение",
			"description": "<p>Ваш эйдолон — разумное растение, сформированное из тех же развоплощенных фрагментов природной жизненной энергии, которые становятся лешими. Эйдолоны растения обычно любопытны и легко адаптируются, их темперамент зависит от того, к какой части культуры смертных они испытывают симпатию. Несмотря на то, что они происходят от одного источника, растительные эйдолоны не выглядят как лешие. Формы эйдолонов растений очень разнообразны и могут выглядеть практически как любой вид существующих растительных существ. Некоторые даже похожи на столь странных существ, что их невозможно идентифицировать.</p>\n<p><strong>Обычай:</strong> природный</p>\n<p><strong>Признаки:</strong> @Trait[Plant]{растение}, @Trait[Eidolon]{эйдолон}</p>\n<p><strong>Домашний план:</strong> <a href=https://clck.ru/pxYdf>Материальный план</a></p>\n<p><strong>Размер:</strong> Средний</p>\n<p><strong>Предложенные атаки:</strong> лиана (дробящий), ветка (дробящий), корень (дробящий)</p>\n<p><strong>Растение защитник:</strong> Сил 18, Лвк 14, Тел 16, Инт 8, Мдр 12, Хар 10; +2 КБ (+3 макс.мод.Лвк)</p>\n<p><strong>Ползучее растение:</strong> Сил 12, Лвк 18, Тел 16, Инт 8, Мдр 14, Хар 10; +1 КБ (+4 макс.мод.Лвк)</p>\n<p><strong>Навыки:</strong> Выживание, Природа</p>\n<p><strong>Чувства:</strong> сумеречное зрение</p>\n<p><strong>Язык:</strong> Сильван</p>\n<p><strong>Скорость:</strong> 25 футов</p>\n<p><strong>Умения эйдолона:</strong> Начальное: @UUID[Compendium.pf2e-animal-companions.AC-Features.Item.iunzITJGz0QUudUk]; Симбиоз: @UUID[Compendium.pf2e-animal-companions.AC-Features.Item.sSfOct37bkinwW5E]; Трансцендентность: @UUID[Compendium.pf2e-animal-companions.AC-Features.Item.kpcL3Iz1KJnmEKwC]</p>"
		},
		"Psychopomp Eidolon": {
			"name": "Психопоми",
			"description": "<p>Ваш эйдолон — психопомп, существо, поклявшееся безопасно провожать души в загробный мир и обслуживать суды мертвых. Эйдолоны психопомпы могут иметь самую разную внешность, но поскольку они часто контактируют со смертными, их форма обычно имеет искусную маску. Вы и ваш эйдолон психопомп вместе делите важную судьбу, независимо от того, связана ли она непосредственно с вашей собственной душой или с миссией, которая каким-то образом защитит души других.</p>\n<p><strong>Обычай:</strong> сакральный</p>\n<p><strong>Признаки:</strong> @Trait[Monitor]{наблюдатель}, @Trait[Psychopomp]{психопомп}, @Trait[Eidolon]{эйдолон}</p>\n<p><strong>Мировоззрение:</strong> должен быть истинно нейтральным</p>\n<p><strong>Домашний план:</strong> <a href=https://clck.ru/qFEmz>Могильник</a></p>\n<p><strong>Размер:</strong> Средний</p>\n<p><strong>Предложенные атаки:</strong> клюв (колющий), когти (рубящий), кулак (дробящий), челюсти (колющий), безоружные атаки в форме оружия</p>\n<p><strong>Страж душ:</strong> Сил 18, Лвк 14, Тел 16, Инт 10, Мдр 12, Хар 8; +2 КБ (+3 макс.мод.Лвк)</p>\n<p><strong>Писарь мёртвых:</strong> Сил 12, Лвк 18, Тел 12, Инт 14, Мдр 12, Хар 10; +1 КБ (+4 макс.мод.Лвк)</p>\n<p><strong>Навыки:</strong> Запугивание, Религия</p>\n<p><strong>Чувства:</strong> ночное зрение</p>\n<p><strong>Язык:</strong> Реквианский</p>\n<p><strong>Скорость:</strong> 25 футов</p>\n<p><strong>Умения эйдолона:</strong> Начальное: @UUID[Compendium.pf2e-animal-companions.AC-Features.Item.gyI9aHjkO84BQ3tR]; Симбиоз: @UUID[Compendium.pf2e-animal-companions.AC-Features.Item.qFYR3I9XcjBZckUf]; Трансцендентность: @UUID[Compendium.pf2e-animal-companions.AC-Features.Item.rFuzSio2a1VOd2Ch]</p>"
		},
		"Undead Eidolon": {
			"name": "Нежить",
			"description": "<p>Ваш эйдолон — дух нежити, притянутый из Эфирного Плана или Плана Негативной Энергии, воплощенный и связанный с вашей жизненной силой необычным, потенциально противоположным образом, который не могут понять даже другие призыватели. Эйдолоны-нежить принимают все мыслимые формы и обличья, поскольку их тела проявляются благодаря их связи с вами. На их окончательную форму может повлиять слияние отголосков и воспоминаний их прежней жизни до того, как они стали нежитью, причина их смерти, их встречи в загробном мире, а также частицы вашей собственной сущности. Вы и ваш эйдолон вместе должны исследовать тайны жизни, смерти и нежизни, чтобы понять, что означает ваша связь для будущего обоих.</p>\n<p><strong>Обычай:</strong> сакральный</p>\n<p><strong>Признаки:</strong> @Trait[Undead]{нежить}, @Trait[Eidolon]{эйдолон}</p>\n<p><strong>Домашний план:</strong> <a href=https://clck.ru/pyJTT>Эфирный</a> или <a href=https://clck.ru/rg8M8>Негативный</a> план</p>\n<p><strong>Размер:</strong> Средний или Маленький</p>\n<p><strong>Предложенные атаки:</strong> коготь (рубящий), кулак (дробящий), челюсти (колющий)</p>\n<p><strong>Нежить-громила:</strong> Сил 18, Лвк 14, Тел 16, Инт 8, Мдр 10, Хар 12; +2 КБ (+3 мод.Лвк)</p>\n<p><strong>Нежить-сталкер:</strong> Сил 14, Лвк 18, Тел 16, Инт 8, Мдр 12, Хар 10; +1 КБ (+4 мод.Лвк)</p>\n<p><strong>Навыки:</strong> Запугивание, Религия</p>\n<p><strong>Чувства:</strong> ночное зрение</p>\n<p><strong>Язык:</strong> Некрил</p>\n<p><strong>Скорость:</strong> 25 футов</p>\n<p><strong>Умения:</strong> Начальное: @UUID[Compendium.pf2e-animal-companions.AC-Features.Item.CdQUkt9tPINNqSok]; Симбиоз: @UUID[Compendium.pf2e-animal-companions.AC-Features.Item.oxpHUtYre2CTaE4t]; Трансцендентность: @UUID[Compendium.pf2e-animal-companions.AC-Features.Item.ISKjzLSNysEr7Kit]</p>"
		},
		"Elemental Eidolon": {
			"name": "Элементаль(*)",
			"description": "<p>Ваш эйдолон — первородный сгусток стихийной материи, наделённый разумом, силой и индивидуальностью, но не способный проявить свою собственную форму без жизненной силы, которую вы даёте ему через вашу связь. Большинство элементалей в своей естественной среде уже имеют различные формы — от расплывчато-гуманоидных, до звероподобных или просто массы составляющей их стихии. Поскольку ваша жизненная сила наделяет эйдолона инстинктами, необходимыми для принятия физической формы, его внешний вид варьируется в зависимости от силы его собственного представления о себе и вашего предыдущего знакомства с элементалем.</p>\n<p>Эйдолоны-элементали обычно достигают своего необычного состояния — мощного, но бесформенного — в результате крупномасштабных событий или катаклизмов, таких как война за запечатывание благосклонных Повелителей Стихий или их недавнее распечатывание. Обладают ли стихийные эйдолоны какими-либо воспоминаниями о прошлой жизни или являются новым разумным, сформированным из остатков сущности могущественного слуги Повелителей Стихий, низвергнутого на землю, зависит от конкретного эйдолона. Вместе вы можете отправиться в путешествие, чтобы понять загадчное прошлое своего эйдолона или оставить прошлое позади и начать новую судьбу.</p>\n<p><strong>Обычай:</strong> природный</p>\n<p><strong>Признаки:</strong> @Trait[Eidolon]{эйдолон}, @Trait[Elemental]{элементаль}, и ещё один (см. <em>\"Стихийное ядро\"</em> ниже)</p>\n<p><strong>Домашний план:</strong> стихийный план, соответствующий <em>\"Стихийному ядру\"</em></p>\n<p><strong>Размер:</strong> Средний</p>\n<p><strong>Предложенные атаки:</strong> ветвь (дробящий), кулак (дробящий), шип (колющий), щупальце (дробящий), волна (дробящий)</p>\n<p><strong>Адаптируемый элементаль:</strong> Сил +1, Лвк +4, Тел +3, Инт +0, Мдр +1, Хар +0; +1 КБ (+4 макс.мод.Лвк)</p>\n<p><strong>Первородный элементаль:</strong> Сил +4, Лвк +2, Тел +3, Инт −1, Мдр +1, Хар +0; +2 КБ (+3 макс.мод.Лвк)</p>\n<p><strong>Навыки:</strong> Выживание, Природа</p>\n<p><strong>Чувства:</strong> ночное зрение</p>\n<p><strong>Язык:</strong> Суссуранский (элементаль воздуха), Петранский (элементаль земли), Пирикский (элементаль огня), Таликанский (элементаль металла), Талассикский (элементаль воды) или Муанский (элементаль дерева)</p>\n<p><strong>Скорость:</strong> 25 футов</p>\n<p><strong>Умения:</strong> Начальное: @UUID[Compendium.pf2e-animal-companions.AC-Features.Item.I8ZJ99qzuGDEDbII]; Симбиоз: @UUID[Compendium.pf2e-animal-companions.AC-Features.Item.9P5AFhhbU1I2sOEN]; Трансцендентность: @UUID[Compendium.pf2e-animal-companions.AC-Features.Item.rF67DRcO2oJKJt5t]</p>"
		}
	}
}