{
	"label": "Эффекты",
	"mapping": {
		"name": {
			"path": "name",
			"converter": "itemNameConverter"
		},
		"description": "system.description.value",
		"rules": {
			"path": "system.rules",
			"converter": "carefulMerge"
		}
	},
	"entries": {
		"Effect: Blood Feast": {
			"name": "Эффект: Кровавый пир",
			"description": "<p>Предоставляется @UUID[Compendium.pf2e-animal-companions.AC-Advanced-Maneuvers.Item.cVrW2GGLVpydj8h5]</p><p>Вы получаете временные ОЗ, равные половине своего уровня.</p>"
		},
		"Effect: Badger Rage": {
			"name": "Эффект: Барсучья ярость",
			"description": "<p>Предоставляется @UUID[Compendium.pf2e-animal-companions.AC-Advanced-Maneuvers.Item.HLD4JW6SUn5Oy8C9]</p><p>Вы наносите дополнительные 4 урона своей атакой укусом и дополнительные 2 укуса своей атакой когтем, и получаете штраф −1 к КБ</p>"
		},
		"Effect: Wyvern Support Benefit": {
			"name": "Эффект: Преимущество поддержки [Виверна]",
			"description": "<p>Предоставляется @UUID[Compendium.pf2e-animal-companions.AC-Support.Item.3ZYwTYI4ORCz4xQg]</p><p>Ваши \"Удары\", наносящие урон существу в пределах досягаемости вашей виверны, также наносят продолжительный урон ядом.</p>",
			"rules": {
				"0": {
					"prompt": "Ваш компаньон проворный или свирепый?"
				},
				"2": {
					"text": "Ваши \"Удары\", наносящие урон существу в пределах досягаемости вашей виверны, также наносят @Damage[({item|flags.pf2e.rulesSelections.wyvernSupportBenefit})d6[persistent,poison]]."
				}
			}
		},
		"Effect: Defensive Curl": {
			"name": "Эффект: Защитный клубок",
			"description": "<p>Предоставляется @UUID[Compendium.pf2e-animal-companions.AC-Advanced-Maneuvers.Item.pMPtswKNokDNyYR2]</p><p>Вы получаете бонус обстоятельства +2 к КБ. Любое существо, попадающее по вам безоружной атакой ближнего боя, пока вы в своём <em>\"Защитном клубке\"</em>, получает 2d6 продолжительного урона кровотечением.</p>",
			"rules": {
				"1": {
					"text": "Вы получаете @Damage[2d6[bleed]]."
				}
			}
		},
		"Effect: Defensive Curl (Hermit Krait)": {
			"name": "Эффект: Защитный клубок [Крайт-отшельник]",
			"description": "<p>Предоставляется @UUID[Compendium.pf2e-animal-companions.AC-Advanced-Maneuvers.Item.wQewsJLOsfucMXyB]</p><p>Вы получаете бонус обстоятельства +2 к КБ и бонус обстоятельства +4 к любой проверке, чтобы притвориться обычной раковиной. Любое существо, попадающее по вам безоружной атакой ближнего боя, получает 2d6 продолжительного урона ядом.</p>",
			"rules": {
				"1": {
					"label": "Имитировать раковину"
				},
				"2": {
					"text": "Вы получаете @Damage[2d6[persistent,poison]]."
				}
			}
		},
		"Effect: Retreat (Rider)": {
			"name": "Эффект: Отступление [Наездник]",
			"description": "<p>Предоставляется @UUID[Compendium.pf2e-animal-companions.AC-Advanced-Maneuvers.Item.SkVl3yomdYZoS7Hx], @UUID[Compendium.pf2e-animal-companions.AC-Advanced-Maneuvers.Item.R2RNXJH06UhSMmzp]</p><p>Вы получаете бонус обстоятельства +2 к КБ против реакций.</p>"
		},
		"Effect: Antelope Support Benefit": {
			"name": "Эффект: Преимущество поддержки [Антилопа]",
			"description": "<p>Предоставляется @UUID[Compendium.pf2e-animal-companions.AC-Support.Item.yIB4qKV5sqcXlOmB]</p><p>Ваши \"Удары\", наносящие урон существу в пределах досягаемости вашей антилопы, также наносят продолжительный урон кровотечением.</p>",
			"rules": {
				"0": {
					"prompt": "Ваш компаньон проворный или свирепый?"
				},
				"2": {
					"text": "Ваши \"Удары\", наносящие урон существу в пределах досягаемости вашей антилопы, также наносят @Damage[({item|flags.pf2e.rulesSelections.antelopeSupportBenefit})d6[persistent,bleed]]."
				}
			}
		},
		"Effect: Ape Support Benefit": {
			"name": "Эффект: Преимущество поддержки [Обезьяна]",
			"description": "<p>Предоставляется @UUID[Compendium.pf2e-animal-companions.AC-Support.Item.Qm0iwIYyy2gbnYXe]</p><p>Если вы попадаете и наносите урон существу в пределах досягаемости вашей обезьяны, это существо становится @UUID[Compendium.pf2e.conditionitems.Item.TBSHQspnbcqxsmjL]{Напугано 1}.</p>",
			"rules": {
				"1": {
					"text": "Если вы попадаете и наносите урон существу в пределах досягаемости вашей обезьяны, это существо становится @UUID[Compendium.pf2e.conditionitems.Item.TBSHQspnbcqxsmjL]{Напугано 1}."
				}
			}
		},
		"Effect: Bat Support Benefit": {
			"name": "Эффект: Преимущество поддержки [Летучая мышь]",
			"description": "<p>Предоставляется @UUID[Compendium.pf2e-animal-companions.AC-Support.Item.Aj7JWFXIbF3qmvSX]</p><p>Вы получаете штраф обстоятельства −1 к броскам атаки.</p>"
		},
		"Effect: Bear Support Benefit": {
			"name": "Эффект: Преимущество поддержки [Медведь]",
			"description": "<p>Предоставляется @UUID[Compendium.pf2e-animal-companions.AC-Support.Item.AvDlo1mgxXd7ZA8W]</p><p>Когда вы попадаете по цели, она также получает рубящий урон от медведя.</p>",
			"rules": {
				"0": {
					"prompt": "Ваш компаньон проворный или свирепый?"
				},
				"2": {
					"text": "Цель получает @Damage[({item|flags.pf2e.rulesSelections.bearSupportBenefit})d8[slashing]] от медведя."
				}
			}
		},
		"Effect: Beetle Support Benefit": {
			"name": "Эффект: Преимущество поддержки [Жук]",
			"description": "<p>Предоставляется @UUID[Compendium.pf2e-animal-companions.AC-Support.Item.mFTzDCqNL5EdwlGm]</p><p>Ваши \"Удары\", наносящие урон, делают цель либо @UUID[Compendium.pf2e.conditionitems.Item.AJh5ex99aV6VTggg]{Застигнутой врасплох} до конца вашего следующего хода, либо перемещают её на 5 футов от жука (это <a href=https://clck.ru/afcTn>принудительное передвижение</a>). Цель сама выбирает получаемый эффект.</p>",
			"rules": {
				"0": {
					"prompt": "Ваш компаньон проворный или свирепый?"
				},
				"2": {
					"text": "Ваши \"Удары\", наносящие урон, делают цель либо @UUID[Compendium.pf2e.conditionitems.Item.AJh5ex99aV6VTggg]{Застигнутой врасплох} до конца вашего следующего хода, либо перемещают её на 5 футов от жука (это <a href=https://clck.ru/afcTn>принудительное передвижение</a>). Цель сама выбирает получаемый эффект."
				}
			}
		},
		"Effect: Bird Support Benefit": {
			"name": "Эффект: Преимущество поддержки [Птица]",
			"description": "<p>Предоставляется @UUID[Compendium.pf2e-animal-companions.AC-Support.Item.7rhcqwMDt2xqnI1N]</p><p>Ваши \"Удары\", наносящие урон существу в пределах досягаемости вашей птицы, также наносят продолжительный урон кровотечением и делают цель @UUID[Compendium.pf2e.conditionitems.Item.TkIyaNPgTZFBCCuh]{Ослеплённой}, пока она не избавится от урона кровотечением.</p>",
			"rules": {
				"0": {
					"prompt": "Ваш компаньон проворный или свирепый?"
				},
				"2": {
					"text": "Ваши \"Удары\", наносящие урон существу в пределах досягаемости вашей птицы, также наносят @Damage[({item|flags.pf2e.rulesSelections.birdSupportBenefit})d4[bleed]] и делают цель @UUID[Compendium.pf2e.conditionitems.Item.TkIyaNPgTZFBCCuh]{Ослеплённой}, пока она не избавится от урона кровотечением."
				}
			}
		},
		"Effect: Boar Support Benefit": {
			"name": "Эффект: Преимущество поддержки [Кабан]",
			"description": "<p>Предоставляется @UUID[Compendium.pf2e-animal-companions.AC-Support.Item.8re1d4lM0Dn4sLto]</p><p>Ваши \"Удары\", наносящие урон существу в пределах досягаемости вашего кабана, также наносят дополнительный продолжительный урон кровотечением.</p>",
			"rules": {
				"0": {
					"prompt": "Ваш компаньон проворный или свирепый?"
				},
				"2": {
					"text": "Ваши \"Удары\", наносящие урон существу в пределах досягаемости вашего кабана, также наносят @Damage[({item|flags.pf2e.rulesSelections.boarSupportBenefit})d6[persistent,bleed]]."
				}
			}
		},
		"Effect: Capybara Support Benefit": {
			"name": "Эффект: Преимущество поддержки [Капибара]",
			"description": "<p>Предоставляется @UUID[Compendium.pf2e-animal-companions.AC-Support.Item.Fl1VEpYhmScEEon8]</p><p>Вы получаете бонус обстоятельства +1 к следующему броску атаки для \"Удара\" по врагу в пределах досягаемости вашей капибары.</p>"
		},
		"Effect: Cat Support Benefit": {
			"name": "Эффект: Преимущество поддержки [Кошка]",
			"description": "<p>Предоставляется @UUID[Compendium.pf2e-animal-companions.AC-Support.Item.HCQXxqMtH81jE1W5]</p><p>Ваши \"Удары\", наносящие урон существу в пределах досягаемости вашей кошки, делают цель @UUID[Compendium.pf2e.conditionitems.Item.AJh5ex99aV6VTggg]{Застигнутой врасплох}.</p>",
			"rules": {
				"1": {
					"text": "Ваши \"Удары\", наносящие урон существу в пределах досягаемости вашей кошки, делают цель @UUID[Compendium.pf2e.conditionitems.Item.AJh5ex99aV6VTggg]{Застигнутой врасплох}."
				}
			}
		},
		"Effect: Cave Gecko Support Benefit": {
			"name": "Эффект: Преимущество поддержки [Пещерный геккон]",
			"description": "<p>Предоставляется @UUID[Compendium.pf2e-animal-companions.AC-Support.Item.nDUwRm0TOtc2EX0O]</p><p>Если вы пытаетесь @UUID[Compendium.pf2e.actionspf2e.Item.ge56Lu1xXVFYUnLP]{Опрокинуть}, @UUID[Compendium.pf2e.actionspf2e.Item.Dt6B1slsBy8ipJu9]{Разоружить} или @UUID[Compendium.pf2e.actionspf2e.Item.7blmbDrQFNfdT731]{Толкнуть} противника и получаете критический провал, вместо этого вы получаете провал.</p>"
		},
		"Effect: Crocodile Support Benefit": {
			"name": "Эффект: Преимущество поддержки [Крокодил]",
			"description": "<p>Предоставляется @UUID[Compendium.pf2e-animal-companions.AC-Support.Item.yfjeiYMC27YGgoGW]</p><p>Вы получаете штраф обстоятельства −10 футов к своим Скоростям.</p>"
		},
		"Effect: Draft Lizard Support Benefit": {
			"name": "Эффект: Преимущество поддержки [Тяговая ящерица]",
			"description": "<p>Предоставляется @UUID[Compendium.pf2e-animal-companions.AC-Support.Item.g3Wol5lNhQdxqs7t]</p><p>Вы получаете бонус обстоятельства +1 к следующему броску атаки для \"Удара\" по врагу в пределах досягаемости вашей тяговой ящерицы.</p>"
		},
		"Effect: Elephant Support Benefit": {
			"name": "Эффект: Преимущество поддержки [Слон]",
			"description": "<p>Предоставляется @UUID[Compendium.pf2e-animal-companions.AC-Support.Item.r7QN2lUVWXlcynMW]</p><p>Цели в пределах досягаемости вашего слона, по которым вы попали и нанесли урон, получают штраф состояния −4 к @Trait[Auditory]{слуховым} проверкам Восприятия.</p>",
			"rules": {
				"1": {
					"text": "Цели в пределах досягаемости вашего слона, по которым вы попали и нанесли урон, получают штраф состояния −4 к @Trait[Auditory]{слуховым} проверкам Восприятия. @UUID[Compendium.pf2e-animal-companions.AC-effects.Item.3EGbKKD73gGbSWIa]"
				}
			}
		},
		"Effect: Elephant Support Benefit (Penalty)": {
			"name": "Эффект: Преимущество поддержки [Слон, Штраф]",
			"description": "<p>Предоставляется @UUID[Compendium.pf2e-animal-companions.AC-Support.Item.r7QN2lUVWXlcynMW]</p><p>Вы получаете штраф состояния −4 к исключительно @Trait[Auditory]{слуховым} проверкам Восприятия.</p>"
		},
		"Effect: Elk Support Benefit": {
			"name": "Эффект: Преимущество поддержки [Лось]",
			"description": "<p>Предоставляется @UUID[Compendium.pf2e-animal-companions.AC-Support.Item.60lThr6OM9zZtqK2]</p><p>Если вы попадаете и наносите урон существу в пределах досягаемости вашего лося, это существо становится @UUID[Compendium.pf2e.conditionitems.Item.TBSHQspnbcqxsmjL]{Напугано 1}.</p>",
			"rules": {
				"1": {
					"text": "Если вы попадаете и наносите урон существу в пределах досягаемости вашего лося, это существо становится @UUID[Compendium.pf2e.conditionitems.Item.TBSHQspnbcqxsmjL]{Напугано 1}."
				}
			}
		},
		"Effect: Fire Elemental Support Benefit": {
			"name": "Эффект: Преимущество поддержки [Элементаль огня]",
			"description": "<p>Предоставляется @UUID[Compendium.pf2e-animal-companions.AC-Support.Item.NSdcXgEHVHdfJlkb]</p><p>Ваши \"Удары\", наносящие урон существу в досягаемости вашего элементаля огня, также наносят 1d6 продолжительного урона огнём. Если ваш элементаль огня проворный или свирепый, продолжительный урон огнём увеличивается до 2d6.</p>",
			"rules": {
				"0": {
					"prompt": "Ваш компаньон проворный или свирепый?"
				},
				"2": {
					"text": "Ваши \"Удары\", наносящие урон существу в досягаемости вашего элементаля огня, также наносят @Damage[({item|flags.pf2e.rulesSelections.fireElementalSupportBenefit})d6[persistent,fire]]."
				}
			}
		},
		"Effect: Flying Squirrel Support Benefit": {
			"name": "Эффект: Преимущество поддержки [Белка-летяга]",
			"description": "<p>Предоставляется @UUID[Compendium.pf2e-animal-companions.AC-Support.Item.V2kspaYOoLbHV5vb]</p><p>Если ваш \"Удар\" наносит урон существу, находящемуся в пределах досягаемости вашей гигантской белки-летяги, это существо получает штраф обстоятельства −10 футов к своим Скоростям.</p>",
			"rules": {
				"1": {
					"text": "Если ваш \"Удар\" наносит урон существу, находящемуся в пределах досягаемости вашей гигантской белки-летяги, это существо получает штраф обстоятельства −10 футов к своим Скоростям. @UUID[Compendium.pf2e-animal-companions.AC-effects.Item.lACoOtINmUb1fTMY] "
				}
			}
		},
		"Effect: Flying Squirrel Support Benefit (Penalty)": {
			"name": "Эффект: Преимущество поддержки [Белка-летяга, Штраф]",
			"description": "<p>Предоставляется @UUID[Compendium.pf2e-animal-companions.AC-Support.Item.V2kspaYOoLbHV5vb]</p><p>Вы получаете штраф обстоятельства −10 футов к своим Скоростям.</p>"
		},
		"Effect: Ghost Support Benefit": {
			"name": "Эффект: Преимущество поддержки [Привидение]",
			"description": "<p>Предоставляется @UUID[Compendium.pf2e-animal-companions.AC-Support.Item.4kkcfQdHAb4YTVNw]</p><p>Если вы попадаете и наносите урон существу в пределах досягаемости вашего привидения, это существо становится @UUID[Compendium.pf2e.conditionitems.Item.TBSHQspnbcqxsmjL]{Напугано 1}.</p>",
			"rules": {
				"1": {
					"text": "Если вы попадаете и наносите урон существу в пределах досягаемости вашего привидения, это существо становится @UUID[Compendium.pf2e.conditionitems.Item.TBSHQspnbcqxsmjL]{Напугано 1}."
				}
			}
		},
		"Effect: Giant Wasp Support Benefit": {
			"name": "Эффект: Преимущество поддержки [Гигантская оса]",
			"description": "<p>Предоставляется @UUID[Compendium.pf2e-animal-companions.AC-Support.Item.V3XczB8r8fQfJIhe]</p><p>Если вы попадаете и наносите урон существу в пределах досягаемости вашей гигантской осы, это существо становится @UUID[Compendium.pf2e.conditionitems.Item.TBSHQspnbcqxsmjL]{Напугано 1}.</p>",
			"rules": {
				"1": {
					"text": "Если вы попадаете и наносите урон существу в пределах досягаемости вашего лося, это существо становится @UUID[Compendium.pf2e.conditionitems.Item.TBSHQspnbcqxsmjL]{Напугано 1}."
				}
			}
		},
		"Effect: Giraffe Support Benefit": {
			"name": "Эффект: Преимущество поддержки [Жираф]",
			"description": "<p>Предоставляется @UUID[Compendium.pf2e-animal-companions.AC-Support.Item.LcAJTLzLDcIrQ7KQ]</p><p>Любая цель, которую вы успешно \"Толкаете\", сдвигается на 10 футов (15 футов при критическом успехе).",
			"rules": {
				"1": {
					"text": "Ваша цель сдвигается на 10 футов."
				},
				"2": {
					"text": "Ваша цель сдвигается на 15 футов."
				}
			}
		},
		"Effect: Griffon Support Benefit": {
			"name": "Эффект: Преимущество поддержки [Грифон]",
			"description": "<p>Предоставляется @UUID[Compendium.pf2e-animal-companions.AC-Support.Item.ShKTegi69Hizn0vB]</p><p>Вы получаете бонус обстоятельства к спасброскам против эффектов @Trait[Emotion]{эмоций}.</p>"
		},
		"Effect: Hermit Krait Support Benefit": {
			"name": "Эффект: Преимущество поддержки [Крайт-отшельник]",
			"description": "<p>Предоставляется @UUID[Compendium.pf2e-animal-companions.AC-Support.Item.u9jaNQk6QF2Tm8oe]</p><p>Ваши \"Удары\", наносящие урон существу в пределах досягаемости вашего крайта-отшельника, также наносят 1d6 продолжительного урона ядом. Если ваш крайт-отшельник проворный или свирепый, продолжительный урон ядом увеличивается до 2d6.</p>",
			"rules": {
				"0": {
					"prompt": "Ваш компаньон проворный или свирепый?"
				},
				"2": {
					"text": "Ваши \"Удары\", наносящие урон существу в пределах досягаемости вашего крайта-отшельника, также наносят @Damage[({item|flags.pf2e.rulesSelections.hermitKraitSupportBenefit})d6[persistent,poison]]."
				}
			}
		},
		"Effect: Hippocampus Support Benefit": {
			"name": "Эффект: Преимущество поддержки [Морской конь]",
			"description": "<p>Предоставляется @UUID[Compendium.pf2e-animal-companions.AC-Support.Item.t1KMf7rDzJJ2vWhe]</p><p>Если вы верхом на морском коне и переместились на 10 футов или более во время действия перед \"Ударом\" ближнего боя, вы добавляете бонус обстоятельства к урону \"Удара\", равный удвоенному количеству костей урона оружия. Если ваше оружие уже имеет признак @Trait[Jousting]{кавалерийское}, увеличьте бонус урона этого признака на 2 за каждую кость.</p>"
		},
		"Effect: Hippogriff Support Benefit": {
			"name": "Эффект: Преимущество поддержки [Гиппогриф]",
			"description": "<p>Предоставляется @UUID[Compendium.pf2e-animal-companions.AC-Support.Item.cJBAKsVacLTIiPcz]</p><p>Если вы верхом на гиппогрифе и переместились на 10 футов или более во время действия перед \"Ударом\" ближнего боя, вы добавляете бонус обстоятельства к урону \"Удара\", равный удвоенному количеству костей урона оружия. Если ваше оружие уже имеет признак @Trait[Jousting]{кавалерийское}, увеличьте бонус урона этого признака на 2 за каждую кость.</p>"
		},
		"Effect: Horse Support Benefit": {
			"name": "Эффект: Преимущество поддержки [Лошадь]",
			"description": "<p>Предоставляется @UUID[Compendium.pf2e-animal-companions.AC-Support.Item.wf20kx6pPGBWwUn2]</p><p>Если вы верхом на лошади и переместились на 10 футов или более во время действия перед \"Ударом\" ближнего боя, вы добавляете бонус обстоятельства к урону \"Удара\", равный удвоенному количеству костей урона оружия. Если ваше оружие уже имеет признак @Trait[Jousting]{кавалерийское}, увеличьте бонус урона этого признака на 2 за каждую кость.</p>"
		},
		"Effect: Hyena Support Benefit": {
			"name": "Эффект: Преимущество поддержки [Гиена]",
			"description": "<p>Предоставляется @UUID[Compendium.pf2e-animal-companions.AC-Support.Item.wlh1poSMLK9wk2Nw]</p><p>Когда вы попадаете \"Ударом\" по существу в пределах досягаемости гиены, оно становится @UUID[Compendium.pf2e.conditionitems.Item.TBSHQspnbcqxsmjL]{Напуганным 1}.</p>",
			"rules": {
				"1": {
					"text": "Когда вы попадаете \"Ударом\" по существу в пределах досягаемости гиены, оно становится @UUID[Compendium.pf2e.conditionitems.Item.TBSHQspnbcqxsmjL]{Напуганным 1}."
				}
			}
		},
		"Effect: Metal Elemental Support Benefit": {
			"name": "Эффект: Преимущество поддержки [Элементаль металла]",
			"description": "<p>Предоставляется @UUID[Compendium.pf2e-animal-companions.AC-Support.Item.SZD1hU2ageIDw4To]</p><p>Ваши \"Удары\", наносящие урон существу в пределах досягаемости вашего элементаля металла, также наносят продолжительный урон кровотечением.</p>",
			"rules": {
				"0": {
					"prompt": "Ваш компаньон проворный или свирепый?"
				},
				"2": {
					"text": "Ваши \"Удары\", наносящие урон существу в пределах досягаемости вашего элементаля металла, также наносят @Damage[({item|flags.pf2e.rulesSelections.metalElementalSupportBenefit})d6[bleed]]."
				}
			}
		},
		"Effect: Mole Support Benefit": {
			"name": "Эффект: Преимущество поддержки [Крот]",
			"description": "<p>Предоставляется @UUID[Compendium.pf2e-animal-companions.AC-Support.Item.vvuB2kEzRYSs4IpH]</p><p>Если вы попадаете и наносите урон существу, находящемуся рядом с вашим кротом, это существо становится @UUID[Compendium.pf2e.conditionitems.Item.i3OJZU2nk64Df3xm]{Неуклюжим 1} пока не сдвинется с текущей позиции.</p>",
			"rules": {
				"1": {
					"text": "Если вы попадаете и наносите урон существу, находящемуся рядом с вашим кротом, это существо становится @UUID[Compendium.pf2e.conditionitems.Item.i3OJZU2nk64Df3xm]{Неуклюжим 1} пока не сдвинется с текущей позиции."
				}
			}
		},
		"Effect: Mongoose Support Benefit": {
			"name": "Эффект: Преимущество поддержки [Мангуст]",
			"description": "<p>Предоставляется @UUID[Compendium.pf2e-animal-companions.AC-Support.Item.vvuB2kEzRYSs4IpH]</p><p>Существа, находящиеся рядом с мангустом, не могут фланкировать вас.</p>"
		},
		"Effect: Monitor Lizard Support Benefit": {
			"name": "Эффект: Преимущество поддержки [Варан]",
			"description": "<p>Предоставляется @UUID[Compendium.pf2e-animal-companions.AC-Support.Item.2Jaz98WiQMNnqKCD]</p><p>Если ваш \"Удар\" наносит урон этому врагу, то всякий раз до конца вашего следующего хода, когда этот враг пытается совершить действие с признаком @Trait[Manipulate]{воздействие}, он должен совершить @Check[flat|dc:5|showDC:all]{Чистую проверку}. При провале действие прерывается.</p>",
			"rules": {
				"1": {
					"text": "Если ваш \"Удар\" наносит урон этому врагу, то всякий раз до конца вашего следующего хода, когда этот враг пытается совершить действие с признаком @Trait[Manipulate]{воздействие}, он должен совершить @Check[flat|dc:5|showDC:all]{Чистую проверку}. @UUID[Compendium.pf2e-animal-companions.AC-effects.Item.eXABjTK48R1xCvOZ]"
				}
			}
		},
		"Effect: Monitor Lizard Support Benefit (Penalty)": {
			"name": "Эффект: Преимущество поддержки [Варан, Штраф]",
			"description": "<p>Предоставляется @UUID[Compendium.pf2e-animal-companions.AC-Support.Item.2Jaz98WiQMNnqKCD]</p><p>Если вы пытаетесь совершить действие с признаком @Trait[Manipulate]{воздействие}, вы должны сделать @Check[flat|dc:5|showDC:all]{Чистую проверку}. При провале действие прерывается.</p>",
			"rules": {
				"0": {
					"value": {
						"0": {
							"text": "Совершите @Check[flat|dc:5|showDC:all]{Чистую проверку}. При провале действие прерывается."
						}
					}
				},
				"1": {
					"value": {
						"0": {
							"text": "Совершите @Check[flat|dc:5|showDC:all]{Чистую проверку}. При провале действие прерывается."
						}
					}
				},
				"2": {
					"value": {
						"0": {
							"text": "Совершите @Check[flat|dc:5|showDC:all]{Чистую проверку}. При провале действие прерывается."
						}
					}
				}
			}
		},
		"Effect: Moth Support Benefit": {
			"name": "Эффект: Преимущество поддержки [Мотылёк]",
			"description": "<p>Предоставляется @UUID[Compendium.pf2e-animal-companions.AC-Support.Item.9Y5QKMvy0KsliE29]</p><p>Если вы наносите \"Ударом\" урон @UUID[Compendium.pf2e.conditionitems.Item.DmAIPqOBomZ7H95W]{Скрытому} или @UUID[Compendium.pf2e.conditionitems.Item.iU0fEDdBp3rXpTMC]{Спрятанному} существу в пределах досягаемости вашего мотылька, то чтобы целиться в это существо требуется лишь @Check[flat|dc:3|showDC:all] если существо @Condition[Concealed]{скрыто}, либо @Check[flat|dc:9|showDC:all] если оно @Condition[Hidden]{спрятано}.</p>",
			"rules": {
				"1": {
					"text": "Если вы наносите \"Ударом\" урон @UUID[Compendium.pf2e.conditionitems.Item.DmAIPqOBomZ7H95W]{Скрытому} или @UUID[Compendium.pf2e.conditionitems.Item.iU0fEDdBp3rXpTMC]{Спрятанному} существу в пределах досягаемости вашего мотылька, то чтобы целиться в это существо требуется лишь @Check[flat|dc:3|showDC:all] если существо @Condition[Concealed]{скрыто}, либо @Check[flat|dc:9|showDC:all] если оно @Condition[Hidden]{спрятано}. @UUID[Compendium.pf2e-animal-companions.AC-effects.Item.Db0Vtobv3v4Iybj5]\n\n"
				}
			}
		},
		"Effect: Moth Support Benefit (Penalty)": {
			"name": "Эффект: Преимущество поддержки [Мотылёк, Штраф]",
			"description": "<p>Предоставляется @UUID[Compendium.pf2e-animal-companions.AC-Support.Item.9Y5QKMvy0KsliE29]</p><p>Если вы наносите \"Ударом\" урон @UUID[Compendium.pf2e.conditionitems.Item.DmAIPqOBomZ7H95W]{Скрытому} или @UUID[Compendium.pf2e.conditionitems.Item.iU0fEDdBp3rXpTMC]{Спрятанному} существу в пределах досягаемости вашего мотылька, то чтобы целиться в это существо требуется лишь @Check[flat|dc:3|showDC:all] если существо @Condition[Concealed]{скрыто}, либо @Check[flat|dc:9|showDC:all] если оно @Condition[Hidden]{спрятано}.</p>",
			"rules": {
				"0": {
					"text": "Если вы наносите урон @UUID[Compendium.pf2e.conditionitems.Item.DmAIPqOBomZ7H95W]{Скрытому} или существу в пределах досягаемости вашего мотылька, то чтобы целиться в это существо требуется лишь @Check[flat|dc:3|showDC:all]."
				},
				"1": {
					"text": "Если вы наносите урон @UUID[Compendium.pf2e.conditionitems.Item.iU0fEDdBp3rXpTMC]{Спрятанному} существу в пределах досягаемости вашего мотылька, то чтобы целиться в это существо требуется лишь @Check[flat|dc:9|showDC:all]."
				}
			}
		},
		"Effect: Pangolin Support Benefit": {
			"name": "Эффект: Преимущество поддержки [Панголин]",
			"description": "<p>Предоставляется @UUID[Compendium.pf2e-animal-companions.AC-Support.Item.QiQvx7jtfrkGnf13]</p><p>Ваши \"Удары\", наносящие урон существу в досягаемости вашего панголина, также наносят 1d6 продолжительно урона кровотечением. Если ваш панголин проворный или свирепый, продолжительный урон кровотечением увеличивается до 2d6.</p>",
			"rules": {
				"0": {
					"prompt": "Ваш компаньон проворный или свирепый?"
				},
				"2": {
					"text": "Ваши \"Удары\", наносящие урон существу в досягаемости вашего панголина, также наносят @Damage[({item|flags.pf2e.rulesSelections.pangolinSupportBenefit})d6[persistent,bleed]]."
				}
			}
		},
		"Effect: Rhinoceros Support Benefit": {
			"name": "Эффект: Преимущество поддержки [Носорог]",
			"description": "<p>Предоставляется @UUID[Compendium.pf2e-animal-companions.AC-Support.Item.kecawjDhBFz5QA4f]</p><p>Первое существо в пределах досягаемости носорога, по которому вы попадаете и наносите урон до начала вашего следующего хода, становится @UUID[Compendium.pf2e.conditionitems.Item.i3OJZU2nk64Df3xm]{Неуклюжим 1}.</p>",
			"rules": {
				"1": {
					"text": "Первое существо в пределах досягаемости носорога, по которому вы попадаете и наносите урон до начала вашего следующего хода, становится @UUID[Compendium.pf2e.conditionitems.Item.i3OJZU2nk64Df3xm]{Неуклюжим 1}."
				}
			}
		},
		"Effect: Riding Drake Support Benefit": {
			"name": "Эффект: Преимущество поддержки [Ездовой дрейк]",
			"description": "<p>Предоставляется @UUID[Compendium.pf2e-animal-companions.AC-Support.Item.C41lCXjerYjMyOTI]</p><p>Каждый раз, когда вы верхом на дрейке попадаете \"Ударом\" по существу в пределах досягаемости дрейка, это существо получает урон огнём от дрейка.</p>",
			"rules": {
				"0": {
					"prompt": "Ваш компаньон проворный или свирепый?"
				},
				"1": {
					"label": "Верхом на дрейке"
				},
				"2": {
					"text": "Каждый раз, когда вы верхом на дрейке попадаете \"Ударом\" по существу в пределах досягаемости дрейка, это существо получает @Damage[({item|flags.pf2e.rulesSelections.ridingDrakeSupportBenefit})d4[fire]] от дрейка."
				}
			}
		},
		"Effect: Riding Tarantula Support Benefit": {
			"name": "Эффект: Преимущество поддержки [Ездовой Тарантул]",
			"description": "<p>Предоставляется @UUID[Compendium.pf2e-animal-companions.AC-Support.Item.NKgFIZQYkL3bb6xn]</p><p>Если вы попадаете и наносите урон существу в пределах досягаемости ездового тарантула, цель должна преуспеть в @Check[type:flat|dc:5]{Чистой проверке} каждый раз, когда совершает действие с признаком @Trait[Concentrate]{концентрация}, или это действие будет потеряно.</p>",
			"rules": {
				"1": {
					"text": "Если вы попадаете и наносите урон существу в пределах досягаемости ездового тарантула, цель должна преуспеть в @Check[type:flat|dc:5]{Чистой проверке} каждый раз, когда совершает действие с признаком @Trait[Concentrate]{концентрация}, или это действие будет потеряно. @UUID[Compendium.pf2e-animal-companions.AC-effects.Item.crYJGMzeiXh8xve3]"
				}
			}
		},
		"Effect: Riding Tarantula Support Benefit (Penalty)": {
			"name": "Эффект: Преимущество поддержки [Ездовой тарантул, Штраф]",
			"description": "<p>Предоставляется @UUID[Compendium.pf2e-animal-companions.AC-Support.Item.NKgFIZQYkL3bb6xn]</p><p>Цель должна преуспеть в @Check[type:flat|dc:5]{Чистой проверке} каждый раз, когда совершает действие с признаком @Trait[Concentrate]{концентрация}, или это действие будет потеряно.</p>",
			"rules": {
				"0": {
					"value": {
						"0": {
							"text": "Совершите @Check[flat|dc:5|showDC:all]{Чистую проверку}. При провале действие прерывается."
						}
					}
				},
				"1": {
					"value": {
						"0": {
							"text": "Совершите @Check[flat|dc:5|showDC:all]{Чистую проверку}. При провале действие прерывается."
						}
					}
				},
				"2": {
					"value": {
						"0": {
							"text": "Совершите @Check[flat|dc:5|showDC:all]{Чистую проверку}. При провале действие прерывается."
						}
					}
				}
			}
		},
		"Effect: Roc Support Benefit": {
			"name": "Эффект: Преимущество поддержки [Рух]",
			"description": "<p>Предоставляется @UUID[Compendium.pf2e-animal-companions.AC-Support.Item.R0e3jHpB7nTzIUPm]</p><p>Ваши \"Удары\", наносящие урон существу в пределах досягаемости вашего руха, отбрасывают цель на 5 футов от вашего руха.</p>",
			"rules": {
				"1": {
					"text": "Ваши \"Удары\", наносящие урон существу в пределах досягаемости вашего руха, отбрасывают цель на 5 футов от вашего руха."
				}
			}
		},
		"Effect: Scorpion Support Benefit": {
			"name": "Эффект: Преимущество поддержки [Скорпион]",
			"description": "<p>Предоставляется @UUID[Compendium.pf2e-animal-companions.AC-Support.Item.xtXdDC5KrUqh7eCu]</p><p>Ваши \"Удары\", наносящие урон существу в пределах досягаемости вашего скорпиона, также наносят продолжительный урон ядом.</p>",
			"rules": {
				"0": {
					"prompt": "Ваш компаньон проворный или свирепый?"
				},
				"2": {
					"text": "Ваши \"Удары\", наносящие урон существу в пределах досягаемости вашего скорпиона, также наносят @Damage[({item|flags.pf2e.rulesSelections.scorpionSupportBenefit})d6[persistent,poison]]."
				}
			}
		},
		"Effect: Shadow Hound Support Benefit": {
			"name": "Эффект: Преимущество поддержки [Теневая гончая]",
			"description": "<p>Предоставляется @UUID[Compendium.pf2e-animal-companions.AC-Support.Item.h65iGxPkfrT8DdPv]</p><p>Когда ваш \"Удар\" наносит урон существу в пределах досягаемости вашей теневой гончей, то и вы, и гончая становитесь @UUID[Compendium.pf2e.conditionitems.Item.DmAIPqOBomZ7H95W]{Скрыты} для этого существа.</p>",
			"rules": {
				"1": {
					"text": "Когда ваш \"Удар\" наносит урон существу в пределах досягаемости вашей теневой гончей, то и вы, и гончая становитесь @UUID[Compendium.pf2e.conditionitems.Item.DmAIPqOBomZ7H95W]{Скрыты} для этого существа.\n\n"
				}
			}
		},
		"Effect: Shark Support Benefit": {
			"name": "Эффект: Преимущество поддержки [Акула]",
			"description": "<p>Предоставляется @UUID[Compendium.pf2e-animal-companions.AC-Support.Item.YsLLV4J7L6fgzTXf]</p><p>Каждый раз, когда вы попадаете \"Ударом\" по существу в пределах досягаемости акулы и наносите рубящий или колющий урон, оно получает 1d8 рубящего урона от акулы.</p>",
			"rules": {
				"0": {
					"prompt": "Ваш компаньон проворный или свирепый?"
				},
				"2": {
					"text": "Каждый раз, когда вы попадаете \"Ударом\" по существу в пределах досягаемости акулы и наносите рубящий или колющий урон, оно получает @Damage[({item|flags.pf2e.rulesSelections.sharkSupportBenefit})d8[slashing]] от акулы."
				}
			}
		},
		"Effect: Shotalashu Support Benefit": {
			"name": "Эффект: Преимущество поддержки [Шоталашу]",
			"description": "<p>Предоставляется @UUID[Compendium.pf2e-animal-companions.AC-Support.Item.ufAZJqCN7ZOBhMSJ]</p><p>Каждый раз, когда вы попадаете \"Ударом\" по существу, находящемуся в пределах досягаемости шоталашу, это существо получает ментальный урон от шоталашу.</p>",
			"rules": {
				"0": {
					"prompt": "Ваш компаньон проворный или свирепый?"
				},
				"2": {
					"text": "Каждый раз, когда вы попадаете \"Ударом\" по существу, находящемуся в пределах досягаемости шоталашу, это существо получает @Damage[({item|flags.pf2e.rulesSelections.shotalashuSupportBenefit})d6[mental]] от шоталашу."
				}
			}
		},
		"Effect: Skeletal Constrictor Support Benefit": {
			"name": "Эффект: Преимущество поддержки [Скелет удава]",
			"description": "<p>Предоставляется @UUID[Compendium.pf2e-animal-companions.AC-Support.Item.Si13B4VFANZN8mi1]</p><p>Ваши \"Удары\", наносящие урон выбранному существу, делают цель @UUID[Compendium.pf2e.conditionitems.Item.AJh5ex99aV6VTggg]{Застигнутой врасплох}.</p>",
			"rules": {
				"1": {
					"text": "Ваши \"Удары\", наносящие урон выбранному существу, делают цель @UUID[Compendium.pf2e.conditionitems.Item.AJh5ex99aV6VTggg]{Застигнутой врасплох}."
				}
			}
		},
		"Effect: Skeletal Mount Support Benefit": {
			"name": "Эффект: Преимущество поддержки [Скелет скакуна]",
			"description": "<p>Предоставляется @UUID[Compendium.pf2e-animal-companions.AC-Support.Item.CKMQC3zu1XoGjeNd]</p><p>Если вы находитесь верхом на вашем скелетном скакуне и действием перед своей атакой передвинулись хотя бы на 10 футов, то любое существо, получившее урон от этой атаки, становится @UUID[Compendium.pf2e.conditionitems.Item.TBSHQspnbcqxsmjL]{Напугано 1}, или @UUID[Compendium.pf2e.conditionitems.Item.TBSHQspnbcqxsmjL]{Напугано 2} при критическом попадании.</p>",
			"rules": {
				"1": {
					"text": "Любое существо, получившее урон от этой атаки, становится @UUID[Compendium.pf2e.conditionitems.Item.TBSHQspnbcqxsmjL]{Напугано 1}."
				},
				"2": {
					"text": "Любое существо, получившее урон от этой атаки, становится @UUID[Compendium.pf2e.conditionitems.Item.TBSHQspnbcqxsmjL]{Напугано 2}."
				}
			}
		},
		"Effect: Skeletal Servant Support Benefit": {
			"name": "Эффект: Преимущество поддержки [Скелетный слуга]",
			"description": "<p>Предоставляется @UUID[Compendium.pf2e-animal-companions.AC-Support.Item.bHaJZSm7SakAsk00]</p><p>Когда ваш \"Удар\" попадает по существу в пределах досягаемости вашего скелетного слуги и наносит урон, это существо становится @UUID[Compendium.pf2e.conditionitems.Item.AJh5ex99aV6VTggg]{Застигнутым врасплох}.</p>",
			"rules": {
				"1": {
					"text": "Когда ваш \"Удар\" попадает по существу в пределах досягаемости вашего скелетного слуги и наносит урон, это существо становится @UUID[Compendium.pf2e.conditionitems.Item.AJh5ex99aV6VTggg]{Застигнутым врасплох}."
				}
			}
		},
		"Effect: Spiked Bunker": {
			"name": "Эффект: Бункер с шипами",
			"description": "<p>Предоставляется @UUID[Compendium.pf2e-animal-companions.AC-Advanced-Maneuvers.Item.oyNZpuQ6EU3prvo2]</p><p>Вы получаете бонус обстоятельства +2 к КБ. Любое существо, попавшее по вам безоружной атакой, пока вы находитесь в <em>\"Бункере с шипами\"</em>, получает @Damage[2d6[piercing]] (или @Damage[3d6[piercing]] если у элементаля металла есть специализация).",
			"rules": {
				"0": {
					"prompt": "Компаньон специализированный?"
				},
				"2": {
					"text": "Вы получаете @Damage[({item|flags.pf2e.rulesSelections.isSpecialized})d6[piercing]]."
				}
			}
		},
		"Effect: Sundaflora Support Benefit": {
			"name": "Эффект: Преимущество поддержки [Сандафлора]",
			"description": "<p>Предоставляется @UUID[Compendium.pf2e-animal-companions.AC-Support.Item.xpEAKxiQUlUXkqV4]</p><p>Вы получаете бонус обстоятельства +1 к следующему броску атаки для \"Удара\" по врагу в пределах досягаемости вашей сандафлоры.</p>"
		},
		"Effect: Terror Bird Support Benefit": {
			"name": "Эффект: Преимущество поддержки [Ужасная птица]",
			"description": "<p>Предоставляется @UUID[Compendium.pf2e-animal-companions.AC-Support.Item.oLwBrrW33fIjSHLr]</p><p>Ваши \"Удары\", наносящие урон существу в пределах досягаемости вашей ужасной птицы, делают цель @UUID[Compendium.pf2e.conditionitems.Item.AJh5ex99aV6VTggg]{Застигнутой врасплох}.</p>",
			"rules": {
				"1": {
					"text": "Ваши \"Удары\", наносящие урон выбранному существу, делают цель @UUID[Compendium.pf2e.conditionitems.Item.AJh5ex99aV6VTggg]{Застигнутой врасплох}."
				}
			}
		},
		"Effect: Tikar Urchinpad Support Benefit": {
			"name": "Эффект: Преимущество поддержки [Тикарский ёжелист]",
			"description": "<p>Предоставляется @UUID[Compendium.pf2e-animal-companions.AC-Support.Item.TFrCa4aCUKtwhuqn]</p><p>Пока находитесь рядом с вашим ёжелистом, если вы пытаетесь @UUID[Compendium.pf2e.actionspf2e.Item.ge56Lu1xXVFYUnLP]{Опрокинуть} или @UUID[Compendium.pf2e.actionspf2e.Item.7blmbDrQFNfdT731]{Толкнуть} противника и получаете критический провал, он считается провалом.</p>"
		},
		"Effect: Triceratops Support Benefit": {
			"name": "Эффект: Преимущество поддержки [Трицератопс]",
			"description": "<p>Предоставляется @UUID[Compendium.pf2e-animal-companions.AC-Support.Item.TDMhLC16cQOYBbmA]</p><p>Ваши \"Удары\", наносящие урон лежащему @Condition[Prone]{ничком} существу в пределах досягаемости вашего трицератопса, также наносят продолжительный урон кровотечением.</p>",
			"rules": {
				"0": {
					"prompt": "Ваш компаньон проворный или свирепый?"
				},
				"2": {
					"text": "Ваши \"Удары\", наносящие урон лежащему @Condition[Prone]{ничком} существу в пределах досягаемости вашего трицератопса, также наносят @Damage[({item|flags.pf2e.rulesSelections.triceratopsSupportBenefit})d8[persistent,bleed]]."
				}
			}
		},
		"Effect: Tyrannosaurus Support Benefit": {
			"name": "Эффект: Преимущество поддержки [Тираннозавр]",
			"description": "<p>Предоставляется @UUID[Compendium.pf2e-animal-companions.AC-Support.Item.XrxIRaD1A5tpKm1t]</p><p>Если вы попадаете и наносите урон существу в пределах досягаемости вашего тираннозавра, это существо становится @UUID[Compendium.pf2e.conditionitems.Item.TBSHQspnbcqxsmjL]{Напугано 1}.</p>",
			"rules": {
				"1": {
					"text": "Если вы попадаете и наносите урон существу в пределах досягаемости вашего тираннозавра, это существо становится @UUID[Compendium.pf2e.conditionitems.Item.TBSHQspnbcqxsmjL]{Напугано 1}."
				}
			}
		},
		"Effect: Ulgrem-Lurann Support Benefit": {
			"name": "Эффект: Преимущество поддержки [Ульгрем-Луран]",
			"description": "<p>Предоставляется @UUID[Compendium.pf2e-animal-companions.AC-Support.Item.uZLtEOimbFnEDUKh]</p><p>Каждый раз, когда вы попадаете \"Ударом\" по существу, находящемуся в пределах досягаемости Ульгрем-Лурана, это существо получает дополнительный колющий урон и урон электричеством от Ульгрем-Лурана.</p>",
			"rules": {
				"0": {
					"prompt": "Ваш компаньон проворный или свирепый?"
				},
				"2": {
					"text": "Каждый раз, когда вы попадаете \"Ударом\" по существу, находящемуся в пределах досягаемости Ульгрем-Лурана, это существо получает дополнительные @Damage[({item|flags.pf2e.rulesSelections.ulgremLurannSupportBenefit})d4[piercing],({item|flags.pf2e.rulesSelections.ulgremLurannSupportBenefit})d4[electricity]] от Ульгрем-Лурана."
				}
			}
		},
		"Effect: Umbrella Mushroom Support Benefit": {
			"name": "Эффект: Преимущество поддержки [Зонтичный гриб]",
			"description": "<p>Предоставляется @UUID[Compendium.pf2e-animal-companions.AC-Support.Item.XVOVZjvTwaoalpWC]</p><p>Ваши \"Удары\", наносящие урон существу в пределах досягаемости вашего зонтичного гриба, делают это существо @UUID[Compendium.pf2e.conditionitems.Item.e1XGnhKNSQIm5IXg]{Одурманенным 1}. Этот эффект имеет признак @Trait[Poison]{яд}.</p>",
			"rules": {
				"1": {
					"text": "Ваши \"Удары\", наносящие урон существу в пределах досягаемости вашего зонтичного гриба, делают это существо @UUID[Compendium.pf2e.conditionitems.Item.e1XGnhKNSQIm5IXg]{Одурманенным 1}. Этот эффект имеет признак @Trait[Poison]{яд}."
				}
			}
		},
		"Effect: Undead Bird of Prey Support Benefit": {
			"name": "Эффект: Преимущество поддержки [Хищная птица нежить]",
			"description": "<p>Предоставляется @UUID[Compendium.pf2e-animal-companions.AC-Support.Item.bEkXle5FLNxnp3IE]</p><p>Когда вы \"Ударом\" наносите урон существу в пределах досягаемости вашей птицы, это существо становится @UUID[Compendium.pf2e.conditionitems.Item.i3OJZU2nk64Df3xm]{Неуклюжим 1}.</p>",
			"rules": {
				"1": {
					"text": "Когда вы \"Ударом\" наносите урон существу в пределах досягаемости вашей птицы, это существо становится @UUID[Compendium.pf2e.conditionitems.Item.i3OJZU2nk64Df3xm]{Неуклюжим 1}."
				}
			}
		},
		"Effect: Undead Hand Support Benefit": {
			"name": "Эффект: Преимущество поддержки [Рука нежить]",
			"description": "<p>Предоставляется @UUID[Compendium.pf2e-animal-companions.AC-Support.Item.imNJpD4afn4UrLpu]</p><p>Каждый раз, когда вы попадаете \"Ударом\" по существу, находящемуся в пределах досягаемости руки, это существо получает дополнительный дробящий урон от руки.</p>",
			"rules": {
				"0": {
					"prompt": "Ваш компаньон проворный или свирепый?"
				},
				"2": {
					"text": "Каждый раз, когда вы попадаете \"Ударом\" по существу, находящемуся в пределах досягаемости руки, это существо получает @Damage[({item|flags.pf2e.rulesSelections.undeadHandSupportBenefit})d6[bludgeoning]]."
				}
			}
		},
		"Effect: Vampiric Animal Support Benefit": {
			"name": "Эффект: Преимущество поддержки [Животное-вампир]",
			"description": "<p>Предоставляется @UUID[Compendium.pf2e-animal-companions.AC-Support.Item.3jZOVJsYwBQ7GPDi]</p><p>Ваши \"Удары\", наносящие урон существу в пределах досягаемости вашего животного-вампира, также наносят продолжительный урон кровотечением.</p>",
			"rules": {
				"0": {
					"prompt": "Ваш компаньон проворный или свирепый?"
				},
				"2": {
					"text": "Ваши \"Удары\", наносящие урон существу в пределах досягаемости вашего животного-вампира, также наносят @Damage[({item|flags.pf2e.rulesSelections.vampiricAnimalSupportBenefit})d6[bleed]]."
				}
			}
		},
		"Effect: Water Elemental Support Benefit": {
			"name": "Эффект: Преимущество поддержки [Элементаль воды]",
			"description": "<p>Предоставляется @UUID[Compendium.pf2e-animal-companions.AC-Support.Item.BFvS1wnFxgUqgX8m]</p><p>Когда вы попадаете \"Ударом\" и наносите урон существу в пределах досягаемости вашего элементаля воды, это существо становится @UUID[Compendium.pf2e.conditionitems.Item.i3OJZU2nk64Df3xm]{Неуклюжим 1}.</p>",
			"rules": {
				"1": {
					"text": "Ваш \"Удар\", наносящий урон существу в пределах досягаемости вашего элементаля воды, делает это существо @UUID[Compendium.pf2e.conditionitems.Item.i3OJZU2nk64Df3xm]{Неуклюжим 1}.</p>"
				}
			}
		},
		"Effect: Water Wraith Support Benefit": {
			"name": "Эффект: Преимущество поддержки [Водный рэйф]",
			"description": "<p>Предоставляется @UUID[Compendium.pf2e-animal-companions.AC-Support.Item.IUXX1lUd9kMzV4bq]</p><p>Каждый раз, когда вы попадаете по существу в пределах досягаемости вашего водного рэйфа, это существо становится @UUID[Compendium.pf2e.conditionitems.Item.TkIyaNPgTZFBCCuh]]{Ослеплённым}.</p>",
			"rules": {
				"1": {
					"text": "Каждый раз, когда вы попадаете по существу в пределах досягаемости вашего водного рэйфа, это существо становится @UUID[Compendium.pf2e.conditionitems.Item.TkIyaNPgTZFBCCuh]]{Ослеплённым}."
				}
			}
		},
		"Effect: Wolf Support Benefit": {
			"name": "Эффект: Преимущество поддержки [Волк]",
			"description": "<p>Предоставляется @UUID[Compendium.pf2e-animal-companions.AC-Support.Item.5HnWXmOp8qNjfhdU]</p><p>Ваши \"Удары\", наносящие урон существам в пределах досягаемости вашего волка, дают цели штраф состояния −5 футов к Скоростям (−10 при критическом успехе).</p>",
			"rules": {
				"1": {
					"text": "Ваши \"Удары\", наносящие урон существам в пределах досягаемости вашего волка, дают цели штраф состояния −5 футов к Скоростям. @UUID[Compendium.pf2e-animal-companions.AC-effects.Item.UhWenwf5XOlk9ZHY]"
				},
				"2": {
					"text": "Ваши \"Удары\", наносящие урон существам в пределах досягаемости вашего волка, дают цели штраф состояния −10 футов к Скоростям. @UUID[Compendium.pf2e-animal-companions.AC-effects.Item.6x4zqyWl3pQiE9lw]"
				}
			}
		},
		"Effect: Wolf Support Benefit (-10-foot penalty)": {
			"name": "Эффект: Преимущество поддержки [Волк, Штраф состояния −10 футов]",
			"description": "<p>Предоставляется @UUID[Compendium.pf2e-animal-companions.AC-Support.Item.5HnWXmOp8qNjfhdU]</p><p>Вы получаете штраф состояния −10 футов к своим Скоростям.</p>"
		},
		"Effect: Wolf Support Benefit (-5-foot penalty)": {
			"name": "Эффект: Преимущество поддержки [Волк, Штраф состояния −5 футов]",
			"description": "<p>Предоставляется @UUID[Compendium.pf2e-animal-companions.AC-Support.Item.5HnWXmOp8qNjfhdU]</p><p>Вы получаете штраф состояния −5 футов к своим Скоростям.</p>"
		},
		"Effect: Wood Elemental Support Benefit": {
			"name": "Эффект: Преимущество поддержки [Элементаль дерева]",
			"description": "<p>Предоставляется @UUID[Compendium.pf2e-animal-companions.AC-Support.Item.KomM6mTwJAzvqAgi]</p><p>Если вы попадаете \"Ударом\" и наносите урон существу в пределах досягаемости вашего элементаля дерева, это существо получает штраф обстоятельства −5 футов к своим Скоростям на 1 минуту (−10 при критическом успехе).</p>",
			"rules": {
				"1": {
					"text": "Если вы попадаете \"Ударом\" и наносите урон существу в пределах досягаемости вашего элементаля дерева, это существо получает штраф обстоятельства −5 футов к своим Скоростям. @UUID[Compendium.pf2e-animal-companions.AC-effects.Item.U2mkebPNSs531ADL]"
				},
				"2": {
					"text": "Если вы попадаете \"Ударом\" и наносите урон существу в пределах досягаемости вашего элементаля дерева, это существо получает штраф обстоятельства −10 футов к своим Скоростям. @UUID[Compendium.pf2e-animal-companions.AC-effects.Item.FPqIVdqeegX6YATJ]"
				}
			}
		},
		"Effect: Wood Elemental Support Benefit (-10-foot penalty)": {
			"name": "Эффект: Преимущество поддержки [Элементаль дерева, Штраф состояния −10 футов]",
			"description": "<p>Предоставляется @UUID[Compendium.pf2e-animal-companions.AC-Support.Item.KomM6mTwJAzvqAgi]</p><p>Вы получаете штраф обстоятельства −10 футов к своим Скоростям.</p>"
		},
		"Effect: Wood Elemental Support Benefit (-5-foot penalty)": {
			"name": "Эффект: Преимущество поддержки [Элементаль дерева, Штраф состояния −5 футов]",
			"description": "<p>Предоставляется @UUID[Compendium.pf2e-animal-companions.AC-Support.Item.KomM6mTwJAzvqAgi]</p><p>Вы получаете штраф обстоятельства −5 футов к своим Скоростям.</p>"
		},
		"Effect: Zombie Carrion Bird Support Benefit": {
			"name": "Эффект: Преимущество поддержки [Зомби птица-падальщик]",
			"description": "<p>Предоставляется @UUID[Compendium.pf2e-animal-companions.AC-Support.Item.zE01vpjowhoKygig]</p><p>Каждый раз, когда вы попадаете по существу, находящемуся в пределах 10 футов от этого зомби птицы-падальщика, и наносите урон, это существо получает дополнительный урон.</p>",
			"rules": {
				"0": {
					"prompt": "Ваш компаньон проворный или свирепый?"
				},
				"2": {
					"text": "Каждый раз, когда вы попадаете по существу, находящемуся в пределах 10 футов от этого зомби птицы-падальщика, и наносите урон, это существо получает дополнительные @Damage[({item|flags.pf2e.rulesSelections.zombieCarrionBirdSupportBenefit})d6[untyped]]."
				}
			}
		},
		"Effect: Zombie Mount Support Benefit": {
			"name": "Эффект: Преимущество поддержки [Зомби скакун]",
			"description": "<p>Предоставляется @UUID[Compendium.pf2e-animal-companions.AC-Support.Item.N9fYaUuIgD6RQ7CY]</p><p>Каждый раз когда вы, сидя на зомби-скакуне, попадаете \"Ударом\" по существу в пределах досягаемости зомби-скакуна, это существо получает дополнительный дробящий урон от зомби-скакуна.</p>",
			"rules": {
				"0": {
					"prompt": "Ваш компаньон проворный или свирепый?"
				},
				"3": {
					"text": "Каждый раз когда вы, сидя на зомби-скакуне, попадаете \"Ударом\" по существу в пределах досягаемости зомби-скакуна, это существо получает @Damage[({item|flags.pf2e.rulesSelections.zombieMountSupportBenefit})d4[{item|flags.pf2e.rulesSelections.zombieMountDamage}]] от зомби-скакуна."
				}
			}
		},
		"Effect: Zombie Support Benefit": {
			"name": "Эффект: Преимущество поддержки [Зомби]",
			"description": "<p>Предоставляется @UUID[Compendium.pf2e-animal-companions.AC-Support.Item.yAYlM3aIRYnqx6j8]</p><p>Каждый раз, когда вы попадаете по существу, находящемуся в пределах 10 футов от этого зомби, и наносите урон, это существо получает дополнительный урон, так как рана гноится.</p>",
			"rules": {
				"0": {
					"prompt": "Ваш компаньон проворный или свирепый?"
				},
				"2": {
					"text": "Каждый раз, когда вы попадаете по существу, находящемуся в пределах 10 футов от этого зомби, и наносите урон, это существо получает @Damage[({item|flags.pf2e.rulesSelections.zombieMountSupportBenefit})d6[untyped]], так как рана гноится."
				}
			}
		}
	}
}