{
    "label": "Макросы от Symon",
    "mapping": {
        "name": {
            "path": "name",
            "converter": "itemNameConverter"
        },
        "description": "system.description.value",
        "rules": {
            "path": "system.rules",
            "converter": "carefulMerge"
        }
    },
    "entries": {
        "Spell Effect: Triple Time (3 rounds)": {
            "name": "Эффект заклинания: Трехдольный размер (3 раунда)",
            "description": "<p>Предоставляется @UUID[Compendium.pf2e.spells-srd.Item.c8R2fpk88fBwJ1ie]</p>\n<p>Вы получаете бонус состояния +10 футов к Скорости.</p>"
        },
        "Spell Effect: Triple Time (4 rounds)": {
            "name": "Эффект заклинания: Трехдольный размер (4 раунда)",
            "description": "<p>Предоставляется @UUID[Compendium.pf2e.spells-srd.Item.c8R2fpk88fBwJ1ie]</p>\n<p>Вы получаете бонус состояния +10 футов к Скорости.</p>"
        },
        "Spell Effect: Inspire Courage (3 rounds)": {
            "name": "Эффект заклинания: Вдохновить на смелость (3 раунда)",
            "description": "<p>Предоставляется @UUID[Compendium.pf2e.spells-srd.Item.IAjvwqgiDr3qGYxY]</p>\n<p>Вы вдохновлены ободряющими словами или мелодиями. Вы получаете бонус состояния +1 к броскам атак, броскам урона и спасброскам против эффектов @Trait[Fear]{страха}.</p>",
            "rules": {
                "0": {
                    "label": "Вдохновить на смелость"
                },
                "1": {
                    "label": "Вдохновить на смелость"
                },
                "2": {
                    "label": "Вдохновить на смелость (против страха)"
                }
            }
        },
        "Spell Effect: Inspire Courage (4 rounds)": {
            "name": "Эффект заклинания: Вдохновить на смелость (4 раунда)",
            "description": "<p>Предоставляется @UUID[Compendium.pf2e.spells-srd.Item.IAjvwqgiDr3qGYxY]</p>\n<p>Вы вдохновлены ободряющими словами или мелодиями. Вы получаете бонус состояния +1 к броскам атак, броскам урона и спасброскам против эффектов @Trait[Fear]{страха}.</p>",
            "rules": {
                "0": {
                    "label": "Вдохновить на смелость"
                },
                "1": {
                    "label": "Вдохновить на смелость"
                },
                "2": {
                    "label": "Вдохновить на смелость (против страха)"
                }
            }
        },
        "Spell Effect: Inspire Defense (3 rounds)": {
            "name": "Эффект заклинания: Вдохновить на защиту (3 раунда)",
            "description": "<p>Предоставляется @UUID[Compendium.pf2e.spells-srd.Item.bH0kPuf7UKxRvi2P]</p>\n<p>Вы и все ваши союзники в области получаете бонус состояния +1 к КБ и спасброскам, а также сопротивление физическому урону, равное половине ранга заклинания.</p>\n<p><em>Заметка: сопротивление не добавляется автоматически.</em></p>",
            "rules": {
                "0": {
                    "label": "Вдохновить на защиту"
                },
                "1": {
                    "label": "Вдохновить на защиту"
                }
            }
        },
        "Spell Effect: Inspire Defense (4 rounds)": {
            "name": "Эффект заклинания: Вдохновить на защиту (4 раунда)",
            "description": "<p>Предоставляется @UUID[Compendium.pf2e.spells-srd.Item.bH0kPuf7UKxRvi2P]</p>\n<p>Вы и все ваши союзники в области получаете бонус состояния +1 к КБ и спасброскам, а также сопротивление физическому урону, равное половине ранга заклинания.</p>\n<p><em>Заметка: сопротивление не добавляется автоматически.</em></p>",
            "rules": {
                "0": {
                    "label": "Вдохновить на защиту"
                },
                "1": {
                    "label": "Вдохновить на защиту"
                }
            }
        },
        "Spell Effect: Song of Strength (3 rounds)": {
            "name": "Эффект заклинания: Песня силы (3 раунда)",
            "description": "<p>Предоставляется @UUID[Compendium.pf2e.spells-srd.Item.Xxdwkt0EEDgP1LGc]</p>\n<p>Вы поддерживаете физическую силу своих союзников душевными наставлением. Вы и ваши союзники получаете бонус состояния +1 к проверкам Атлетики и КС против действий навыка Атлетики, таких как @UUID[Compendium.pf2e.actionspf2e.Item.Dt6B1slsBy8ipJu9]{Разоружить}, @UUID[Compendium.pf2e.actionspf2e.Item.7blmbDrQFNfdT731]{Толкнуть} и @UUID[Compendium.pf2e.actionspf2e.Item.ge56Lu1xXVFYUnLP]{Опрокинуть}.</p>\n<p><em>Заметка: Бонус к КС не добавляется автоматически.</em></p>"
        },
        "Spell Effect: Song of Strength (4 rounds)": {
            "name": "Эффект заклинания: Песня силы (4 раунда)",
            "description": "<p>Предоставляется @UUID[Compendium.pf2e.spells-srd.Item.Xxdwkt0EEDgP1LGc]</p>\n<p>Вы поддерживаете физическую силу своих союзников душевными наставлением. Вы и ваши союзники получаете бонус состояния +1 к проверкам Атлетики и КС против действий навыка Атлетики, таких как @UUID[Compendium.pf2e.actionspf2e.Item.Dt6B1slsBy8ipJu9]{Разоружить}, @UUID[Compendium.pf2e.actionspf2e.Item.7blmbDrQFNfdT731]{Толкнуть} и @UUID[Compendium.pf2e.actionspf2e.Item.ge56Lu1xXVFYUnLP]{Опрокинуть}.</p>\n<p><em>Заметка: Бонус к КС не добавляется автоматически.</em></p>"
        }
    }
}